500
0 5715 4855 2340 6101 79 4679 105 719 1871 2768 7630 3630 8428 4957 4079 9518 8183 2426 6187 5966 3081 116 1043 3251 6611 5072 9758 3944 4222 3468 7013 527 7055 5502 6687 5548 2900 7710 7135 6953 9775 528 1800 1665 8439 8531 8022 883 2601 9580 9352 3875 4216 6201 2247 1583 793 7291 7765 3520 518 6054 
1 3308 5735 329 9026 6752 8782 7777 8270 3987 715 5798 3766 2863 7314 2915 7484 7354 4081 1295 8441 971 9842 4035 6534 5677 3783 7413 8671 1105 
2 3488 6959 9448 6124 9190 3038 5481 6877 3202 2495 8676 9404 8600 
3 7197 602 3183 2956 4914 8860 3569 1130 4266 3338 5688 6613 7997 7575 6134 732 8212 6082 
4 5849 358 3870 1651 2203 4798 4337 4333 1786 3839 6190 9755 2728 5028 2791 4925 4993 6160 7980 8881 9113 1668 5962 2555 6613 4314 9301 9903 5507 
5 8093 7841 1958 9604 5375 3284 7499 3811 5552 1952 291 5195 8265 5748 6327 8711 9301 7517 
6 359 6805 9665 1045 430 3349 4585 2214 9675 639 206 4359 
7 4938 2591 665 2957 2936 4411 1440 8535 2570 9562 1810 7991 9789 321 5248 
8 321 2240 8416 7042 6535 9975 9883 6583 2777 3591 1234 4431 3144 5458 2986 4909 
9 9680 3033 2523 484 7846 7270 5635 8517 2106 1478 6258 6021 183 9453 6986 8495 569 3830 
10 2276 9738 7195 245 6801 4291 799 7682 4855 329 1105 7438 8193 6986 3885 
11 8175 6865 2860 9863 359 7773 8356 2823 809 220 1383 476 
12 2288 2962 1752 7481 1956 6281 2707 3513 776 2414 4442 6270 9852 7049 3784 5339 3326 847 7200 7167 1784 2175 1678 652 5342 8233 1647 7500 8301 4693 8732 4034 7206 8600 4343 4710 3914 1409 7965 2212 3835 977 2966 673 5677 2327 
13 537 9708 1758 5611 55 3167 7817 7623 3756 8125 4326 4314 745 6537 183 7732 3885 6672 352 7413 
14 9835 6633 3351 9046 6546 8602 3532 5012 4044 9753 7699 3543 9930 5458 4624 
15 3982 1774 8994 1668 2240 8812 2013 8830 4497 9428 4905 819 613 2799 1248 756 3134 6464 6538 4893 8470 5913 2563 7554 1562 1523 9406 3077 954 2612 7280 2182 1058 447 1625 5219 
16 318 8901 9715 5603 2213 5475 8173 4057 7438 1774 979 8671 1121 5917 
17 3325 822 3709 8372 3131 6521 9678 5931 9881 9030 7806 1079 5458 447 
18 6253 9824 7877 3266 9710 2372 97 2125 2892 4958 3783 116 2666 
19 4205 5521 1643 2217 1168 1215 2131 134 1134 4385 3935 
20 9554 2027 2330 6207 4515 3060 3788 8166 5326 8116 4786 
21 1980 6252 3208 5532 578 7437 2626 4543 6030 9139 1774 3023 1105 7880 4107 925 9013 5341 3004 4020 6778 9842 
22 6700 1652 7103 6882 4042 6597 9246 3015 1790 9931 7880 
23 7450 8312 4668 6679 4177 2324 9769 9320 2532 1429 9501 2773 7296 6369 8431 4679 925 9453 6584 8125 
24 2914 8242 1726 3855 7139 3627 924 7380 7120 7413 6327 4176 4352 4354 1534 6482 
25 9244 7676 6764 9884 8403 1804 9242 4136 2525 6262 8644 1353 7285 
26 785 6125 8059 9373 3892 9100 8380 8335 
27 1462 9452 7522 8117 2289 1433 8170 5320 1020 3486 1117 
28 9968 5412 4999 8043 8314 4672 7613 1844 9881 5227 9447 1803 9615 8193 9573 1125 7997 8794 6458 2052 4180 7438 
29 79 9968 6938 6803 37 3650 2498 6299 7539 1778 4377 8490 3550 3004 2773 5064 7902 
30 569 1744 4516 6852 6780 6682 7648 4305 9001 8212 4786 5307 6054 5156 
31 2555 8716 6932 5900 1565 9839 6760 3954 4182 6543 9834 3316 6045 6538 9789 4385 
32 2240 8125 238 7471 9270 6202 1058 6458 7736 1692 1840 6626 5891 5377 8861 1557 450 3006 105 1534 
33 7726 1600 9801 6801 4499 7930 490 2065 3515 139 1871 2518 7206 5053 3023 
34 447 9842 5748 5917 6014 4526 420 3106 2052 5175 6895 6949 3050 1657 3684 5826 2274 7899 4168 3504 2424 6061 1206 912 3664 6377 6225 3864 5113 9581 858 5407 3184 5201 1807 5968 6585 7247 3998 9199 935 412 1740 9197 
35 35 6672 3261 2561 6161 4786 568 5850 3817 6487 6920 2371 4912 8907 1607 76 4836 6280 6204 444 3703 2003 9682 1752 1299 569 9244 
36 8125 8199 2395 3484 8689 7516 2253 854 5040 1383 8487 1871 2095 9848 
37 569 8134 8406 2666 7413 3316 925 7799 6571 8186 3124 1524 7846 124 9197 4032 3103 8212 7522 
38 4909 183 8470 7791 6692 476 6216 7029 1986 5193 3119 6251 2264 4912 9404 8169 8794 1216 5326 6635 2074 8227 5053 6101 3435 9988 2407 1329 30 2085 7790 3184 2554 7598 365 1546 9917 6123 5173 2175 8618 8135 4686 1657 1401 517 2182 236 8145 
39 2240 6258 1774 6021 5064 1134 6540 4020 6684 7761 3574 6501 6908 9013 7880 4197 3743 4809 7438 6547 238 1956 1625 6465 4786 9075 2790 
40 8994 8005 3144 6134 5322 9443 1149 5219 1238 6360 647 2155 6428 9990 9160 3944 1752 1625 1328 3758 4958 3537 9265 5860 3184 9281 7795 7213 828 6621 9579 1083 5504 7143 5758 432 9036 8696 5848 1105 5097 8269 921 4091 4037 7553 8922 3153 9555 9936 1205 8251 616 2192 9050 1110 3213 72 9407 1153 6060 8174 3077 
41 221 2175 5097 6920 1252 2662 2732 7919 6467 3665 7 2233 8944 7026 7792 4192 9480 5553 5522 9428 6500 4804 8628 6549 9463 2776 2064 9551 8859 991 3023 
42 7949 3936 6258 4199 4326 1343 412 9301 4341 4311 450 259 3261 4531 2182 8105 6470 9404 3981 6014 139 2414 8284 4107 6635 5788 4362 8387 6424 4967 9230 9013 135 7267 8345 1058 8841 1083 7234 4558 4801 7055 4367 3584 1611 8696 4108 6487 2005 7629 325 2595 2426 9709 9260 5006 7486 8883 90 7861 9758 9777 8145 208 1942 7742 4661 2513 2538 9114 9688 84 3061 8157 8428 952 3823 250 3320 9040 9947 1043 5451 3453 2607 9573 2600 6046 7210 7333 6650 3795 3354 4913 1555 6696 457 7247 88 6744 1534 7429 
43 7949 8491 4855 9848 6258 7709 1105 2121 9013 3163 6467 4314 8470 4765 2892 2407 9545 8183 3050 8227 2413 4477 3426 4383 2614 5969 2523 5205 530 
44 7713 2114 6547 1625 4457 3728 574 1091 5902 3528 5193 6428 5219 2407 6360 4129 8062 8512 5783 8470 3961 56 5710 6024 7419 7833 9659 9014 7525 1081 5172 6588 3427 367 6178 6161 6899 4356 1110 640 4909 3821 1295 4970 3425 7038 22 2016 2005 8174 5964 9120 7519 88 5054 7939 7331 8445 8069 7210 3207 
45 9244 7296 2340 2 9139 4985 374 5788 4151 991 6608 5340 5483 2409 6549 7200 4901 300 2929 9573 4282 3023 8375 7029 2698 5948 46 8722 1833 9836 9608 3236 6258 7454 4027 6931 354 557 8256 6332 8859 9313 9609 4337 2155 9470 1583 1661 2615 1500 1353 7426 9637 745 8217 4102 4121 1524 2666 5099 6343 2422 6100 3103 1710 3111 
46 7296 3885 1625 3371 3521 847 3543 3914 7298 4638 9573 3916 5709 3023 1058 8942 5251 4503 5322 4566 8393 1546 9349 
47 7880 1476 5691 6545 5723 8007 3363 4593 7669 9464 9354 7355 2507 7463 3802 999 1552 1705 7049 
48 8994 9968 9129 7880 7652 9453 8910 2615 2630 5775 3111 2128 8193 7285 6470 5458 3032 8212 9443 5752 8104 6095 450 311 8259 2155 3751 518 3050 8920 9050 4377 1058 850 7568 7174 6672 9970 4302 7816 1546 9014 5548 3504 3404 405 6138 2031 117 9023 7519 5784 
49 1668 2240 352 8193 4664 9990 4314 3376 5543 6134 3781 2003 8832 2707 9731 6020 1289 709 1948 8030 7050 4828 6073 8593 866 2897 6196 221 3863 9330 6338 5254 9219 9865 7413 6447 3792 8498 5232 7454 9933 1560 4317 523 143 7428 4362 1778 8579 3533 9852 7210 420 
50 4199 1343 9199 8812 4985 9138 6187 8495 9731 7120 199 1670 6547 5386 5860 2611 4134 5043 6986 6492 1260 7333 9623 4108 2346 8883 30 5014 1358 2475 8599 951 5326 5656 7922 6630 7787 5194 6347 6650 496 1230 3023 5993 8332 1750 1729 6982 2117 937 6077 9005 6528 3408 1552 2927 8386 7367 8583 
51 6938 5748 7949 8498 6030 4129 7736 2630 3163 205 1560 4107 450 6028 7950 2345 6280 8539 6170 4222 6855 468 523 1375 3830 177 4069 1476 6528 7055 8566 7845 9349 9609 7234 3380 6744 9697 6652 3537 7511 9040 6503 2904 9003 1195 4886 660 8776 456 1986 545 5895 6671 9463 3950 155 2404 5129 7922 7126 5594 8877 1123 2951 3835 4230 4597 7133 
52 2962 9244 4855 139 935 4585 128 1374 6238 3359 9455 7281 7223 1145 2345 295 3106 8069 
53 6613 3877 6938 7699 447 7517 7852 6635 5307 8470 6778 2790 450 6020 7736 9043 3602 7456 1979 6014 2414 4527 8116 5788 6737 2181 9104 2020 4532 9082 4725 5386 8844 5234 4269 707 9120 3158 7210 
54 935 6538 3006 7783 380 747 7168 2228 3337 1823 9893 7318 7198 
55 1134 4824 2078 7118 9870 2259 473 6349 6304 1419 8284 7296 
56 7880 447 2058 2943 6170 5661 2475 5341 8150 6621 7044 6390 5043 1123 3853 311 9152 3669 8105 3004 7755 9332 395 7604 2264 8965 3708 1719 4501 2662 6454 9418 7526 9565 6802 5531 5783 7615 1831 4733 3871 5862 3870 8189 8008 6737 1510 8702 8233 9376 
57 8994 3894 1979 6101 9013 5507 6978 1476 3074 7782 8528 2322 9649 9688 8332 6980 2904 1079 6351 4367 6306 4890 7614 8164 4034 6867 5221 8097 4639 6376 2894 2317 9268 2085 6499 8235 8580 75 2139 3751 6875 3012 9007 
58 935 4377 2704 4728 2550 8402 6118 2781 3304 8549 3887 9731 7123 5782 3773 8858 3804 76 9216 3981 
59 2 2340 6101 6404 3012 1774 7001 569 7193 5899 4626 1557 4035 9733 3961 6842 3612 4539 2100 9751 7786 8157 2000 8858 1352 4356 1247 2342 3005 9803 8306 7542 8600 2705 281 9989 1425 9971 7882 5678 9085 6054 
60 861 1649 1145 6962 1428 1608 644 9911 3727 8899 1699 2532 9878 7781 5977 8470 1852 1824 7480 4527 135 5758 9607 8690 5869 1353 8134 
61 3894 412 4199 6547 1429 4340 9013 6778 8663 5386 2858 1750 4967 4801 9023 2304 5097 5029 1375 8794 2892 4400 477 6790 369 2673 8958 4134 7289 9014 8830 6836 7899 4442 2407 6280 7481 8092 6550 1904 3561 3752 3950 5898 6073 7845 7987 4783 1328 8887 5543 6487 5583 3673 4660 9758 4441 9538 2730 5572 901 5668 4601 5993 9861 5177 2422 
62 5307 1429 2892 5341 1353 2790 6020 4340 3379 5451 7806 7413 7845 7864 4901 7933 8896 8418 8470 5072 2060 2128 1009 8015 2125 585 6528 148 8134 8830 5155 5871 1137 116 1819 5397 4695 6489 2935 5281 3405 232 9259 2322 1079 369 
63 7949 3023 5784 6196 3541 3261 8125 2679 1353 7026 5088 5341 2383 4282 9120 1358 1538 2263 8908 8912 7369 4068 207 8344 7001 4188 6074 5177 9645 7036 2322 1798 8189 4909 9995 2416 3784 2842 6021 7267 6921 2990 8212 2005 8907 7698 3275 4193 7556 1091 503 4212 569 3584 
64 5340 4035 2986 6827 8134 4176 3982 9013 9224 4531 8812 7791 1216 2327 8212 4362 139 6360 1145 5783 4129 8394 6745 6109 5886 2128 2267 6550 815 3363 7782 7624 7200 3703 6404 
65 6547 2114 3023 9931 4679 300 3089 5386 2322 9713 3144 6778 2058 8062 3427 7062 7044 6895 8227 7886 3256 5284 3058 5401 6669 3079 5042 5357 882 1606 8386 5248 6962 5446 8183 
66 5007 8193 9509 5475 7802 84 8042 4736 4003 6521 4748 5004 1383 7 
67 5748 7296 1121 7968 4824 5445 847 2847 9023 2611 9144 3026 8585 8436 249 1963 1100 8790 1670 8071 2821 7873 719 640 6635 5307 
68 2340 4326 6258 7949 8263 3428 6472 2417 1019 450 7491 745 5241 6225 3897 5443 8350 4206 5101 131 2239 780 1148 3111 5219 3792 9299 
69 1534 745 2630 8599 9023 7545 2475 8307 1831 7049 4784 6347 5895 7579 5752 5548 1898 3203 6099 949 3944 8157 5717 3344 2512 1842 9456 5928 2453 3700 6787 1129 135 
70 4539 8069 2699 4362 8696 6369 1216 2136 5572 3158 5492 1956 7077 2932 8726 2707 6424 4156 2652 5455 2665 4168 8035 6857 9241 1009 2479 8495 
71 1668 5412 3074 9968 8387 4020 4341 4624 450 3543 1289 5917 8130 3261 5899 2858 5156 4129 4679 4526 7234 951 753 8183 4045 3089 5783 7049 7179 6899 5784 476 1476 7987 1150 2732 9086 6280 9032 9036 8423 712 5772 9510 133 8600 9349 8428 545 7053 1611 3731 5349 8775 5885 6060 2263 7899 2349 9496 3073 9004 4528 3061 177 660 4507 1858 8068 7180 7688 3684 9548 2798 8185 7499 9649 4223 2183 1260 6672 
72 7949 9244 7713 8711 3885 311 8116 3232 3320 3111 557 3125 7586 3326 2263 6020 6625 2414 3393 2001 7289 1638 7123 3926 7899 6903 4606 8428 7386 5645 5459 6913 9169 4587 5774 982 3020 2858 246 457 367 7948 7486 5245 5322 4377 
73 6547 6021 5064 7456 9224 443 1670 8841 2349 1710 7219 7519 374 6044 3304 3751 8896 8332 5887 4843 2074 5006 3146 719 9302 496 5383 3567 880 9806 4959 2263 4596 8361 4345 8423 3950 8145 5670 3989 9709 5112 7787 6621 9933 4937 7013 2194 8249 2475 3160 1822 6922 3673 4561 7429 
74 7438 3543 8233 1570 340 4212 2000 753 5326 7365 3666 135 3093 3 8628 8722 7069 6484 4752 3567 9290 285 9780 6024 5884 9518 9169 2757 6970 5396 4967 420 7267 4612 1752 5077 7399 5416 8728 4340 569 
75 575 6067 3077 2383 1464 8748 3386 9137 4627 7787 8156 7467 6977 8362 2871 6356 5006 3408 8325 9688 7511 9837 1510 1504 89 786 2735 9029 8405 8198 8445 812 1822 7519 9573 
76 3074 7296 4020 2340 412 6101 2904 4624 8495 9265 9160 5451 8920 4279 6044 7263 193 4073 5775 3293 1744 1750 6527 6797 3158 2407 9347 7845 7012 4311 
77 7438 1984 3836 5219 7517 5848 8644 6404 7795 4176 1343 3981 2322 7864 3316 2407 732 116 5677 9852 6360 574 238 9003 3528 6082 8396 2260 3207 5397 8343 9600 4787 2028 3905 9160 5386 647 4423 6153 1454 475 7355 4045 8484 4377 5784 4399 5788 5775 1305 3377 7320 3184 7044 6285 2480 5948 8450 7434 8907 7193 7739 9836 1156 4988 7027 2439 1986 6505 7527 5898 7206 4354 2320 8580 583 1546 9480 
78 2986 8125 4855 1625 6537 6054 2013 6986 6482 8722 8711 6044 9139 1534 183 7709 199 7652 9903 4728 1121 412 7968 4624 1496 4647 3427 6526 435 6447 4027 6067 1044 9886 7802 9349 1871 4134 3286 8092 8396 5489 6687 5082 5111 3446 7097 1639 3400 7267 511 541 4340 4901 
79 3074 7368 4255 1229 5844 976 5366 4397 6377 2616 721 5998 7852 395 9199 
80 3012 9244 8711 3376 1383 5862 4362 6196 6270 847 6675 8462 2927 6028 991 6765 7367 3958 9712 6100 4317 4921 9260 5808 4923 1081 6355 9259 2414 658 7914 811 5662 9089 3895 8231 5828 3781 7579 
81 2240 7429 7713 8716 3584 728 9241 9961 824 3872 9896 2417 2024 9320 7858 8007 345 3753 139 5775 9075 7012 
82 1105 8406 4400 5752 9444 3006 420 9465 5088 2611 7653 340 7234 1110 2183 8375 3432 3537 3961 5871 3234 7630 8593 6001 8332 5724 2155 1791 6817 7751 6566 8507 2603 5795 1601 1401 208 9500 3916 1580 2644 2900 6295 7612 108 8880 9713 
83 7762 2643 7438 7240 5064 9842 8671 1125 8284 9139 847 1763 6014 1784 1289 5748 9224 5821 4180 1657 4071 4824 6978 9023 1670 4060 7474 2670 8484 3405 8150 8195 6798 108 5129 8881 4588 3300 6422 131 9481 7231 9709 6170 8910 
84 9968 321 2962 5412 4985 3103 2643 4326 6101 7883 5715 259 6327 6537 8491 1984 2340 9129 148 9615 8043 3077 8910 2422 183 8812 2109 1739 3792 2058 745 3113 3032 5053 7366 9372 9150 3391 6850 925 2467 1072 9023 2811 5196 5783 776 6772 7880 1117 4958 
85 9623 3720 8284 1139 4362 7568 9991 2897 2475 8600 7641 6853 5780 2158 4463 9955 7180 9089 8539 5019 9548 9149 3184 5270 5979 4004 246 7634 6063 6675 6815 5385 3141 5860 4348 6071 2017 3869 2085 2345 9764 8302 5950 622 2979 4828 6250 1625 9453 
86 2240 5412 4352 1429 259 4824 3074 6030 6547 3006 5386 1375 6465 6161 2260 116 9178 650 9160 477 4539 8599 2136 2790 5504 3104 9040 4170 7630 7992 4056 5088 3158 5849 1799 2589 707 4027 6675 5063 3794 5767 6297 7234 7792 5309 3384 8022 6424 6694 9238 552 4962 7055 
87 9007 7438 1534 352 5307 6584 1979 6044 1238 9270 3316 6141 6082 7968 5248 4199 732 8235 7133 8910 7806 3285 7732 8841 9265 5099 843 4923 7899 761 7992 2136 4526 8386 3720 3243 8539 6424 5006 3380 6946 7333 7950 4245 5992 7733 5966 6291 8031 2202 8169 2173 9113 7278 9579 900 1032 4063 6486 220 4717 2699 2304 
88 7949 5412 2555 2121 2288 4314 412 8722 4311 7240 8431 9199 238 7864 8671 5862 3144 6187 1496 2662 5326 8183 4286 925 6270 1429 5677 5156 843 753 1358 1601 1348 3905 4362 9483 108 518 5099 75 4060 4962 8145 8185 5251 6153 7087 7852 5212 8343 4959 5401 496 9733 3752 1981 6170 8210 5386 3932 9720 850 3533 5548 5193 5775 712 6625 524 863 2779 660 718 3928 8934 6188 6608 7304 3093 7948 3251 
89 7088 7791 3586 1625 6458 7919 3509 7577 838 7884 3069 9003 4886 997 3024 7898 9802 1067 3097 6541 5451 5997 9688 6306 6482 7579 552 
90 6886 1861 7622 6853 5914 445 3224 9158 8366 3125 4027 1123 
91 647 8498 8193 8794 200 5848 5783 4286 4531 8883 9139 5446 8105 369 4151 6611 4912 2515 8184 17 4388 6203 6228 6911 238 6627 4053 7713 3792 7997 
92 2240 6635 5326 1429 847 6482 8512 1348 8832 5053 9731 6296 867 105 4129 6737 1353 7933 9230 8092 4558 6141 4442 8484 4787 9043 4828 6236 3843 5942 2902 4343 6875 670 4226 7820 5347 1095 2784 3374 8705 4671 5537 2263 2670 4803 4045 
93 8716 6458 7399 2616 736 8488 2301 7352 2847 1826 3418 3271 6192 8582 1546 183 
94 1668 925 4020 843 105 1774 8722 2426 7883 3207 9545 1025 311 8728 4855 8609 5788 4108 4348 405 8920 4967 3146 4326 7948 5099 2818 6251 247 6549 5458 7864 9040 183 3752 3836 6785 3081 3259 7834 7053 3783 3495 9341 22 6748 8284 977 2182 1241 9160 6770 5866 2740 4385 1984 8681 8168 2211 8236 7285 6190 8254 9265 7949 2128 5219 
95 5686 2473 268 8971 7648 8648 1069 1775 356 4079 2274 6296 
96 3877 183 1383 838 8484 476 8293 9075 776 2158 3051 4606 6675 2611 8116 9464 6978 1498 8908 7026 5492 9496 6903 6608 8332 7049 8593 1710 6359 7434 3823 1538 1192 2335 9991 4619 122 220 545 550 9600 2085 3950 9332 8687 5937 1980 4442 8528 7586 5801 1429 843 
97 6613 3758 6538 9270 6054 1343 3371 2128 1956 6744 8540 5401 2136 3617 7710 9003 7211 4630 419 7274 3784 876 8130 9114 2898 9834 3376 
98 6613 1774 420 399 9852 8841 7055 9669 9903 2615 9043 9848 3106 4027 1042 7087 4168 8414 6889 1638 1246 300 6376 7586 4350 5925 2533 8907 4079 1117 2856 6351 5661 9598 2699 3309 1877 8022 1649 2972 2875 4150 4060 4043 5557 1273 307 3932 1750 7363 7199 5061 1150 8693 5632 4179 
99 2121 1299 4314 2155 9139 2892 5437 8212 9374 1134 5445 5468 9573 5099 2137 1601 2349 9907 5863 3612 5156 7041 6967 4577 2529 4561 6497 8666 9249 3722 115 2114 9593 8462 7852 1731 
100 9545 9160 6771 5702 2088 2857 9032 7615 5401 8628 3119 3798 9265 3491 1401 7204 7234 3158 1273 2052 1495 5797 1657 5384 8883 4526 9649 6262 188 5917 8248 9733 6765 6617 4612 349 118 3596 6129 6423 3113 8022 7961 782 2760 3172 3405 5193 6797 
101 3982 2422 7919 2892 7782 4346 6978 7361 8344 8775 7044 7880 7986 1014 359 2236 1751 4597 6686 5812 1835 2774 5502 9301 4352 4728 9842 447 
102 745 6101 2643 6258 447 4679 5458 6465 838 5762 1216 5902 1571 707 2858 1238 3184 2773 9107 1289 4923 937 2322 8599 4176 9347 6428 1784 468 5887 7845 1710 4671 2439 2403 425 3121 6925 1512 2764 5069 2454 4029 5052 9510 1868 8655 2216 850 5656 6512 6296 6134 
103 8209 6458 6141 9677 7511 6369 8528 3561 5194 295 9956 2901 540 5757 4819 2992 3662 1362 6115 188 6030 
104 9007 1668 8431 2155 6584 6134 3376 6030 6101 7713 647 3163 2858 4624 3602 9244 1289 6617 2445 9852 6525 7012 6154 4311 3610 5902 2057 7386 552 9661 1041 2943 6978 8795 6270 2413 5529 878 698 9470 5035 776 1401 4765 4967 
105 6613 3936 6101 5748 6672 7429 9903 5848 7438 450 7285 6827 3377 2630 2986 3792 4539 6020 4784 1145 6608 1353 5193 3285 1542 5445 1256 9248 5901 5344 8861 8704 8806 8 9040 6060 7456 5981 8121 8780 6014 7795 2768 4377 
106 5715 2555 8125 9007 1668 4199 5848 7413 9842 7438 8387 7055 238 569 843 8487 183 4107 4824 4400 2182 7204 6170 1601 1871 6687 6608 205 8343 9669 3513 9713 7053 4463 4501 3914 8307 1252 116 6454 420 5038 6899 2600 5295 2019 5921 3393 3379 6014 949 6744 9230 5053 3964 574 8284 7167 134 1066 411 8609 5085 1351 863 4060 3987 7606 9268 3958 2565 2001 8220 640 3722 6817 295 269 7180 6101 876 
107 1774 1299 8140 9003 7379 3509 1079 6771 5097 7694 9758 5767 8601 6226 3703 1728 7335 8982 9014 925 2175 993 9640 7740 5117 6082 4170 2698 9443 5053 8874 4660 7899 1780 8990 7984 5266 3656 8419 9971 5557 9036 2979 1287 8131 4299 8756 1552 3987 8157 3111 
108 6534 5219 5762 4901 6327 8212 2790 8134 2013 7179 116 1256 8145 7252 7085 7545 3073 6875 4034 1025 30 2569 3146 4269 9349 3869 8248 1252 4801 199 5849 3468 2212 3561 5772 782 1083 5838 5758 2929 4385 8531 749 9247 6100 8449 3020 2971 4946 4093 2414 2583 6381 2735 5451 
109 5715 9007 935 8005 7575 8431 7517 1238 8293 6161 2892 4743 3422 9129 1864 5805 9473 7384 8892 4169 6989 2480 3602 5099 2128 780 6470 6134 7204 
110 9129 4909 8043 5292 4602 8386 7972 7473 6354 8822 9668 4778 7138 4261 3672 6296 2390 1992 714 9524 4505 8666 4107 8663 7710 
111 2962 7709 259 9848 6404 1429 2422 3261 1784 6187 6161 200 7456 84 7266 7489 5679 9182 9349 9640 4558 3486 6454 4679 8195 2025 9661 2662 374 4999 6135 3699 3943 2365 7323 7791 9230 3427 6920 
112 79 2121 5748 7732 352 6584 2704 7997 8140 8069 6545 8332 2875 3914 6067 2175 7874 1560 6549 782 3981 6744 2892 5251 1900 2480 2475 7210 8896 6376 245 4207 3477 7097 4787 1617 2852 8384 5555 8958 960 
113 1668 935 7240 7880 5677 1238 8284 9301 7296 7 7545 8644 2439 5917 650 205 6020 7791 7267 1710 9003 2414 4679 5339 867 1611 780 8848 925 8248 3012 8797 8121 2467 5953 6153 1260 2166 4928 4436 3964 6783 4563 663 4752 3950 2668 3914 
114 2 5340 9545 979 3178 9780 4324 3219 4774 6467 8151 1445 380 6521 2961 4100 3903 3603 2173 5680 8910 1670 1752 6920 4340 1343 
115 3016 6375 9296 5181 4333 931 1457 3275 2883 9778 2559 597 762 1637 6398 4909 4901 511 369 
116 8145 4121 1313 2688 4917 5194 7259 2639 2794 1027 9859 4334 9979 
117 935 9842 7296 8043 8812 3111 9374 847 5386 5783 5862 1353 4341 6054 9043 583 2003 7001 3043 5295 6161 468 9178 7193 712 374 6492 8908 4561 9990 5898 2979 1956 4463 1607 9654 5849 4752 2943 6385 6833 8068 6554 7234 1401 1246 1305 8775 9955 860 9050 6836 5090 8431 6895 5304 135 5277 949 6652 8248 1396 8022 9652 4661 2274 8257 8808 323 7950 1770 7219 
118 6976 7867 7288 9999 8347 1364 9433 6018 8178 7312 8841 5413 5386 
119 7709 9224 311 569 9930 2327 1066 6584 3752 3050 4079 2412 9160 4619 6099 7864 5141 5948 3111 2114 3101 2554 7459 84 2630 3305 1868 177 9898 732 7369 9425 7920 4539 8589 1465 3254 9478 6458 9735 552 6046 3797 9677 2690 1363 8209 7146 5383 8539 5185 2014 1632 2583 8722 2699 8618 8498 
120 7133 2943 9443 2413 1079 5397 2679 8505 4164 2814 6263 974 399 9117 9925 782 8958 9008 7782 8491 
121 3316 238 9197 6187 2662 9086 7949 7474 761 7710 7579 8140 9032 250 5054 6599 450 8908 625 2589 2003 7876 3180 486 2150 4005 7760 1231 3842 6216 9930 
122 850 4948 527 454 8332 4286 8174 5504 7180 5194 1657 1195 3160 3537 496 8418 1223 8887 295 4317 7688 7787 9991 663 5090 9215 896 7751 1831 7899 5838 5607 6292 2513 7333 9014 4777 3750 860 7262 937 8191 8687 3412 5038 640 9483 
123 8462 6545 8528 9836 5141 541 457 8344 7213 4957 110 6652 638 3393 3665 6502 4948 5645 2139 4350 1731 896 3926 9138 1043 2630 9806 6292 8618 876 5543 3901 3812 3547 1933 3173 5871 7822 6817 2698 9451 7950 552 1430 6351 5385 7755 2002 7085 9010 4559 550 4843 5448 3798 921 9669 4326 
124 8134 1534 3836 3602 4583 444 6264 3244 868 5269 7372 6683 9602 1373 7787 7036 4080 5029 8090 9303 5947 956 2271 6476 5053 
125 79 1534 4352 3103 4326 4985 9224 7874 1287 7699 7880 4377 9480 1058 1149 7630 6922 1117 5993 9107 3752 6170 3081 9089 6836 7725 1571 527 2005 7396 552 6470 2537 6437 7569 5501 6770 6331 6486 4886 9008 3240 9050 5638 6477 1918 523 2100 2990 2232 1647 2607 7553 802 2790 232 2256 2146 4526 3427 7904 2810 7459 2136 3567 3393 5239 2128 1396 518 7629 5726 4870 9075 
126 9533 7652 6327 6827 7709 8431 9197 8105 2773 7481 8830 1524 8069 6170 9669 7545 9688 2858 8193 4340 6889 753 3758 7806 1238 3240 8439 8580 2650 8841 2005 7669 4923 7791 6621 7929 9483 7519 955 4302 7085 7456 405 7135 6423 1625 7147 7355 574 8687 9654 1780 4134 8015 860 726 8307 8227 9120 9347 2412 5359 3354 7039 709 8702 5483 6671 9649 3560 1341 1793 5019 1504 6212 867 5810 1393 3537 
127 1668 1774 5064 4020 8134 4035 9573 9270 199 1454 1979 8920 3377 3111 7883 4170 1956 135 4129 9008 7732 4759 7532 287 2556 6310 641 7424 707 299 2414 7204 1238 3830 
128 7883 3543 5869 3032 3376 5848 4352 7001 5446 9265 7429 3836 6778 603 3956 1081 4574 5294 6611 2876 1800 2104 7597 5451 4607 1737 5752 822 5522 5678 3718 1790 3135 8235 6058 3113 6070 6980 6360 
129 2 6938 1979 3521 6712 4787 4282 5129 8470 1495 7630 2058 374 4705 8145 2842 989 8092 9451 834 712 8168 7187 239 7622 2589 5334 1845 340 7436 6909 1567 1560 7254 1705 6424 8508 2750 1498 1657 6060 
130 2962 6258 4901 5340 8716 3261 4958 1871 7320 1601 2619 6769 6153 3729 1710 5170 6830 8227 9477 1896 9547 719 5099 5788 1328 9443 9086 447 
131 7949 4020 259 1299 8466 4488 7240 4963 4340 4791 8086 7847 5485 2947 4565 8547 2809 3521 6054 1496 3894 
132 4856 9483 4154 4862 999 4659 580 3018 607 2907 1042 6029 2304 9347 8812 
133 2340 4314 7713 6020 5752 6980 1348 4923 476 1611 6492 5359 3343 1831 949 2910 5895 6621 9347 8836 9777 3673 5668 7202 6301 7950 4497 1963 2485 3575 4984 7752 4606 9010 7183 462 8508 4444 9583 9367 4669 7889 4893 1067 7055 
134 3982 1763 2426 867 4134 3320 4619 4428 1245 2985 2017 488 3869 75 6236 9392 1210 7771 177 8268 8492 1829 496 663 1139 
135 6938 3877 7880 3830 3521 199 1134 7713 2630 4527 650 1956 5053 7575 8396 3944 6467 5782 6571 9956 4207 7353 9121 2628 171 861 2264 6030 7864 5412 
136 6608 8121 5860 8307 1260 75 6790 5122 6671 5312 1832 3251 2649 8951 4445 7500 2752 7766 2411 9763 8167 7147 9013 
137 6613 8293 8462 2685 1042 3395 2699 4180 6305 5072 7852 1741 5341 9632 7426 5902 3950 7569 5643 4884 6771 6467 2870 3203 4760 5580 5212 4988 6815 5389 5339 3022 7077 1476 3935 8049 7013 9833 8240 9654 6650 4341 1028 6731 5866 560 9008 
138 7153 7699 9197 5064 4901 7240 3783 105 3753 6044 47 6295 5956 5626 8853 2469 1773 2446 3691 9871 3039 1121 6635 4855 3032 
139 5848 3285 2773 1454 5783 7088 7179 8062 3700 8053 7710 8116 8925 9138 6922 6351 1540 6913 2577 8210 1121 8713 3607 863 8685 9154 6999 6631 2212 2891 6385 2857 6242 3083 3226 8373 5099 
140 6327 6101 9224 238 9178 2760 3850 7697 2611 4015 305 2999 5125 9796 1466 2103 7694 
141 5715 427 3012 2121 7762 7120 1625 2340 7438 7055 9823 8536 2772 4683 7285 9164 3175 141 9265 7241 7480 1383 8722 9139 8284 6049 450 4824 6014 3261 6635 3163 7997 
142 7883 5219 412 3521 6584 3586 1625 3316 7902 7852 4340 7285 2666 3376 2685 6534 4341 5788 5386 1496 2322 9990 7 6672 7575 7874 8183 8809 6127 2936 7095 8174 9999 4283 9554 8138 5333 4107 5993 1079 9720 3077 
143 8387 7709 6082 1353 2892 625 6020 7 8406 3379 8043 9607 8848 673 475 5543 4341 9510 7023 6895 7569 4362 4423 3232 3781 4004 1238 5149 3707 917 8883 9659 1227 221 5636 9822 5492 4093 9993 2613 2698 8157 8092 9485 7641 9422 9370 5607 9687 132 7486 6630 2965 3053 246 7234 6464 4988 1979 
144 3894 2288 7997 3376 8043 2704 2114 3379 6360 7669 8121 3468 4558 9086 2518 4350 6772 3113 2136 6281 6528 7899 3304 352 2003 9579 1557 4004 7641 5149 9347 9518 6899 9947 3303 3408 8920 1515 8601 518 4168 5400 4923 3081 8386 3243 5677 6465 7234 6712 3285 2890 2818 2454 6095 9783 1394 3525 4378 9146 8193 
145 1299 8134 8812 9013 6258 148 9007 3543 753 2422 6306 2109 2052 4091 8728 3914 9114 8580 2114 6071 9669 712 6802 9540 6853 6692 9109 4077 300 6880 4787 6844 2518 2444 4985 1515 4156 3830 1169 2286 5266 9615 3159 5078 1383 8242 2618 7075 8782 4382 126 7120 3232 
146 3012 8387 8134 3144 7997 6534 8284 7864 9299 2114 4362 3006 8332 527 7234 3050 3720 6296 6538 6528 5359 8121 6737 3408 5277 663 6705 3077 3226 6251 250 475 6280 6802 8043 6650 5661 7048 4901 5026 8748 372 6332 5383 8733 1923 3723 7060 247 5409 1380 9742 1195 5445 7063 8056 5362 2600 207 9852 183 6613 
147 3885 4531 5340 9990 3783 2643 9852 3830 6744 6216 5788 9205 780 3089 4843 712 6572 3162 4656 1484 860 6948 8539 1378 7085 6528 2136 4957 9579 2927 9451 3371 6584 
148 2 7153 2288 745 3023 7709 6584 3163 3758 2340 9842 1289 7782 5643 2439 3728 8495 188 2407 1110 3584 7933 9003 6899 9444 9120 6178 6404 4056 4760 3119 3842 4423 5871 6833 6236 8880 9797 1357 8987 5444 9219 4253 2513 6790 3958 511 769 9795 6061 2480 1242 5248 7057 8830 
149 2986 2155 9533 6054 6537 7296 2340 5507 7517 6482 4362 6161 1125 7759 2327 9086 3947 3930 7455 1403 4713 5669 6683 6470 838 8462 1560 8150 1557 2439 6082 
150 1668 7762 3982 5412 1774 4199 4765 1871 5783 9465 238 5156 1042 4801 8140 9669 3472 2402 8644 9068 994 2319 4638 7320 9919 9013 4362 4626 6332 9050 5064 6635 
151 8183 4071 46 2439 3561 1043 3160 7367 9260 3395 4418 9695 1959 4277 71 2697 2732 6787 5602 8373 1607 5132 6943 7439 
152 7153 5848 4664 3981 3541 1752 7200 135 1083 9688 3106 776 6630 6071 7742 7615 4437 1868 3700 5639 6569 8940 150 5606 2540 8713 2209 3281 5072 4272 9228 376 2595 7481 4985 
153 7240 6538 3830 3885 3783 6534 2340 9013 4377 3111 447 7709 7852 1125 5775 3006 6470 1454 4962 650 5111 183 7874 8069 9374 5326 5341 9713 8439 6178 4129 205 188 5063 2349 1256 5251 9483 6447 8848 1607 6428 8121 3757 2413 7012 8618 6712 3720 5038 647 2052 4151 5656 8711 2929 2668 4907 6486 1647 3533 3752 6687 4134 6889 8174 1476 3089 250 726 6285 1515 867 76 557 8022 496 2698 6351 6102 3932 3567 4156 8445 1511 545 1780 1265 5445 5194 7788 7842 2028 3703 4317 
154 4199 352 9265 2480 8989 1601 7874 8538 4010 850 652 3905 3100 9005 9734 8570 5857 8081 771 4836 6230 8136 5441 8829 5659 2650 3582 4254 3981 6949 6980 7474 9795 7545 
155 2986 8193 9270 8910 4107 4400 2175 1042 6028 8600 2698 8982 2978 876 4060 58 6611 6369 7861 7922 188 3093 9169 6631 3842 7929 3474 4972 2518 6676 1153 3102 2650 5003 7454 3958 2538 9380 9898 8008 4362 9211 8949 6810 6675 5885 114 6540 5786 1799 
156 1534 569 8644 4377 6054 5507 1956 647 6270 3543 843 8498 3753 200 3981 4501 7105 2983 8484 6067 7919 4988 5860 7162 8922 1904 1328 5386 4463 5339 325 2735 2158 9677 6073 3113 7439 3958 4045 4093 2932 2192 6771 5254 3750 3630 5198 2774 4948 2875 9720 5604 4660 4925 2383 1388 2760 8713 332 4234 425 6920 4507 2927 475 8797 4129 5413 4211 4004 164 7434 7029 
157 4958 1496 8406 5880 2904 9483 2583 4068 2651 3058 5157 6058 1764 6784 5556 2289 457 1311 2927 3098 202 3144 6360 
158 3023 8491 7055 3012 4501 7296 3842 2611 6447 7413 7542 5880 208 3229 7742 6428 3869 8431 9807 3013 6057 321 7405 1562 3670 8719 3843 2147 3936 199 1295 2729 7802 6752 4669 1246 1752 6487 3584 2574 6622 3307 7069 9129 6458 8622 7001 32 2666 374 7759 7751 5437 
159 6030 979 8722 7219 5775 1763 5097 5862 650 2666 3827 7367 2943 2203 6447 6752 4080 2070 7125 4079 8710 7936 9210 3695 3008 5149 9557 6045 8920 7012 3371 
160 2643 6258 4765 5762 3032 2327 148 6584 6458 399 2264 1956 6020 1476 5341 7992 8235 7874 4786 9043 5788 7669 8345 4311 7105 3379 9979 6465 1375 6014 2100 6797 5006 3303 6492 3468 4784 6855 3050 4056 5898 8858 4269 506 9970 5477 9567 3521 4761 9668 1729 8174 2414 9834 
161 2962 7652 8406 9545 7699 6547 7240 2986 3885 352 6778 4855 6458 2904 8062 6020 9244 4035 8069 2662 4286 1348 4639 4341 753 719 5788 3792 2304 4134 4728 2679 9374 527 4170 5163 8106 3700 9865 5653 7875 88 4587 7569 5996 9535 3073 3665 4027 55 9464 3513 9623 650 7167 1174 7771 553 2005 7252 2342 4151 
162 4254 6375 1964 9491 5552 7909 5877 7083 8924 9479 2540 8455 2187 5014 4626 205 
163 2240 7153 5715 3830 7413 7133 6482 6920 4600 6068 84 976 3872 2440 4480 884 3760 8498 3117 7053 105 6980 5752 6060 300 8284 7296 
164 7883 8816 592 1923 3070 4175 3532 8117 4087 9884 165 299 6453 1179 2864 3244 8562 7659 352 3103 
165 7949 9129 6134 7133 1353 2128 9301 4377 76 3758 4027 3877 6170 3050 8818 5513 6442 7518 9979 3546 6488 8157 4071 2304 2426 9273 552 4311 
166 7795 7465 7284 5080 9931 8248 122 3100 2313 9263 4938 2384 7847 7721 2907 7361 9970 5437 
167 7438 7296 1774 3584 3783 3982 7782 2630 395 2407 221 951 2611 8832 4728 2818 2005 8263 1335 1352 9666 6739 4828 9816 5028 254 5647 8829 75 8499 2066 2454 7630 5628 6236 4458 9569 8116 
168 5880 4901 5412 1625 4199 3586 2892 1496 447 2114 1731 9461 6470 9023 7055 4286 9848 8235 5053 6306 1670 4027 5097 6978 753 9517 4796 9958 2135 9618 2553 2352 4082 8452 3079 7036 6020 991 2475 1571 9374 2155 
169 2643 9075 9129 6258 9224 6692 139 9164 8388 7480 8920 5606 2773 8267 1832 3891 5365 6146 6416 1428 3022 678 1892 5338 7413 
170 3012 979 1984 6054 569 3111 2666 7120 2407 9013 6296 1042 8062 7709 7012 5097 5029 3728 8841 7088 6712 3522 2706 4760 2960 5006 1904 9274 2304 8445 3466 2983 9520 2034 4767 3261 4824 2910 949 2892 8134 3163 8431 
171 979 7153 1299 7883 6030 5219 4340 9615 6672 5175 7055 843 2898 2875 4286 8830 9467 4728 6285 1560 9215 511 3079 6528 2595 300 5063 8847 2157 8974 7790 7029 5381 2793 8875 9464 1091 1710 352 
172 8981 939 2960 9873 4635 9051 8666 1589 4344 2186 3435 7391 2176 4527 4624 9199 6196 925 
173 79 8994 7949 9842 2288 9270 3885 5248 116 9139 8498 5446 780 5860 5677 3914 9349 7790 6671 3703 7629 8344 5006 9014 7252 3509 2569 4752 3326 177 3961 7992 8259 2183 5543 1223 1871 1139 5063 7098 5177 6513 8636 3234 8903 4401 740 3190 5948 1956 
174 7652 4311 7880 9545 4909 399 6067 4786 443 552 8439 6983 3125 4348 8052 7637 4894 5567 3722 9950 8548 1044 4729 8714 155 9964 1611 6465 
175 321 238 9461 2260 694 2584 1972 370 7847 523 421 764 8753 2184 7932 1150 5860 6537 
176 321 3936 7709 6482 7236 6623 4657 6317 9528 846 2829 6141 5330 7880 8832 9842 8462 2790 9023 7088 4180 5340 9930 3885 5848 
177 3830 3543 4035 3602 3836 7517 7732 8671 2327 4909 3885 6044 208 1454 8832 6216 8069 6899 4107 3320 3584 9138 2269 5591 8920 2422 3176 324 7797 8415 4277 7528 4067 3050 5783 9970 9461 3728 
178 8994 7736 5412 8134 1524 1496 6067 7320 3304 9160 7001 1246 3380 2422 1256 8908 23 4117 2177 9653 5400 2573 203 7530 5432 7653 6308 328 8167 6049 116 5446 
179 6258 5064 3543 8212 9990 8431 1647 1149 1534 3316 4286 3111 7429 4624 199 8140 4326 6014 4457 3023 952 3801 5643 4647 3950 9043 2346 6610 9677 7199 847 7204 9898 7206 2239 718 774 1750 4359 7474 761 7135 7147 2264 7899 2847 1986 2263 3869 9347 1083 2699 2491 8150 4739 6061 3207 9930 3463 4948 4442 6863 6391 4069 8987 9467 8786 2074 8053 9205 376 1223 5885 3113 9908 6359 6338 1731 4027 7133 
180 9139 4311 450 4079 9615 2146 7012 6336 1227 5553 4658 1176 8290 2123 4622 4035 1209 6815 9931 8947 5462 3699 552 7396 1940 700 2745 6576 9173 9964 7965 3454 8265 8177 4393 
181 9215 7049 4045 4884 2662 5006 7147 3869 2409 6785 5588 2422 9404 2178 4846 2395 2471 457 3695 2047 6687 7806 
182 5962 5412 979 5715 3012 3543 3602 7949 8663 450 9139 7736 6778 6537 6161 1105 8470 8671 4170 8484 7759 4786 780 1042 3792 2643 3905 5788 4151 8711 3981 4107 4134 8910 2322 5826 5006 7044 5458 3432 4346 8580 8450 2538 5885 3752 7806 5767 4962 444 7210 8922 4004 6528 6982 3061 8069 6360 8539 7902 4350 1657 1066 6428 8428 8797 2345 6810 9548 6115 2958 468 566 2668 4437 4719 4362 9950 3460 2764 3379 1223 6437 9795 3842 9931 
183 9199 7736 7713 9301 8495 3106 4311 4362 5507 2760 155 3074 7751 443 4647 177 8145 6014 1025 6938 8233 133 4021 7105 3240 7641 9144 9351 6737 5964 3926 7077 3567 3213 4415 3666 7012 3723 1762 9635 3882 463 8185 3991 3149 1041 1793 9921 979 1281 5899 2600 
184 3894 5962 1299 4314 1984 1668 6134 9301 7732 979 2437 7736 7852 4362 1343 6161 6465 3602 2414 2327 476 6569 9651 2346 2253 3245 8464 1251 493 3119 9688 4958 780 1353 1145 3981 3468 6687 5507 935 
185 7732 412 3023 8711 7285 2790 6129 6367 4340 8639 617 134 4047 6741 8041 5030 1997 9867 3984 3757 5629 8408 7496 6385 6331 8069 6676 2155 
186 3074 3012 9848 2327 2904 3316 9834 3586 148 1238 1149 8043 780 6635 9659 9270 5783 76 6270 2857 8599 7439 2475 7820 7795 2097 3720 2802 8580 8766 7221 2898 3073 5444 1252 9265 9899 6302 6448 6306 6338 906 9004 9219 9777 7333 1348 447 
187 427 2327 9404 4679 1289 6545 5515 3025 4189 9558 8758 5843 152 5663 3337 9957 9893 5739 9955 2537 9722 6030 
188 427 8293 3163 1429 9013 5322 8284 7669 450 1138 6215 6730 7745 8417 4808 1578 5461 282 4710 9101 4234 7 2346 1401 6672 
189 9659 4385 7790 6621 1476 2650 5111 1252 2190 8377 8105 4393 6785 4092 2107 1822 3820 5913 5078 1123 4071 5206 3524 4929 1413 8911 6148 8307 2001 5679 9451 6487 843 6584 
190 1984 9075 3543 9374 412 5715 5677 8235 8462 951 1125 6454 3830 477 5322 3285 1871 8934 8269 8580 4501 1657 4134 5572 1375 650 5997 1043 8685 5090 1430 9758 6630 2322 3363 444 3393 1383 7610 250 2418 3869 8144 640 1139 4437 247 9795 50 3572 952 8844 2373 5607 6351 9654 4884 
191 8997 5890 5652 3761 1640 3691 3210 1586 1380 8475 6556 2876 7055 
192 6613 6938 7120 7413 5437 4326 7762 6827 9301 9199 7709 6082 569 5507 5307 8716 1750 5064 8832 8345 8227 3158 4647 1657 3146 3006 2264 6024 8883 199 1401 2679 3784 5401 3509 9480 1353 7615 6875 5239 8053 8431 3354 6673 8935 3703 3241 1760 5659 57 6198 4286 8609 7026 1223 1341 9032 6735 7812 7193 
193 2288 321 259 979 8005 2643 3032 935 3163 745 9750 5376 3536 969 3754 3542 3677 7911 2175 1383 175 2510 6196 7699 9545 6635 
194 7652 3877 7413 2121 8644 6054 6537 6827 5880 199 5445 8212 3077 4967 1979 1429 2340 7429 9836 4526 8092 7456 6044 3528 3784 9464 7922 2413 1524 2064 5019 4531 560 4027 7044 9720 7474 1739 3243 5864 6627 4980 1101 6771 1858 2129 2651 8273 8414 850 6672 6986 
195 4326 9903 1429 6404 3077 5322 7736 3632 5625 2868 7923 7450 4446 5513 4365 9453 
196 321 3371 8711 2892 7001 7575 6067 8116 9178 3285 6737 9720 761 6550 3432 5656 1091 3119 9688 1571 3251 574 7434 457 7234 2100 6487 3104 6115 7744 1860 437 2158 5090 3537 6029 9260 7026 3079 1647 4619 4497 9962 7771 224 5112 1058 328 3665 3533 4257 663 6014 7053 
197 3894 8125 9244 5869 4909 2704 6258 4855 1784 8830 6920 8716 5451 1348 5386 3371 8284 9444 8528 7782 7049 5899 6899 3533 1560 5359 6675 9465 1391 2414 4104 1868 5068 5439 7266 200 7256 5006 7333 8756 1762 6391 7786 4384 3827 2028 1611 687 2064 8017 9779 6428 2136 5964 
198 8406 352 4909 2704 8663 3377 732 6296 7806 1557 6020 9129 8209 5097 4091 9659 5339 1831 2058 3249 3703 4679 8183 9443 5059 2035 5783 340 9824 5149 7874 7614 3214 9717 8649 4752 1930 2327 
199 3657 2016 2463 3813 7391 6919 5950 2739 792 6752 273 2782 8991 8077 861 7188 1457 553 4669 9023 
200 79 427 9007 2555 935 6938 7652 7762 6827 9301 4909 183 4985 1105 9160 76 8671 5862 4340 1289 7732 8498 3792 205 4501 952 4558 3240 8140 3830 1625 6692 3914 1358 7790 8284 5898 6980 5902 2414 5251 7874 7204 4957 475 4134 3371 1647 541 7669 2818 6216 6134 2074 8618 9004 9709 7001 7162 2699 367 3870 3784 1117 5286 2003 7751 7795 1040 2491 2052 9873 1137 2600 9743 496 7320 7967 8935 4252 2100 6115 836 5097 5849 6324 5288 9205 719 7012 
201 7699 4199 6101 6258 352 1343 9007 5064 4341 238 1752 1058 625 6170 2480 4527 7001 8470 9573 1871 1934 780 4362 9024 5326 9028 6178 4639 2875 4503 4964 9502 7402 7928 208 7179 2773 5458 8498 
202 1121 5869 6021 8062 8644 3144 5446 9903 7266 6712 6360 8462 1934 6280 6608 3757 3304 3043 2413 5483 4679 780 8908 7023 5775 732 4367 6428 1607 3432 9260 8343 444 2475 5780 7771 6922 9777 5318 6549 8345 3630 7320 443 9775 4786 8188 8881 4596 4541 8932 4970 3675 5230 6359 7426 7889 1658 871 5348 4962 5501 8651 8863 4348 574 5992 3125 1734 7919 
203 6153 7456 3728 9688 3700 1123 3093 3958 1900 5607 8858 3426 6331 8022 5609 5997 4749 6353 8931 4923 6554 5324 1066 6385 7434 1164 4222 5713 5892 4627 1583 2074 8980 7048 2198 7575 
204 8293 7088 9842 3395 2422 4223 2882 5393 7316 1178 7077 774 4134 7971 2018 750 8251 3509 7842 3686 1611 7 6988 3146 3343 267 2538 8259 7949 
205 3885 9199 6044 5437 6608 8043 8841 2322 8487 2732 7252 5921 5887 6831 1271 6732 4612 4501 8314 7993 751 9161 7074 2496 5194 5572 7138 5251 8462 
206 6534 6613 2327 1871 9990 1383 9224 7133 2209 1986 9836 5270 105 1822 2491 5177 1750 3050 4787 7822 2485 1601 9075 1571 166 6136 6476 5331 5086 6807 3986 8765 5887 6281 1192 8259 1720 6537 7333 1391 7902 5437 
207 2288 7153 3012 9007 5340 5880 745 8644 7219 2630 5774 6465 7297 1382 9607 2522 6238 9931 9103 9828 2984 6170 6967 7429 
208 1289 5581 5185 5833 6376 7013 7204 8008 6332 1137 202 4866 5821 4541 6476 4092 529 8071 2898 7486 2680 1894 505 4801 3061 7806 6534 
209 4314 447 9930 352 4958 6827 4624 5451 6067 6889 583 3303 4176 782 4091 1145 1256 3146 7474 3434 5492 2100 3106 9600 730 6980 4060 1799 7519 9565 1642 3102 5895 3243 8589 7200 5645 993 468 4107 6920 8880 7210 6842 6332 1665 8008 6790 1833 2403 5230 5304 9950 3180 4749 5724 9014 4801 9043 
210 1429 1784 6584 2569 1496 8841 8599 4558 6967 5141 5122 2058 9688 6054 3020 8022 2927 1868 745 6698 3241 2608 4967 9605 5677 5630 4717 4970 4433 828 5604 759 4507 2752 8456 7744 2653 3080 6492 3762 3772 4224 1058 8019 3364 8830 9096 9025 2685 1956 3981 9107 647 
211 3584 9086 3783 8293 2437 9461 732 9990 9404 7545 7333 5838 2790 2892 5163 8008 6922 4517 5095 5397 9604 6331 1117 5826 3815 9547 6495 3702 5097 712 5059 563 1963 3195 5583 8681 7845 
212 1774 569 1625 6044 4624 1216 5340 3223 561 5927 7227 6108 8596 4225 8423 4506 6778 
213 7120 148 1984 4377 6672 9160 9013 420 205 2491 2052 9444 2768 7049 1043 2264 3659 9545 5999 8441 6038 1572 6791 1487 9740 1663 9040 4219 2184 311 
214 7762 8130 8812 2327 9615 7285 9573 6258 9374 1121 8841 2414 3521 838 6611 4161 2883 3143 5616 3885 6010 928 6154 5919 2005 6454 6986 3783 
215 7105 3243 3146 1904 4399 3950 2537 6095 5838 9023 7367 8893 4801 8174 712 9837 7 9425 325 6946 4156 5149 3541 5630 417 6028 6652 6292 7542 5470 2877 3172 9245 5502 6817 8918 3752 2668 4485 2164 6737 3533 7599 2121 
216 6547 5561 2068 311 4122 6025 3067 2441 120 2702 8671 9160 7055 5862 8227 9404 9600 8005 
217 79 5412 1979 8491 9129 1429 3032 625 7133 569 1871 7759 7806 1750 84 2858 5248 3146 8248 9677 9107 9565 2349 2857 7267 3752 7932 1121 4269 3561 552 2670 9354 8257 6391 3465 2732 2668 2304 8059 747 978 9082 4533 726 9199 8896 6067 259 
218 79 7949 2643 4901 9007 8644 6534 3602 4352 7864 9848 8794 7517 4176 2264 8498 7902 1289 8235 9008 8069 3584 3509 8284 6270 4034 2662 4558 3004 7105 541 7254 5401 8599 8539 5251 9713 4907 5964 550 1950 3750 3144 1066 7787 30 7029 4801 7467 3853 4286 8221 9219 8996 7854 254 5090 8151 6115 5149 8788 3319 4536 2085 949 2673 6584 
219 3144 7429 9224 5445 7355 8212 5677 2304 6980 9226 2538 1472 7292 4603 3507 9624 8088 9281 7172 4528 1323 6231 8193 6644 7234 6338 9008 3077 5458 
220 5762 9075 6134 7736 3830 8431 6712 205 2666 1454 2264 369 3316 4855 8406 4035 9842 843 3004 1670 9265 105 5788 4151 6967 1601 952 3050 991 6465 6920 6164 300 9032 6621 2930 9979 3184 7934 625 1091 3119 7474 1300 750 1129 5033 3827 410 7234 7586 4948 2537 1256 
221 4199 5064 352 6692 1343 7736 6827 8711 1763 7055 1042 7919 4884 9043 7267 3363 2109 6178 183 952 6608 2346 8450 2518 7481 5821 6744 8332 523 3304 9947 6187 2707 6390 6899 1375 2673 6687 7379 5810 937 7874 9281 5902 177 7929 3801 867 2870 3827 3781 425 2404 376 5248 1555 6347 6115 755 652 5548 6895 9637 2699 4517 8146 6391 9822 5 3835 1820 8776 8900 2383 3950 
222 7949 6101 8812 5869 9197 3316 205 8043 838 780 1289 1079 5643 9023 8462 4626 3964 7874 9219 6967 238 9649 9050 7933 9551 6833 7180 6060 6550 352 6049 2650 7077 3757 1611 5898 8887 452 4057 2167 4138 3081 4500 4280 8805 1476 6390 467 3750 4941 8601 6584 6538 
223 8406 8431 7791 6020 1871 4346 4626 1391 8848 1308 2679 2573 3825 1159 8445 2195 8865 170 5402 6433 6895 2158 9731 5775 
224 79 6613 3877 8491 2904 4326 4985 6534 1763 6467 3584 3023 6465 1790 2264 2875 1429 3363 4786 6187 9955 775 9998 4286 4910 4107 3890 6778 5450 9647 838 3105 8343 369 2155 
225 701 315 5694 8038 576 1726 5290 1454 1731 5387 2175 1774 
226 4035 5340 8431 4326 9299 5156 1670 1454 4824 9043 1763 4624 1358 8841 6296 1956 4558 2439 221 9230 9465 7456 7710 5887 6281 4020 9933 640 3751 5802 3074 2597 6295 2146 6465 2732 214 4965 3665 9807 67 9483 2659 6176 5090 1134 9527 6584 3236 9034 2857 4464 4385 8148 9903 9842 
227 2555 1979 447 6538 1105 7429 3753 7713 4340 8830 5217 5216 1911 2796 6360 5317 5929 2225 3299 3747 4480 7088 6358 9912 6458 221 7919 6482 
228 8830 9013 5752 8043 511 850 8333 2569 7434 1638 4619 9903 9940 7568 8722 6631 6470 2349 6100 4378 7077 4905 269 6829 2867 4913 9735 2116 591 5098 5388 8450 8871 1292 6264 5580 518 5630 3684 1479 6330 2263 5030 1560 
229 8994 5748 6030 9270 3103 6938 9990 9731 6587 553 4019 8975 4572 6417 6204 6892 4977 9881 1 2053 8863 7710 3630 6021 
230 9007 5437 9784 8413 3329 8130 6371 2279 1694 6775 8371 9615 200 9545 
231 9842 2986 6054 9129 3543 7575 3023 8910 5248 6778 2182 4129 4624 4786 7285 780 5307 7874 8209 6428 4501 2943 2685 9931 3004 1496 2346 2264 8343 541 3541 7992 477 4151 5099 6737 6228 874 3056 4966 2679 83 5917 6290 2464 7115 5351 3580 1548 6550 8954 7438 
232 352 9197 2643 2340 6101 7575 1934 4783 8858 8104 2125 7318 8532 7013 2711 4234 9043 5869 5668 820 6230 8223 2393 7088 1077 2097 2275 6675 8539 3320 8183 5080 523 9114 6567 3637 3408 813 6155 9955 3020 6978 7012 3061 8017 1942 9637 7987 
233 6613 4765 1105 7699 6258 4664 9852 7320 1496 8722 3079 8794 7791 3781 3528 477 4011 2439 3507 8307 2898 9806 4346 4345 311 4928 6696 9470 3383 6214 3795 5138 8168 6946 518 4470 5387 9238 935 6236 5104 6815 1685 9341 1315 1031 5030 3016 2562 8040 4645 1542 9224 8644 
234 1668 935 5880 6584 6635 3586 352 4985 7782 8498 5437 2630 1524 8183 6082 9461 8910 4501 6920 8794 7219 8284 3521 6447 7806 1784 7992 4660 9008 2533 8528 1145 3050 5193 7653 867 7012 9114 1121 6141 9219 6889 3751 8880 4134 6285 108 9014 155 2005 9107 523 8140 2404 712 8150 866 5149 7299 4015 6707 9520 3236 557 3037 8248 5788 6692 7240 
235 9692 8583 1134 4870 9518 2790 8922 9454 3689 1305 1623 2907 9648 9538 4780 2362 1567 5921 5836 6661 9464 
236 5448 1524 7379 1150 4350 7344 9287 4743 7215 5580 1410 443 2560 3174 4928 1842 4364 1512 1079 5821 6360 205 
237 3982 8872 5300 4808 5842 8404 6714 2759 7264 7234 7285 6458 8130 
238 1668 8498 2128 8910 7179 6101 3432 2304 2192 7957 3030 7171 6803 2869 9439 5043 4283 1351 9563 1252 2904 
239 5715 9453 300 4180 1496 4445 1890 9298 6792 362 7255 7738 7253 9040 4629 8671 8487 
240 4573 5626 7156 4876 2123 2726 591 7797 5001 703 400 2422 9043 5643 5099 
241 3877 1243 8298 6018 9576 3679 2199 2066 4687 2399 2400 6578 5017 6333 7429 9842 6549 
242 3153 4224 1798 7006 8670 3048 8494 9682 366 2965 1086 4689 7577 5481 1414 6336 9211 9848 
243 2240 2288 5412 4527 4377 6170 6778 1042 1328 7751 8830 84 8069 8663 9688 4176 5156 9086 3093 6797 3158 7787 1139 3700 3320 583 3827 4108 7206 8106 6545 1292 7670 1195 425 3022 9623 1799 4823 9931 8484 7618 8775 2565 8907 3020 2465 5871 8932 4367 6978 4354 7698 5503 7333 857 5909 5964 5033 1858 2019 3251 6669 6390 3853 7895 7790 8189 5519 1504 3006 
244 8644 1343 6030 1401 1524 823 2669 4640 6849 4896 5388 4293 3350 9639 9052 3521 
245 5412 7055 5869 1524 6030 259 1051 1142 6606 2885 5935 2997 1863 7651 3087 6714 2058 2444 9129 
246 3074 1774 7240 3586 8284 5917 1625 9868 8050 8087 4103 7340 8753 9358 4421 5337 8183 4923 4580 3006 3602 
247 2962 3758 4664 420 4531 9139 6482 5341 5053 2685 6545 3106 952 8068 4134 9669 541 9510 6487 5898 5885 9374 5339 4948 8922 3316 5349 5979 9713 2613 9036 468 9834 9551 3320 4626 7606 9703 3379 707 7179 1546 9330 108 8313 8900 9089 511 1942 6785 5270 7147 4567 3700 5993 8728 1396 557 2565 2139 2396 7788 6687 9820 4606 88 4264 8327 9014 8812 
248 7699 9545 8431 9301 8212 5643 7574 5984 9168 2208 4129 6423 2160 4531 6331 809 4624 9927 1117 8711 6256 2127 9054 4527 5386 
249 9199 450 1571 1790 8855 8017 9376 4045 1145 3950 7602 7653 5899 557 8392 663 1391 2274 7664 8269 6149 5038 7669 2630 8869 7899 3541 6665 7089 6855 220 3455 952 5869 
250 7732 2340 9453 3023 9301 3077 2327 3427 6584 5248 412 1348 8832 8209 8193 300 4341 3043 8437 2843 407 9483 5034 5823 8521 7367 4383 4801 5219 
251 9244 7240 5340 4326 2611 4442 6920 7474 413 7978 1947 7000 5225 78 3183 1358 9032 9900 9706 4205 9777 88 2424 
252 321 8994 8125 3982 1299 92 6820 4543 1125 9683 21 635 8355 3930 3356 7732 9139 4531 6482 3376 9615 7001 199 8470 6049 4824 2643 
253 427 2155 5446 3316 9461 1238 1979 9483 850 8104 325 3630 9933 951 6296 3468 6765 9623 5112 1091 876 1657 4362 2146 523 6029 7200 4107 7933 7379 761 3363 1176 2668 8893 7786 663 3073 5122 6955 8121 7361 6270 6347 5666 126 6483 7198 7809 7771 5632 7029 9703 7599 6905 925 6712 
254 3670 7604 1295 469 8959 1920 6977 7117 5660 4210 6549 174 425 3950 2278 6089 3766 3545 3530 7682 5884 9056 4628 
255 4714 1978 8384 3634 1966 5876 9400 5730 7921 5311 6541 745 9701 6777 2418 2175 1557 
256 6534 8406 6672 5341 6538 450 2773 9669 7710 1299 780 6744 1358 7320 707 4660 8470 4222 9677 6187 8841 6454 9260 3113 2595 523 9114 135 3004 367 5993 3964 2339 1370 3476 9938 8882 7604 7254 310 9523 7452 2904 6236 3051 2028 1605 4860 2143 9965 7133 
257 3894 7762 3322 4926 67 6668 8197 7495 6489 4240 9700 29 5437 3982 3066 385 3163 4985 
258 9197 4558 7950 2847 4928 9933 1578 7026 1416 3465 1510 4967 3809 6556 2272 8389 9436 8017 6196 
259 2121 5507 4340 1984 7266 7782 4958 5053 4539 4170 5341 6482 374 2875 4526 9955 7806 4442 1552 1289 3914 6545 7012 9354 8920 221 9688 1607 7868 3073 1800 369 3244 7379 9476 6748 1934 3780 87 6608 1083 4801 4874 8238 7845 2774 2212 8106 477 707 
260 2662 5248 2067 5788 4925 138 8422 6197 236 7308 8616 1292 9247 5043 8906 1343 3158 3703 5193 6428 
261 3111 6044 847 9086 1149 6537 8907 4222 7355 2595 9688 673 3827 5295 4323 1793 2172 1865 5162 5293 7891 1941 3210 5654 8227 8716 
262 7153 6547 6692 6258 447 6054 9826 6754 5246 2388 1172 9130 9930 7522 4750 302 1557 647 
263 9244 7883 4020 8293 9139 8830 925 4180 6537 1238 6029 8528 4531 9230 4385 7615 6843 905 3951 8936 6855 2173 7195 4693 7104 6094 7874 
264 2288 5962 7296 5715 1299 3163 3521 732 4341 2013 6672 3584 2986 1710 4728 6270 8068 2518 8663 3032 2595 2875 647 6153 4501 9993 8150 7077 8439 5656 3251 9040 4056 75 468 1246 1150 4222 6836 4617 2478 8343 9056 6946 1971 3246 1572 1123 8898 7568 1117 1328 
265 1328 5014 1551 6134 5183 897 8208 8226 9317 2646 3507 7820 3352 6945 4071 1401 9086 76 7997 
266 3894 2555 979 8812 7759 116 8068 4399 5917 1790 3377 7105 4437 527 2139 2670 2938 6650 9871 2344 5583 7210 3507 2182 7278 880 6621 6189 952 8507 9623 4888 1139 4707 955 4170 3186 5987 3158 5082 6028 5198 912 2322 8756 2075 6170 
267 2240 2962 7153 8387 6584 5507 3032 7759 7088 8832 9301 135 6216 6712 7049 8881 1252 2692 7657 3386 5704 1425 5301 9991 7458 6630 2837 9347 9444 8609 8578 1401 2407 477 9480 1606 567 9933 8423 2707 9349 8429 3051 2404 2000 8687 2537 1572 7586 4455 6391 2595 8189 7355 2735 4624 
268 3074 9453 1763 3006 1454 5219 2407 7204 4108 2439 9993 76 3251 8539 5038 9007 9464 2074 2668 8644 8491 8687 1611 7883 2304 2608 9089 4313 6188 3602 8900 456 7749 3923 6938 4709 3032 9055 8267 6115 7997 6376 5406 6747 1734 952 3562 8812 6651 4007 8431 9440 8722 6627 6083 3025 716 7736 8671 
269 6404 420 3163 1256 9374 9043 3285 1657 2182 1731 3304 4626 511 847 1287 3751 9032 7806 8227 4561 9731 9404 5768 2100 7085 1638 2917 3757 7634 8562 9852 6470 8922 2085 2037 7771 1884 3393 8809 82 712 8958 6044 7845 7474 8210 2670 3958 4110 5413 6226 4045 6020 6771 5849 8531 7044 6351 3268 8986 4784 1728 5112 145 
270 761 7902 3751 3842 8269 2538 8539 7204 3519 798 4589 7899 7771 2431 4528 4494 8022 8672 7682 6959 4317 978 8033 469 220 7057 4928 8722 
271 9848 148 8495 3753 420 4531 1125 2333 7695 9763 261 4767 9669 2293 5827 2536 3063 7864 8159 8343 7759 4967 5175 8062 3104 
272 7709 7699 2892 8470 3371 8711 3586 3163 4624 412 3758 2666 6014 9265 9224 2128 9013 951 2136 6270 4958 8685 6967 457 6306 5212 1670 8332 583 8269 949 5966 921 2407 4639 4786 1043 3513 7641 3081 1110 9040 4967 4948 4170 5860 5383 7423 802 1339 1986 4616 7482 9579 8958 7737 5097 9228 4303 2974 8786 7162 4199 
273 1668 3936 447 5507 6584 238 4664 1496 2630 4352 9903 9023 5029 1571 843 7 450 369 9464 3079 3103 367 7474 3371 3869 9178 8293 9467 7806 6424 8332 8528 376 3981 5038 6970 3395 3304 6790 5090 7146 6712 7012 250 2611 2679 8649 7200 6428 8307 3795 4765 5251 1195 4561 1066 3673 7053 9898 7221 660 7219 1904 3932 7788 5198 6216 5359 560 7180 9837 4034 2670 6061 4437 4222 7861 3229 3585 3562 5752 1123 8427 1339 7486 5458 
274 1984 2288 7699 979 7762 7997 9244 4326 412 4020 5848 7575 4385 8121 6369 139 3146 5783 8387 7219 3207 4923 5788 6044 7 9759 735 2202 2401 9337 4324 4898 6802 949 9684 6101 3125 5005 6770 8585 354 9075 5868 3936 9207 61 7105 2175 4965 135 9842 
275 7652 5437 569 5219 1790 5451 2760 2870 2064 652 7367 6332 7486 8931 1572 1293 1242 2910 2662 8612 3555 2768 1375 105 5885 1585 8598 7182 2660 8000 155 5522 9637 4137 8065 2898 7669 8431 1534 
276 935 1534 2013 4311 4527 6054 8069 8491 3427 952 6049 6467 7874 1287 7481 9138 583 3892 5464 6196 2345 8190 9349 6032 4605 3770 2164 2725 5826 2666 2615 7133 
277 7699 6258 8994 2013 6054 9255 2302 5672 9760 7174 9159 548 7897 118 5677 7403 3885 5248 4985 8284 8062 4728 5445 
278 79 3144 8005 9265 4020 369 1496 8105 1058 8233 1950 3905 7012 1647 6170 1216 6428 1043 4526 6065 6434 8888 7024 9166 2996 6224 6893 3555 7171 4507 5921 8920 3163 
279 79 8491 2327 7413 5412 6258 9199 4909 6054 4531 838 7791 1763 1121 7179 6978 3106 7285 5821 1042 4457 8495 8345 8121 8528 4539 8649 3509 8116 4071 3753 7987 1904 8140 2773 8174 3073 6187 7756 5966 2897 2304 860 8053 8439 1206 9550 9404 5547 664 4784 5548 3379 5772 2735 4356 4222 9215 9221 993 4965 5948 2533 2847 5072 4107 
280 8994 8134 3758 259 3371 6327 2288 2121 6538 2013 4377 3376 4341 2535 7561 4999 3929 4648 4613 1042 1353 9382 5467 1049 4180 6014 2128 5445 2615 4728 
281 2555 8134 1121 5677 6470 1670 4962 3285 9244 3753 4801 2673 4912 3513 9720 5251 8672 1621 5319 5066 7642 6596 2109 8897 4134 782 6675 7252 2615 2263 2209 7751 
282 7413 8910 9852 1134 9669 9467 867 9347 1601 6331 1956 1538 5553 4719 3932 2900 6681 1613 5857 2966 752 3022 5762 9311 8644 5214 683 3231 4916 1273 6997 3666 3356 5185 9901 4241 2783 3819 5980 6412 8723 3447 4928 2898 
283 4035 5248 7219 8396 5538 748 8193 2834 4840 1000 7954 1089 5666 1541 9650 3366 5326 647 7240 8794 9444 3032 8716 1454 
284 7652 9842 2986 8116 7732 3885 6986 9003 3513 6424 2146 1079 3163 2533 9573 2673 2001 3022 3914 3316 776 1328 7439 1140 5239 311 8105 7180 8922 8618 7633 8487 2942 2314 46 2019 6001 3420 2386 7912 4698 7630 4079 6545 5677 
285 8994 1534 9199 3758 4314 6404 7762 6021 6020 4909 1042 647 8794 8484 9404 2666 208 5752 552 7795 5029 7771 5043 8601 847 1252 4760 7688 9510 4060 5933 3465 9609 3319 343 3700 8636 10 4400 8687 4843 4230 2617 496 8797 2847 9496 9677 3146 3498 5141 8713 1728 2651 3320 2879 6921 7379 2518 5553 2600 557 2150 6061 5964 
286 3074 5762 6537 8005 1731 9160 2288 1383 9138 5862 7285 4801 7511 5003 2136 4317 8600 4558 6281 7053 412 977 8713 7517 3172 1050 2595 7486 8930 7788 730 9464 5802 450 7570 1931 145 2190 3236 6465 8887 8174 355 6445 6459 2612 8493 1154 5998 964 2445 1032 1216 2685 4787 1121 311 
287 7762 5762 8005 6049 6967 1752 5446 4027 1328 4079 2260 673 6899 647 3541 7383 2975 6629 8105 2853 188 4092 1681 274 5572 6196 2583 8797 921 3584 
288 2240 935 7709 7438 6327 3376 9615 1383 8794 6537 4311 5677 4664 4027 4170 4967 2264 3183 1154 6149 7292 9461 8303 8910 1092 4871 270 2163 411 3922 7006 7055 
289 79 2643 4035 8716 447 46 9979 9600 8528 3317 523 727 8269 7350 5233 3240 7382 2377 1279 1048 5466 560 3153 1025 683 541 6280 3602 
290 5762 9834 2904 4880 7851 751 3292 4087 4882 5671 6543 4944 8660 6940 6808 4962 4454 1625 3814 6464 2345 3784 2537 7968 
291 7762 2555 7883 8125 3543 5848 412 8043 6428 3089 4457 7 3103 8920 5784 6458 7713 139 4501 574 2897 1401 2426 2264 444 7989 4715 3521 54 8468 4414 5454 1739 7858 7701 2120 1035 860 1252 8599 6258 
292 321 3877 5386 8130 7517 7699 5643 1117 8830 8406 9160 1260 707 6404 9930 7206 3958 2611 5966 921 1383 4317 4129 3561 3380 8908 2707 7948 712 1524 9478 5097 2058 7933 8663 9465 663 7053 865 1365 8618 155 9669 6482 8841 6331 7078 75 6061 3106 3935 108 583 250 3172 5583 4558 523 7742 4870 6011 5286 6281 552 8282 1145 22 8486 5849 5980 6681 6511 1281 7095 8931 5898 3004 
293 5762 8125 3885 6153 2136 4292 3078 4227 476 4634 6797 4350 7360 9774 6821 6025 8293 
294 4326 4352 9615 3584 6889 761 1289 4801 3043 9191 7519 6671 7147 557 4717 7136 8188 5580 5019 9704 3561 8883 2100 2943 9800 1963 802 2856 3607 2863 2412 6621 5339 7653 2651 1479 5947 2217 4783 977 7857 7037 4907 3723 496 3020 
295 9968 6547 9848 4352 8134 9270 420 732 5445 3586 9244 8495 6296 739 128 2761 7695 6641 4449 7209 3379 5323 3787 5816 5917 9374 1476 9573 7425 8441 3121 8105 4468 5869 7713 
296 4199 8130 9301 9160 2533 5848 9600 1731 6737 7355 1710 2475 6327 9979 9968 9947 6178 9461 761 2192 5788 6630 1145 9453 8069 3408 7751 5445 850 4367 2595 9940 9795 7204 1986 3932 9720 6014 1900 5756 719 4350 9428 399 2019 3958 8015 8794 3135 1260 4645 8756 7037 4728 3376 6390 7396 8423 2373 7190 6706 6772 6250 477 9731 6281 
297 843 2155 4985 6980 2480 1799 2603 1366 8990 742 9731 8179 8363 6931 1105 4168 5894 1638 9443 6752 8605 5772 7698 137 6170 3380 3174 5443 5326 7204 7162 9290 246 2112 405 4464 6797 4912 6074 3797 798 5810 1206 527 7057 2662 
298 3894 2288 9007 4352 5507 8722 4958 8716 7296 1871 7880 1496 3792 6778 3032 8116 183 1647 2983 8140 5899 9931 6014 6744 9107 6285 5386 6978 3700 3958 7044 7289 3528 4399 9260 2685 5902 6922 3395 8423 4626 4367 8343 2019 4928 2489 1752 4345 8053 1223 9205 360 3089 2525 389 7521 250 3234 6631 3354 4787 876 3706 3326 5466 9337 4011 9518 4884 2155 
299 2327 2155 1299 7413 3077 6082 3103 8722 6537 7806 7874 3728 518 2437 5339 2650 420 2531 2840 5359 1521 5347 5134 5707 6248 167 3341 7604 
300 8994 8005 148 2892 9160 780 4027 6428 7193 4107 3113 5580 200 4463 477 1956 5193 367 2739 7653 2870 7026 3251 8908 6060 6095 7579 1223 4494 7088 2100 8987 1986 9837 9465 3647 977 2603 2686 325 9555 2907 3665 5448 7057 1450 6698 8844 8078 5862 
301 8125 7296 2288 1534 3543 7732 3885 935 450 8387 1383 6054 1956 847 3395 7 3964 4558 776 5072 7987 8922 7029 8539 3207 2175 3630 6385 2943 9219 774 5885 2902 7355 5005 2128 6347 7737 6285 7610 4362 1206 3842 2983 7146 395 876 834 5871 8233 6687 8995 2662 4047 9623 2176 6699 3380 6269 9368 2865 1339 6270 9132 5175 7481 9493 7304 7486 3762 2209 9965 2651 5553 
302 9533 5437 1979 8005 9299 8722 5307 6296 745 9848 925 6161 5862 8663 76 9607 1058 6920 2630 8140 7012 3111 6153 732 5248 105 3240 7874 7992 7266 6978 6465 8883 5097 9990 3665 7439 3106 3781 2422 2136 6492 7790 3043 2064 9908 4959 9215 7320 405 9981 4913 9613 2205 5015 1542 8676 5372 9834 
303 2340 4762 5523 7386 6598 2705 284 3469 5514 9352 5259 1315 83 9000 4727 2737 676 2666 2607 3146 7413 8406 
304 3012 2555 6547 7438 2986 9199 4035 3232 7055 8832 3982 9075 4311 1149 9615 2155 4664 1752 847 5862 732 1731 1289 2533 7012 2858 2898 6428 4027 1058 139 8528 7732 2128 8227 6404 4180 6258 8722 8841 7267 3316 9464 374 3320 4222 8922 7790 4967 683 2662 4965 5504 1358 7456 5448 6351 761 7694 1560 1339 9027 5902 6744 4728 4884 1546 2109 5359 2600 8863 7742 921 8908 2847 2019 4660 3781 3043 5090 9579 88 4399 2304 647 2951 7820 1117 7641 5288 9230 9385 3865 5547 340 5921 8900 9211 9939 9004 9003 2183 4494 7736 5677 
305 1984 6538 9299 7736 4377 1289 5027 7164 1270 214 7536 2964 7722 1261 9811 2052 9125 2960 9746 4400 7266 1496 9731 8512 
306 7949 7883 3830 7413 9903 2892 9990 7545 5677 450 1571 1524 8153 9231 650 6901 2515 3401 9122 2442 8740 7732 477 321 8716 
307 7762 6327 5445 9289 7491 364 2246 2175 9199 6784 9068 169 443 961 5385 6995 4967 4342 7795 
308 4341 647 6980 1956 5063 4527 7688 6827 2475 2774 719 2422 9608 9991 6030 2407 1452 9219 1528 3792 5467 3905 1206 7204 8362 9621 5386 836 933 5857 3790 690 6973 952 6834 9483 668 787 7508 1873 8111 8235 2237 1256 2617 9347 300 
309 1343 8830 84 5862 5363 82 9021 1170 3615 6496 262 5184 2503 3078 1091 6635 4886 4352 7997 
310 935 3543 1625 625 9848 2492 3170 4792 9196 6088 123 414 2215 6082 3758 5838 1831 
311 7153 3074 9533 5869 6054 2155 3111 2 1125 3953 1961 6924 7345 2503 6223 1991 6882 1135 1784 4377 
312 5880 9834 7759 8343 3158 6296 5445 5401 6712 367 1289 7077 6187 8982 1479 6254 1628 8386 3835 3656 2189 6011 2244 7110 7979 1414 3513 7664 9443 7728 8268 8044 9159 3843 1839 5194 6928 8712 5995 1905 349 7732 6030 
313 7652 2986 6538 5880 4340 6134 9903 5298 6141 1172 547 8170 3176 5999 3045 8009 1186 2496 9073 116 
314 7439 560 2183 3181 8483 1382 1848 6100 3114 4659 6115 8946 746 5865 9191 2739 3316 
315 8387 3830 3376 9615 5053 1121 4341 3885 8848 2643 5458 2537 2577 912 7355 3243 9555 1898 4104 1299 4269 5500 9027 7606 5639 6869 1154 2342 8698 1281 225 61 3575 3050 6153 7323 139 7481 6750 9443 141 9290 1657 1505 4092 3756 5379 9969 9780 5072 8104 4034 221 
316 5412 6613 7240 2340 7736 7575 1984 9834 1299 4664 6986 5322 1784 2685 5821 7806 4180 3158 7429 7088 6889 3106 6465 8685 2128 1149 9607 7120 3303 2136 8487 2439 4176 2003 6534 4060 523 9993 8344 9565 7545 2732 8183 5029 8325 4107 709 6487 7289 5063 7285 9230 6029 2699 4890 2100 4501 6073 7756 4385 325 5993 6292 6920 7349 4870 3379 8696 2349 5997 2146 2760 475 7379 7265 5134 2222 867 7568 2565 1391 2856 3316 8907 
317 7652 3074 3012 7713 5446 1289 7456 6550 2666 9720 9230 7806 9659 447 8022 4176 3723 7057 5198 8814 176 6778 8812 8015 9129 9380 7856 5477 6020 3371 6528 3706 6739 876 3220 703 9865 8614 5989 7513 8692 1932 7173 3629 3172 5230 6257 1831 6373 8220 1942 6153 2662 
318 5962 8125 9199 537 1689 2395 2484 1211 7279 45 2666 1871 2538 4079 374 
319 2986 5748 5515 1419 8903 4525 1595 5842 662 3250 6775 7736 7695 7055 625 1149 9197 3377 1534 
320 2962 2685 7296 3585 168 3581 4024 1383 7484 843 169 7253 9889 6859 5244 4636 393 571 5391 1796 6635 3675 7055 6613 
321 2240 2962 7949 4901 2288 7652 4311 6635 3584 9483 1557 311 8105 8722 1657 7204 4234 7267 5899 5885 2491 177 1145 5072 7629 7355 1551 7742 6978 5014 6714 6852 1252 5583 3698 1601 9220 2732 4957 6347 7023 9907 4626 1731 
322 935 9968 3936 8387 9075 4035 3376 6827 2790 9160 2666 7968 9834 9299 2630 6467 4958 1042 2128 1752 7902 8498 4377 2264 2898 2875 4626 1401 5451 8794 2158 5193 574 6067 8068 2491 4107 6986 9713 5072 9518 9443 6153 6967 552 2209 650 1496 3146 9836 4965 7234 3079 254 2668 9940 5917 3064 3750 2929 8344 4890 2768 2139 1871 6785 1580 7454 8958 2146 8685 2857 6347 3380 5783 4060 4828 9654 5397 3051 3630 5871 2923 560 134 6353 4385 5099 5849 6464 8618 475 9330 8248 9139 
323 6547 4985 5458 7517 2114 5775 7285 4728 2264 1731 780 7055 3944 221 8396 5053 8528 5135 2666 2018 3624 8121 3432 6874 1216 673 2109 8907 3379 9935 4361 7390 8848 904 3533 7519 2537 7751 8193 
324 9007 1105 7713 6458 25 5818 8604 3670 4359 2398 8476 6667 5489 2106 1934 6048 7385 4227 7006 8617 1774 4442 2533 
325 2555 8491 6778 6101 374 7438 2052 4619 7481 5788 8104 552 5097 6281 3146 6625 7751 5122 5752 707 1552 3304 9138 8580 7630 4317 8711 9260 8812 8049 7333 3926 7085 8068 3728 9908 1025 6492 6875 7423 4928 4071 2001 6115 3363 2183 5005 6464 8450 3190 6550 8713 2192 399 6269 8836 1822 952 4893 922 8931 5043 774 9659 5548 2817 8690 3789 5996 8685 951 6913 332 2074 
326 7782 3379 6306 8711 2264 4004 2768 7856 1852 9120 1912 8600 3869 8185 8985 9659 2346 3795 3853 155 2483 4698 1043 6445 2156 6512 1522 5433 1242 9871 5164 5695 254 6323 4528 8893 9970 2866 1164 3987 4863 9107 
327 6938 3836 7413 6534 9299 8491 1134 6054 5248 5446 3477 647 7054 9050 7872 1557 3035 4352 4823 8558 934 6956 1184 6110 6957 5340 3006 2904 7864 9671 1601 9615 8716 
328 5880 8193 6827 8212 6549 9464 2480 2650 7234 6790 6020 652 7426 4619 6967 7968 3870 6982 7948 755 6687 2146 2735 2537 5063 3117 9032 6671 8985 4907 6875 9551 88 1981 3504 1358 4004 5726 7630 7771 2413 5523 5902 6269 7629 8442 3240 2818 7845 3453 3714 9518 1736 7950 9947 6802 813 5239 6729 8690 4399 6218 7634 8209 5359 7751 951 4069 9215 425 2426 6470 
329 2962 9968 2643 3521 9461 5437 2437 6712 1348 1042 1287 8104 3158 9138 719 5251 5747 7 4245 9733 5567 1923 6899 1425 1924 7314 5113 3781 5448 8936 2578 6949 1279 8600 7278 1541 1344 1101 5912 5656 2491 3073 
330 7949 979 9244 369 4728 8663 3043 1149 7088 2978 3528 949 7289 1645 7267 2831 8017 5141 4229 9124 1780 173 9725 3002 5150 5548 5239 8907 7193 7429 
331 421 4665 8674 2891 693 5480 1177 4704 7195 7725 5006 7709 
332 8130 3586 9990 4909 7001 5219 8495 1383 9178 374 4786 8293 719 1117 3541 1149 7147 9465 9933 3905 638 6528 6281 7206 1831 7710 6534 9347 6360 773 7355 892 2074 5788 4887 1174 6046 6630 7029 7280 707 7615 1856 8471 3770 6216 6842 3408 6250 7782 
333 7883 6827 7880 6547 6537 183 148 1121 1979 8495 6141 6986 3586 7864 9265 374 84 1058 6687 8528 7179 8284 2182 5003 9659 6635 7820 5899 4463 1601 6134 951 707 2100 208 1784 2327 8896 1552 267 4539 5457 155 3507 4526 9467 5483 1025 2576 2064 7795 2485 6608 5251 1035 6351 7813 9114 8922 652 188 8428 1394 496 3537 5368 3801 456 2598 6260 6675 7026 2752 4531 9178 
334 1668 3012 3877 8293 4314 4340 4020 5707 6090 6890 7478 7362 2385 402 2725 1843 5307 8716 7285 9930 2615 1353 7852 9129 9270 
335 2986 1979 6778 5099 3377 1871 6030 6470 7759 4519 1454 6900 6067 5167 3902 7675 2684 8515 4996 1328 6360 6187 2662 4180 
336 2 3877 9842 7153 2986 9968 8125 7762 6465 1534 6054 8920 5307 4679 1625 3885 3144 1105 7055 6986 4340 5476 205 7808 7911 4648 838 6103 6077 6601 8074 9619 3750 3783 76 6020 7933 5006 9139 374 7791 7296 7709 
337 5198 90 6602 8260 2186 7082 325 1821 1133 9766 4473 4161 2412 9004 4528 865 2001 2643 
338 5962 8994 2340 7429 5677 8671 5445 5917 7759 4786 8462 1647 8495 9270 2480 447 9688 9565 7105 7987 4362 4234 1784 1904 1150 9579 850 7200 7049 8174 4606 3371 3958 457 5784 6028 3395 5401 2318 4690 5109 4345 7948 4049 3320 7982 4004 865 2582 5898 3343 4948 6982 
339 2288 7153 1343 7880 6345 5037 9481 1557 8125 4683 5470 5498 270 723 4107 2264 8512 2439 8183 
340 2340 4314 1134 4176 2288 7883 4341 1763 2904 4561 6153 7629 7932 7485 4170 8396 7373 3459 8841 6972 7359 4457 5769 4796 7768 8387 
341 4390 1287 9148 6271 8694 9570 8421 6571 5401 7910 4626 3014 1546 2209 6428 7653 3885 2121 
342 647 7762 1750 753 3757 6280 1774 2003 9688 7267 8797 3835 1167 5848 6630 7289 295 2900 1139 1058 2693 3190 6675 8116 1780 6621 3013 8027 5043 9470 2016 6451 7467 3936 1425 6615 1042 2114 8342 4302 4415 3304 2070 1560 2292 523 3909 7477 7896 1296 3106 3998 8259 6170 4558 4234 3783 4311 
343 3012 3074 3032 3982 1299 3023 4765 6134 4531 3377 8711 352 2005 3077 8671 6538 9013 8487 1763 2595 116 9023 4108 6404 84 5862 1546 7795 3870 6251 1981 6608 7861 4399 6982 8068 3061 3285 8284 5838 8062 683 8696 5005 663 3750 2676 108 9608 1066 9837 9230 4222 6929 5158 1475 4398 1260 3004 5401 4352 1774 
344 1668 4901 3758 3521 8470 1125 5248 7012 6470 9178 3261 7880 9465 6360 476 5783 9444 2058 2349 46 776 6327 8396 4948 3513 511 5898 4437 8212 6424 6621 1391 2768 541 8185 6482 468 9688 2875 6547 5964 3778 4343 5018 525 133 524 8727 1476 3869 1555 8995 7044 
345 7179 6482 8696 5163 8601 7987 4222 5492 5397 454 8445 7950 813 4068 5772 7617 8547 2034 9631 5339 7224 5360 5392 1083 7355 1454 
346 3074 1299 6537 8293 76 7517 4501 2870 1125 6744 2192 6155 3648 4152 7012 5483 8786 7790 8618 4322 7505 4939 3145 3507 5871 1430 8844 5580 1181 9174 1710 
347 3936 7949 6049 2155 7732 3584 7997 9545 3316 352 8209 5097 4340 9443 4526 1079 7285 8284 732 7029 3106 9354 3543 9453 2114 6187 6296 9510 7355 2569 8053 6281 2109 7606 3249 8188 5572 3783 4155 78 7280 198 9839 8609 5483 7608 1994 6047 6115 
348 9007 4340 7240 4855 6938 9199 8043 6467 6547 6044 3783 3023 7481 5788 7179 5862 1557 952 9999 3113 4985 4463 1082 9163 2637 707 1530 4412 697 1868 2630 4162 1252 4558 9256 4314 7153 
349 2155 2983 3261 3395 7790 3781 640 5295 8728 3700 3958 850 5014 3303 332 2650 6250 2403 5604 9671 610 1931 1542 8377 6834 8352 9746 1797 8375 3596 6716 9982 5833 535 2489 6983 6899 6464 6014 
350 7652 9453 5064 4728 3111 2533 9979 7545 9467 9374 9219 1091 4626 6855 719 1710 876 9443 5885 2413 6630 3751 6687 1079 7627 4485 9852 7408 3113 3835 9629 477 9024 5075 3907 1555 3905 8293 
351 321 9968 427 8387 5880 6101 4326 6327 3836 979 5869 6584 8644 8671 9270 1125 1343 4824 6020 450 5307 9013 6216 5643 7012 9852 9086 7206 8830 8832 1429 9979 3630 1647 7379 311 6067 5899 552 6049 991 3731 1611 5862 5097 5860 5788 5122 4091 6608 7456 4923 9032 3113 6095 1358 8130 4639 2670 6428 7438 8414 4129 2489 1934 1554 221 8484 5902 8512 8069 7439 9138 6054 4647 7756 7123 7474 625 1538 2264 1728 5826 1348 6898 8017 2485 6509 2932 8462 3061 8947 3257 6785 7787 1121 6486 4040 2735 4399 3032 
352 9968 5715 9533 3894 6547 9244 8043 6635 7883 6021 6584 8663 6296 1557 4901 9224 9731 6306 4286 5326 3106 9443 6280 2643 6216 1353 9008 3395 2790 6621 3125 5921 6899 1625 8233 3432 2426 8423 7349 2585 955 5246 7725 1831 7451 1553 4732 4091 3050 88 5270 8609 2437 
353 4199 3936 7438 321 3543 4664 8406 6467 199 399 7240 9461 8470 6458 4400 8140 5445 843 3630 221 4362 8462 6153 5038 3380 2485 250 4345 1710 7586 828 7032 3628 3427 80 1579 6137 1985 3498 8273 6134 1494 8644 
354 9533 2555 7852 2790 3144 847 6920 6598 4969 609 7456 159 5516 5469 2913 3112 569 1287 9008 1348 2424 921 3077 5163 843 3004 
355 299 3945 2158 6739 6803 8500 9916 7691 2269 7284 4233 9433 5254 9955 8227 9087 3106 
356 4326 7429 6712 9279 2004 2055 4151 7331 1903 5044 4110 5764 2499 6300 9031 4280 3717 4230 7054 4439 78 6306 7012 9107 1625 
357 7413 6030 1534 3830 3586 2630 9013 9903 2128 7756 1571 2600 6486 2209 9659 7180 7367 2404 5194 6550 9955 3932 7732 8896 8269 4457 6621 755 8941 1512 1071 9508 7507 45 250 7589 7119 1150 4957 2904 2615 
358 3836 8722 9265 5917 447 3004 3961 1298 8908 9776 7384 3359 5498 449 6195 1193 
359 7413 8470 1383 6986 3586 3753 1121 4786 1710 7055 574 4071 991 5848 6170 1246 7169 3670 2867 4444 2071 345 6178 5696 9936 325 5042 7183 8907 5821 8987 9669 1358 731 5085 2106 6062 4699 2028 2074 7569 8663 6251 188 689 9451 1736 5099 3783 9139 
360 6030 7709 1343 4985 8812 5446 1496 8495 2790 3376 476 1383 443 9669 5643 9008 4286 8512 4180 4311 3543 1763 5053 6270 5029 8307 6486 4399 4317 5483 5156 9720 9677 3961 2019 1611 1454 7545 9688 7053 2209 1373 6850 6178 6166 1868 3268 2037 8600 9506 1960 6487 247 2412 4639 6744 7280 8508 3467 6492 8487 6014 3154 3521 
361 1668 6827 7120 9834 6404 7240 5437 847 7219 6920 6187 2983 5788 1546 4340 4134 454 2005 3783 1799 4027 4948 6082 5964 8104 6331 6029 4957 1405 860 2537 7439 3703 850 3207 9758 6376 8092 1580 3304 755 475 6057 2150 9565 3706 3937 8580 6164 5838 8922 4541 7023 2856 2684 5078 9233 5212 76 979 
362 7762 259 8711 9848 8470 4728 8212 838 625 1256 8812 7 5097 1383 7845 7012 9347 2437 3158 9444 8423 2800 8685 9693 6826 6471 4034 4784 2735 8893 9676 1598 5239 7495 5386 
363 6101 6258 4985 8227 2413 7162 3043 9777 8193 4558 1868 712 8776 1981 8068 267 5767 7029 7361 523 9555 1900 2589 6772 1043 2263 4011 4176 7026 3795 3320 7213 1218 4168 8797 9719 6453 8298 3682 1504 513 7156 8484 1542 8531 3524 2409 782 9215 
364 979 6692 6920 3113 7 8599 2437 1091 8092 6227 4886 6277 589 5251 8889 9058 3598 9875 1058 9139 3792 9930 
365 321 9533 7699 352 745 9075 1784 2643 3163 3885 5064 9374 8293 8068 6785 8431 7 9114 2651 3316 4539 9669 2349 6324 2666 1496 5507 3757 3363 971 4203 5072 329 7456 8078 719 8671 4286 4783 5063 9731 8405 1956 9464 7013 7133 949 7568 2175 3827 663 7733 8423 3362 3432 8674 8445 2523 6930 6301 7213 2668 8470 
366 8406 6049 9224 3877 2704 8528 139 2569 3981 5095 5572 84 4526 3533 1657 7782 2699 3750 6044 1731 8609 2513 3707 5523 1049 4031 9891 8145 2470 7886 7147 580 247 80 71 9443 6029 3801 4346 
367 7699 1534 7240 5412 2666 6613 2327 1557 1117 838 9848 1731 6022 780 8716 3728 5948 5143 8753 6611 135 2260 221 3255 6677 9362 4531 9449 1476 4151 9659 410 6961 5192 1413 8782 6153 3079 7874 3106 6196 1642 9279 9040 8570 5483 4988 7200 3905 1121 5873 3944 9711 732 712 3376 5775 7880 
368 745 1979 9404 8512 3089 2407 6528 3363 6285 443 847 9008 2898 4558 7899 5826 9733 5448 640 3672 7975 6600 7547 4066 581 3265 8885 1085 8463 9464 4481 5563 9970 6014 
369 9244 352 8130 3144 4311 3263 5254 7141 3696 82 5961 6937 281 6133 4916 9613 4757 3262 6859 3602 1776 2087 3967 9969 5099 
370 6101 979 6692 7120 7709 450 6778 6082 8134 4527 1343 8498 2898 7179 7456 4728 2773 2858 8105 3006 4362 2013 8248 7234 9659 4170 7987 9903 155 9993 2475 4912 9120 7933 7698 8145 2349 1731 9299 2158 7756 709 9219 468 7077 2346 8209 1246 130 6671 640 2904 977 3720 300 2109 2203 5005 1555 5737 3888 5003 4345 1710 4108 6423 7653 3324 4870 4104 2003 6216 7254 9600 105 
371 2962 1299 5748 7736 7732 1429 843 9461 2858 2288 8343 5099 221 5193 9443 8848 2128 5088 5251 4317 4423 6390 1571 1252 9731 5111 2818 541 5504 3125 6482 9008 2666 4180 475 1736 2028 6305 2668 977 6675 3087 1799 8178 1437 2595 7497 4436 8185 3163 9013 
372 79 9075 1496 2005 7630 1091 2058 5029 2870 7049 8307 4269 2983 7439 1150 4362 4760 3079 7014 7380 1405 9676 7289 3846 410 7642 2804 4132 1375 2327 5762 
373 79 9075 1299 8125 3982 5340 4176 6044 7179 4624 2666 4801 2615 5175 2904 1752 1670 6020 1710 640 8841 7629 1601 9979 6014 2768 9580 4784 9464 5583 8580 9032 7568 3050 8078 2003 3700 2929 1091 1868 5251 2600 5966 2662 4091 6453 3781 110 780 1552 4645 6369 2109 7087 2699 367 3102 8248 6503 5636 6771 9085 5212 5295 3870 4890 8844 5383 5607 7396 7694 8618 5245 4151 8797 1498 1139 6949 1504 6892 108 3074 
374 7652 2555 7762 3836 3728 8711 7133 5775 3077 8498 9008 7267 2615 1546 8177 6801 2058 7832 2480 7059 4142 5425 8559 8207 8841 
375 3012 8994 3758 2340 412 1979 925 1238 4352 8830 9573 1134 4786 8069 4958 3964 9008 5097 5003 450 4385 3113 2264 552 4234 7732 6611 523 7053 208 9518 4079 1904 9247 3082 5073 3247 2367 6504 4151 8934 7756 673 8343 9461 2537 511 4801 6528 707 1774 5326 
376 5437 9129 5340 8134 5445 1117 2533 9178 5451 7429 8470 9197 9402 8009 8105 139 9600 5447 221 2264 9322 4071 2949 3170 5686 1287 5775 
377 979 7713 7517 6467 9669 9301 6369 3376 6547 7133 7474 4176 9580 267 7088 650 9908 3207 5726 6696 1145 8062 1981 690 1252 9609 9261 6482 7365 7197 3876 9289 8344 2822 5716 949 5865 8266 1966 105 4325 1391 7864 4884 3371 
378 2121 352 8711 6534 5507 6778 3023 6672 6161 9483 6141 625 9086 4526 8618 1079 8284 5862 6280 2664 5498 3913 1369 746 779 5656 2569 2019 4992 523 
379 2340 183 9483 8599 7193 1560 5072 8600 4091 5543 4334 5359 4162 3889 4423 7362 4271 3146 9758 2426 2058 3835 5656 9733 4907 2532 2660 8685 6347 2349 1476 3491 3876 2924 3597 5772 4393 2150 4584 6285 2175 7852 
380 7806 8685 5555 1329 1227 3588 898 2439 488 6067 4216 3515 3342 6545 8400 3666 1806 6968 2717 2413 7710 2014 4550 6802 6073 1289 5219 
381 5715 3877 7438 6537 8495 5446 9199 9043 7575 4352 2666 8406 1289 6986 3320 9197 5451 782 9970 1625 7163 6903 6458 5471 1554 4180 5655 761 8531 4350 3409 2158 5322 2608 3089 6285 6305 8140 9109 732 2019 1593 7759 4728 8157 3184 6360 802 5997 267 776 9470 1638 2650 8332 8499 9465 8183 9191 1566 3703 2828 2902 8508 6899 5547 7742 2842 5982 6454 3541 5605 640 550 1216 7 
382 2962 6672 5437 1125 7413 9215 9990 9483 3043 5029 847 7899 6470 1083 7481 511 5921 5810 2209 1504 5772 8409 9379 1040 327 405 7715 827 1269 4345 9615 
383 5715 8994 3877 5064 412 5869 183 935 7883 7429 6082 1121 5848 6134 1625 9930 5748 116 4539 6170 9138 2507 9738 4854 333 7070 84 442 2790 8840 9350 4958 7767 8140 5156 569 8005 
384 935 3936 4855 3836 8644 183 1871 3753 5053 2422 9139 4400 2249 4558 3390 3057 679 6920 95 2153 3158 6787 7759 5848 3023 
385 2962 4314 8431 1134 4340 7429 4664 1034 4840 3705 4141 4289 5714 7558 3469 2117 3465 4525 5497 7386 5307 2790 4527 5775 
386 935 7699 7762 7438 9968 8387 1534 569 3584 5848 6537 6467 2615 3131 6135 7691 5280 9299 8397 8760 3846 3525 6986 1125 5437 1132 8722 2685 4909 
387 4035 6938 9533 412 7902 8994 7153 6482 9007 7699 8644 7791 6538 776 5821 9199 9129 9178 6608 5090 8722 8169 4843 9075 6054 183 9555 7949 3877 2679 3723 130 2491 4728 7706 1956 9586 7569 7481 8069 2685 3312 8209 6115 8985 1273 3720 2954 8017 780 1296 6676 4539 349 513 4801 9903 3897 3146 9921 8885 3303 8628 7193 1142 9688 9933 5492 7630 9385 3784 3468 5295 9713 3432 6547 
388 2962 2240 9968 9533 4314 6538 3521 2121 7736 9573 1670 6082 8284 2175 2058 5451 3936 647 527 2662 1252 9733 477 7782 457 3079 991 6550 2732 8728 6428 1557 6611 3691 8307 3187 9396 1835 7627 2979 3050 4490 4752 7200 8111 6161 4079 5304 5141 3961 6671 5270 5583 552 
389 719 6369 2583 2409 1391 4619 4988 2345 8487 9120 8690 2943 9800 1079 3528 2408 5038 4039 1262 4677 5257 5197 1609 580 1061 5821 
390 2 8125 4985 1149 1956 6021 9404 3792 3867 6449 2472 1999 1489 6162 1209 9340 3277 7001 2134 7864 
391 3074 9007 935 4326 4728 300 7791 7219 8907 2114 395 707 1546 4045 5397 4011 8982 5053 4660 4828 2139 5483 1401 6196 6630 4345 7267 550 4071 7320 2346 6652 2263 8651 5003 6922 8618 8593 2818 4141 6492 1195 912 511 200 6250 8201 5531 3835 3146 2764 4739 3933 8450 
392 1145 650 9040 4027 7085 116 5003 295 9947 7521 4108 828 3883 8832 7782 2001 2475 7333 8053 6280 2232 7474 9374 2392 2897 3750 9600 524 550 4670 4070 1083 7101 3700 9120 8507 1465 7087 7606 1206 8042 6610 3030 8797 1430 1071 5054 3496 1445 7439 8618 
393 2 2704 8512 6170 3894 427 4909 979 1110 3376 7736 6802 7429 3982 4531 745 3261 1358 3789 1524 8300 3505 838 7842 4437 205 4739 8524 8900 4616 2685 5910 6189 4804 3128 4027 8593 9109 7351 6305 5651 1405 3666 8989 7856 6576 4966 9224 8677 7786 5300 5088 6538 7200 5869 2340 
394 7575 1763 1105 1042 7997 5451 6296 399 3602 2346 9659 3885 2005 300 8841 4423 8332 5397 2491 2304 1083 477 3961 4679 1058 9349 2847 2413 5372 4048 3390 3343 2657 8092 4884 7929 5279 2707 3944 1602 8832 
395 2 5962 321 2555 3894 1353 7320 6161 3073 6584 7987 5063 8491 1900 511 6945 2439 6054 4011 5543 9043 5307 7709 9036 6049 8722 8195 1383 5677 4423 8812 9428 1137 8908 8671 5668 5925 4913 6139 2292 9548 8583 3064 6511 6785 6701 585 352 9120 9407 6352 2155 9666 9040 7968 8726 3006 3942 8135 6359 5507 2794 5348 3362 365 5855 6170 7919 4801 1790 5821 9265 
396 9968 7709 3103 1625 6534 6134 569 7732 9930 205 9265 1956 7713 3728 5322 2904 6014 2114 9453 1125 3158 6082 3521 4027 8105 2413 7806 511 1216 7200 9023 5921 4660 1083 7933 7790 8121 1289 1391 3513 4457 7751 7474 7929 295 951 3077 4021 8922 4769 6486 267 6731 3827 7698 3781 8934 1417 2360 4004 1799 8690 8797 9518 3334 7795 7213 6631 
397 7699 2288 745 9013 5677 2704 2983 2349 7992 4045 528 5216 6144 6941 2577 7185 285 7178 8985 8967 8831 7647 4866 257 1920 5239 9428 8810 8227 9114 9260 9722 7410 1623 5628 6608 4199 
398 5869 4035 6538 979 4985 3163 9533 7055 1979 4341 6458 745 6778 8487 1984 8116 6187 5029 4539 5862 9265 200 6369 8068 6061 673 3752 5163 3377 8841 560 4222 8344 4060 7795 6875 7751 4156 4071 2158 5097 2426 192 9150 4508 5012 1391 7285 8697 8910 1149 8512 
399 3144 5340 8498 8238 2776 8534 5945 6474 8893 2723 4456 5631 8199 9871 4176 
400 6918 7169 6414 5609 7682 4702 8254 1984 3429 1602 2647 3779 5120 6799 1958 3364 7055 5643 9598 6054 9453 
401 1710 2413 3905 9086 2847 843 3427 5917 9043 221 1401 4958 9510 9991 5966 9688 6903 8907 2929 9955 108 9211 8150 1223 5768 7474 8539 1379 7568 7790 593 7107 4222 5583 4230 1328 2198 6200 6085 2679 8387 
402 7413 2155 4340 5307 9453 6044 9834 4314 1121 311 420 5326 2858 1454 7266 6986 1343 2349 3106 4457 9443 450 9903 9659 1560 4350 2790 7511 3869 8140 8685 3104 9777 6967 4886 8210 2847 6631 4079 7270 7629 3184 8814 188 3060 7223 5866 6538 4565 6008 9289 4752 9191 9260 9197 8345 9852 6060 1174 9842 7880 
403 2555 5880 6258 8644 5677 9075 1353 2904 3232 4531 9160 6611 2818 3104 9086 6676 5801 9064 789 1249 518 8235 6560 4870 5072 1044 6324 5097 624 260 1063 1091 8823 8706 4094 2480 4539 2114 
404 2 3894 5762 6547 5307 3783 3758 4664 7285 199 3981 6458 5507 1348 5643 6280 9023 8134 4647 7355 8332 7087 7744 638 4558 8439 4399 4134 7771 1176 2113 6447 5383 2349 2513 1195 8907 847 5400 7586 4561 2225 6236 1702 3835 7833 8022 3053 7050 1554 332 4824 5616 5288 3746 3047 7013 4108 6044 
405 6327 9903 8910 8193 2309 6288 9393 6741 9103 651 8412 749 8331 311 7280 1025 8618 2128 8431 3032 
406 321 6613 8387 5412 7997 1117 1343 6049 9265 9990 925 9404 3004 4400 5507 9013 6153 6141 7 1238 7133 9199 1670 6029 6608 3106 8121 2662 5063 4034 1134 5902 9615 300 1552 782 2155 3521 8068 7105 7413 2790 9777 6071 5090 7198 638 8375 8168 4080 4314 7720 2673 4168 1083 2095 1739 2735 2650 8344 6661 5772 9004 867 3926 1223 1248 8848 456 1067 8307 3022 610 8782 5492 477 2607 2113 2349 9036 2577 6170 4079 
407 5869 9545 7864 7709 76 1871 3023 8883 9955 523 2439 8649 2263 1580 1042 3957 6376 9688 6771 1453 9950 5763 6171 4601 4158 6922 9852 7456 148 
408 2121 5437 4176 6778 7240 4377 4400 7579 6447 6107 54 573 7632 1991 4988 6280 6060 9153 3737 6540 8896 7997 
409 9178 8563 6448 7600 500 7973 3384 8804 148 8625 4442 2322 2583 8484 9404 5322 
410 4901 238 5869 1956 7759 7968 3586 116 2630 3728 574 5322 2491 5175 7653 2768 3750 7120 8269 4091 9467 1710 3051 6028 3079 132 1858 7786 6509 457 1043 2485 857 329 8332 9709 2064 2752 6588 2613 2796 8894 2885 2227 1305 4075 5270 7079 7426 8719 5383 8150 9129 
411 3035 7277 2111 2511 9877 3993 717 661 5032 1423 9733 8848 
412 79 7902 2685 5340 9933 9654 1252 7790 1328 800 7568 9798 1928 5460 9852 2043 8651 7229 2322 3051 4343 3297 4282 7355 1164 139 
413 2962 4199 7883 9968 321 9842 3074 3111 6827 1763 5099 745 753 8005 3050 1790 673 8841 1670 5401 3261 3119 1223 7919 8193 311 2630 3184 9354 6141 9199 2904 2932 3541 5758 1524 5006 3234 6454 925 5445 3383 1117 9107 6677 1353 3753 2469 7184 4780 8536 7847 3232 5239 4494 1986 7320 9669 2153 5341 3249 1058 
414 925 2 7049 42 142 9055 6799 5225 8183 4317 6971 7703 9225 8053 815 6073 5326 9607 
415 9968 7883 745 259 9139 9903 9224 9270 6029 6635 761 6744 3432 1117 3207 7845 8043 4752 4170 2518 6785 7615 5304 9050 133 9565 860 2569 4679 4442 1218 8725 6654 794 2022 6747 3476 2076 1167 475 7147 5471 9230 8470 774 5917 
416 9007 3982 3830 7852 6584 1496 6672 2790 2437 541 6306 4071 2699 2679 4367 8958 4619 9970 3251 518 5304 5457 6134 2422 9757 6292 4378 2979 5239 1139 7199 3607 2929 7193 5383 3914 2902 6332 9659 1942 6772 1822 7833 8210 6821 2491 3723 6681 6554 1498 4117 1252 3945 9993 4348 3732 4757 9990 
417 3877 139 5064 2240 9483 7997 569 4314 8387 9265 3720 3507 5838 3380 2615 2685 238 4129 753 6842 7179 3753 6355 8713 6853 8844 7542 4177 2167 6845 332 9902 9059 3024 2538 7088 7429 116 8994 
418 2327 1238 3830 9903 5445 4027 1042 4884 5917 5097 3541 1710 6153 650 1986 3251 2209 4296 2225 4419 7495 8278 4577 4565 9107 2763 809 9615 7807 1625 1984 
419 6547 4985 5307 5962 5099 3158 7795 105 1476 6281 3113 5885 8248 8345 6737 8671 850 5457 1900 1868 4787 4060 6061 2904 8539 1601 7029 4345 3932 4437 6026 8512 4080 1685 4091 2522 4026 2890 2380 5038 5020 4054 1942 90 7049 1134 
420 1668 2643 7699 2990 465 3077 6153 1750 8279 5053 2741 3634 5922 4053 3135 4253 3122 9088 4491 4025 915 9356 6233 7787 707 3316 
421 8431 4679 4170 9107 7063 8371 9704 7772 528 1428 456 4731 6123 2911 9993 1216 3731 3238 3363 2945 2134 5998 2683 374 9465 8145 7489 1763 7952 9476 4528 5188 8920 447 
422 5962 2240 6021 4624 205 8116 6020 2052 3944 8859 7012 501 7745 7132 2483 1880 7884 5153 8372 149 7186 9731 110 2412 
423 5869 8406 199 6538 7736 979 9301 7285 2533 2307 7992 7519 5896 2480 2038 4870 9215 391 5646 1382 1467 7267 8183 218 4903 7234 2709 3630 1822 6054 5437 
424 2240 9244 935 7438 7296 7713 625 8832 6296 1496 9990 9677 9374 6899 1358 5097 3304 1670 1256 7759 9023 3261 4034 6550 4079 5752 8922 5359 518 6982 6331 5838 9219 2670 6545 7569 3249 2595 6424 5457 2345 8307 6922 199 3079 8600 7795 4752 8728 7761 8428 6785 4528 4828 6598 8218 5567 3753 2762 3847 2013 7742 6226 3354 2100 9979 9594 9075 
425 3936 2643 8116 1956 7968 4728 321 3144 8528 7845 523 9483 374 5921 2707 6687 4893 9720 2600 1721 1979 6955 5253 9211 1799 9943 3758 6187 247 1901 3474 4815 3111 4493 4977 7030 3520 793 1306 5241 10 9938 7846 1133 84 
426 7153 321 8125 6327 3982 9075 1105 9930 8431 4340 5775 5326 732 7713 447 8663 3377 8910 6161 8130 6611 7519 7791 6014 4286 3146 46 9480 3240 3784 8269 9444 7933 7895 8814 1167 901 7355 3842 9050 5163 269 8157 7304 3731 1216 4367 7823 9285 3752 7433 267 2176 1607 2028 3104 7795 8836 2385 2383 7569 3064 675 7880 
427 2555 7153 2013 259 3586 3144 412 9299 1299 3113 9848 443 2081 5631 9698 8921 9793 7751 8558 5882 3858 6301 2336 4531 2685 3758 
428 7652 8116 7669 6153 5307 7193 1560 8332 3119 4843 8445 6509 5141 7787 9908 6236 2927 3865 7163 5304 7254 9040 4848 8330 1122 1989 5756 18 2260 4302 3343 7845 9956 3229 2983 
429 2986 7438 9129 3758 1984 1534 3728 3521 9138 8644 6920 5848 1752 6187 8116 7053 1401 148 574 7751 6029 5193 3509 6687 5880 937 3377 4923 8599 9032 6737 9518 5149 9120 9374 9806 3160 8896 1657 6765 3964 1981 5383 4362 2184 6802 5163 9822 9703 267 4378 5547 2666 3781 652 7899 3751 6226 7314 6178 1430 8728 552 5572 6071 2856 759 7227 6292 5349 2171 2760 438 2902 5668 2064 8167 6196 4420 1512 1986 7012 
430 79 2986 9615 2 7902 9160 135 7206 2005 7756 9347 1328 8183 6549 6621 9551 5966 1552 4787 7077 1601 7764 3146 2485 9777 76 3000 6737 4752 550 7367 4890 5010 6409 325 6281 8775 8572 2179 8480 813 5088 9467 8507 
431 267 88 5339 8922 4423 949 8600 4249 7756 9219 3345 3054 4580 8329 7889 8150 6492 3865 7922 7688 8599 7302 6153 921 577 188 2407 2951 638 6385 7077 2476 7495 7755 8883 269 7859 2475 2650 
432 7296 4901 6778 5643 4340 8495 2013 5887 782 7629 4129 1289 3184 9649 6305 5288 9043 7929 1739 9404 6687 4356 8049 6898 367 6889 9669 1083 551 6528 1139 4526 8104 7105 1570 1358 3541 3533 4399 295 254 2954 8931 4870 8386 6631 8756 7210 5163 2182 6391 9940 4814 7128 1578 8362 8439 4035 
433 6101 2155 2962 3982 8134 6258 8130 2630 2422 3163 3885 238 8005 3784 9903 76 8599 719 1763 5445 9075 8069 4855 7852 8910 2327 8848 7630 3586 9197 4728 1134 7545 205 412 1383 7759 5504 4222 6359 9086 8257 7434 1877 6509 8836 847 9775 2773 4418 374 8332 1145 6797 2533 4624 6377 6401 1531 4922 5856 6694 2497 8068 5902 2958 5885 7088 5762 
434 3074 148 2643 9244 9178 2422 3964 1524 3184 2870 991 2414 5917 2052 1546 6447 6281 3543 8618 5767 444 719 3395 8883 374 6187 7234 9709 9931 4760 6920 3320 2589 1571 2611 1391 8728 652 8958 660 6073 8934 1186 7085 6071 8110 2136 9607 7405 281 9822 3567 9637 8734 1977 6251 8562 5887 1799 6074 
435 3982 4314 5869 3753 5099 4728 9265 925 847 3113 2128 1731 420 4558 1091 6306 3533 476 4400 8325 4292 6382 9179 6431 5220 8211 9733 8648 7361 1066 
436 6270 7085 6899 7087 1986 5019 8896 5286 7795 2184 1375 663 2198 4843 7932 6492 4093 7875 2902 6410 9464 4907 3703 3380 5981 1606 6307 1182 7786 5413 2274 4230 5810 2554 1081 5239 3190 2569 5219 
437 6134 8193 8910 4176 2422 3252 1015 5859 2704 2107 3632 1529 7297 323 5386 1956 3981 221 3395 8848 
438 9968 9842 3074 8722 2414 1134 8235 5341 4129 5921 712 5448 1246 2927 2679 4463 9598 4348 188 6652 5359 454 9023 8713 7542 5003 2212 5239 6962 8423 2735 5401 8814 7521 1145 5019 2607 1554 8912 5948 5997 7379 7254 6610 9451 5141 7434 2938 598 3290 2870 1164 2017 8539 5543 1571 2209 2373 8599 
439 5880 6986 8830 116 3240 457 7615 6029 8450 2058 8696 8848 1900 2304 5212 7361 5359 6424 2673 3537 2707 5885 7861 6404 5400 4457 496 8008 7749 1465 5801 5964 6817 1979 9565 6955 3491 7725 7050 4843 8881 7669 9518 7610 3331 7956 2001 2537 6744 7664 221 7439 4069 1831 6588 7511 7410 8528 4967 2345 8713 2870 663 7200 4106 30 2404 1515 6453 8700 3507 8722 
440 8491 8293 2704 3584 205 8212 7285 8209 8248 9129 6895 2569 7053 7864 6082 4350 1739 1904 527 6687 8145 5885 9443 9510 4913 5251 7634 3684 7861 3050 3751 7392 1942 5661 9290 3160 7459 3236 2608 1176 9023 7101 5401 5359 2892 2163 6253 2856 3172 9836 9175 5625 
441 2962 7791 9129 9023 7992 9842 6281 7630 4457 208 4314 8685 1868 457 730 2650 7790 2902 7267 2732 6771 4907 7434 6351 1800 2028 2983 4461 2221 6467 4870 6199 5163 3343 9480 2874 5129 75 4517 3723 7204 5768 8130 
442 979 6547 9842 3936 5880 9930 1774 8193 8711 4341 5099 8470 3077 925 8105 5677 7669 2327 6458 200 2349 2322 1216 9677 6095 3944 6621 88 9777 2857 4045 7932 2760 9040 7367 1252 4760 3914 4660 3061 2867 7610 5163 6028 8506 7852 3022 2074 8932 4222 3750 7806 367 2681 7434 8358 7060 2958 7050 4399 267 5043 7337 7458 6626 1430 1728 9940 8539 1025 2978 9795 7586 4269 1454 7699 
443 9533 6613 2555 9244 4199 8293 3783 8130 745 447 8284 4311 2302 1828 5290 9462 4279 3734 291 7237 3043 8183 2699 8883 420 4501 5643 
444 2240 3012 7153 8491 6101 5715 447 4340 7575 9244 1105 8130 1625 4664 6470 7713 311 8462 5341 1149 9573 1934 2615 9075 9669 1216 2611 6465 5053 1571 7782 4624 7845 8907 3106 4071 673 5527 1601 9404 1852 1565 1799 5887 6196 2145 8820 7042 8395 8496 4343 574 6170 3379 3146 3103 
445 7652 259 8711 4728 6082 4311 9979 4385 7751 3792 1908 6794 1304 6200 9631 9713 5561 2576 6487 2271 4639 4352 
446 6613 1534 7120 2555 3316 8910 9453 8293 4377 7736 3521 1763 8498 2052 5862 2904 3077 9931 8116 4399 5156 6216 1125 3981 2768 4034 1670 5921 2679 583 7162 7481 6765 9040 4151 9050 3261 952 1739 3561 4060 9464 3950 4081 6502 7044 8259 457 3731 44 8644 3332 8439 9895 5038 8015 3757 8728 1178 220 2956 8848 6712 
447 3586 199 450 5748 5099 4558 6280 707 6095 5307 6790 5326 8832 4561 3380 1139 8049 7725 6748 1770 7105 5064 5445 3145 8698 1695 1613 6636 8813 1805 166 1579 1144 4404 2990 3 
448 79 3074 3836 4527 925 1668 5175 8193 7968 7669 5072 2537 3961 4340 6889 2790 8235 5251 3061 6428 3932 8210 9979 4189 4740 120 594 86 7460 4151 4256 8484 3165 7657 1195 2611 4765 
449 2555 9842 7880 5219 7997 7575 5762 6465 2422 3914 3395 1763 4377 9086 2146 7204 6797 6895 7519 3784 2707 4151 8375 3478 7797 6978 833 1606 749 6454 7416 6904 1831 3316 1117 
450 7120 2962 6467 9453 574 5860 6390 3584 9848 4985 5917 8375 3885 7266 2183 2155 8210 3751 7545 9003 3982 6161 3801 6014 8256 6588 3753 8183 2407 307 8716 1719 76 1175 7956 8686 2598 2736 2189 5901 5304 1336 9831 9845 2021 6465 9226 7805 511 4958 3905 7968 
451 427 8711 7736 2904 450 8212 105 6161 2892 5446 8832 1731 3006 9615 4027 6170 1145 4824 7206 8671 9092 3800 8390 7125 9156 4979 2058 1496 7270 5097 6486 1981 5504 5860 7285 9013 1552 3964 2288 5748 
452 7296 5880 4901 8644 8043 6021 8716 8711 2114 6672 6404 6049 3144 3232 238 7285 7 9404 2327 2331 250 245 6797 6824 3492 541 261 4479 2096 819 2058 6465 
453 3936 5715 7699 6134 3758 2704 8479 1735 415 5584 2527 7339 3095 5652 9857 6889 395 3468 8212 1984 9299 3894 
454 3033 3620 2850 6207 8214 8616 2450 9648 1032 7252 4527 
455 1125 2699 2650 1554 6690 4037 1302 1527 4964 8229 9890 6920 977 1572 8179 
456 2962 9244 6134 3783 8293 9270 6458 9265 199 8462 6967 7352 753 6009 7330 4471 6920 6562 6929 6482 8559 9023 2349 8487 
457 5762 7 8491 6327 625 8293 1984 5899 8487 5099 4134 1552 177 7240 5748 3865 5219 8345 9733 4079 3285 5662 3926 1353 3795 8043 6621 7997 3052 2155 4804 6467 9290 4055 2198 1339 7151 6798 3408 1123 4071 1375 6418 9666 7212 9315 8574 3146 8938 5526 7253 7782 7570 3687 267 3831 8978 4765 5340 
458 7652 3012 6938 9930 9453 5248 8212 843 5917 6285 208 1134 9933 1750 8685 7874 6492 9600 6550 8848 8088 5359 2919 4843 8580 1187 8345 3432 8145 2109 7379 9941 6447 9226 5072 9396 4957 712 6538 
459 3074 8387 1984 7652 6613 8716 4527 5326 2704 7992 2565 8209 866 7755 9947 2422 9979 3230 8907 332 5677 4463 469 3363 7285 8307 420 5157 3207 594 8618 1050 6038 2934 1138 1175 155 5287 4679 9230 6067 935 
460 79 7883 6258 4765 4340 5445 4539 5869 1956 7034 3106 2512 2741 8663 3147 949 9444 2149 2232 2414 654 3379 3541 9600 560 8522 521 4364 4619 2305 2302 3456 9656 4486 6470 501 8880 2333 7474 6532 
461 2977 3845 5878 5941 3941 8818 8050 8648 4286 
462 1992 2216 4675 169 4044 2145 4580 4064 2704 3097 1071 3251 3509 4326 
463 321 2643 5880 9545 3982 2340 8293 1625 4351 9139 8517 7348 1875 6035 1383 1273 8864 278 3622 9244 1454 6141 625 9197 7864 3377 
464 139 4341 3050 450 6611 3792 1105 6790 3753 8696 2679 9579 770 9032 5295 9036 7434 1223 9758 5448 4060 3869 813 4302 3231 6347 6699 1523 56 3833 9822 7688 9659 6930 2099 1780 257 8245 8188 110 4087 4606 
465 1670 6153 5122 2898 1625 4619 3427 5866 4660 1206 3491 6492 8907 6855 1790 2192 5339 5029 8169 2611 9219 220 839 7630 1778 3803 1981 2569 7606 392 8327 4860 7147 875 6360 8690 7713 9224 
466 8039 8610 7425 3067 3171 8340 4588 899 1255 9848 3371 8116 3050 8140 8235 9453 
467 9955 6652 2085 496 6482 1353 1858 8188 3720 1358 9666 4027 1145 3684 3164 2121 2966 2437 876 7206 1227 9290 7706 6157 8210 8076 7151 2836 7391 7077 2717 6323 1846 5848 
468 6951 7493 9814 5480 1836 4204 5717 9545 8406 838 
469 5591 7865 1716 8819 268 6529 6596 2717 6538 4909 3830 8812 8830 4311 
470 7153 3012 7762 4855 7736 9139 4035 8812 1134 7219 3376 9075 3586 4527 5156 7517 2175 6187 6170 2666 8832 6020 8209 1934 1476 4129 6467 1546 937 7012 552 5122 5448 523 1125 8896 1375 7795 7267 8883 5898 9205 88 2768 3781 7756 4760 2414 8227 6487 7698 3827 7629 5572 7950 3158 2583 2569 8269 3304 2064 7899 3584 2349 2818 3950 7289 1339 1287 6765 1950 7023 3089 7361 8687 4442 8218 5849 3326 9991 9510 3528 8907 2537 6096 682 2773 511 
471 5869 8387 9224 5307 1134 7219 7732 4340 2186 9333 2830 8479 9790 6141 6384 2348 5505 9160 3077 4967 6986 2407 2768 9347 1710 
472 9075 3371 5451 2643 8387 8284 6101 7474 4352 3093 8445 454 2927 1601 6675 2304 4985 1134 9451 9260 405 8671 6258 3783 2327 3728 183 858 4286 7762 8812 9301 4624 3172 3706 6082 4691 2764 3159 1479 3745 5216 272 9461 3240 4504 1476 9669 7183 4909 7336 6611 8480 7133 5534 7904 7671 7151 647 6175 2943 4537 4626 8830 3232 
473 4765 9615 7219 8920 6067 6029 7736 6920 6545 5097 8332 2005 8711 5993 2136 7586 7198 5349 3012 3049 220 1869 6962 5654 5756 1452 4081 9652 5198 2736 3969 4692 3453 6797 7365 6352 8693 6817 4269 7606 6615 4340 3830 8015 1478 3812 6768 3707 5737 3543 8970 321 3111 1680 665 8134 412 
474 3074 8491 979 7699 1534 4020 6054 5762 9013 5862 7750 4351 3548 2329 1046 4237 4771 6346 4352 674 5848 6827 9007 
475 3936 9545 4326 7736 4377 5 2908 4015 20 5059 7432 3027 7413 436 8608 5307 1856 3074 
476 5219 6030 6537 7732 4683 7538 5049 8153 969 8321 3544 6585 2923 6778 1496 745 
477 3936 745 3830 1238 9834 9903 4340 9007 3371 3077 3144 9270 7852 412 7709 1042 5322 9224 5307 9930 8498 4170 8487 8920 2052 6082 5326 9461 3113 753 307 9483 139 1572 707 8499 5897 6534 9803 7880 1670 7429 838 9256 7473 1123 4123 5923 9376 1301 9086 4071 8180 3705 4572 4457 7992 8805 7147 3278 5358 5674 2121 1256 
478 5715 8994 1668 5962 2327 6327 5677 5307 352 3521 8711 7713 4531 8498 9301 369 3753 7852 1058 2615 3775 7605 2427 8093 3824 4908 6989 8734 4746 9813 2260 8345 3006 5748 
479 2555 427 8125 9533 4855 1625 205 9265 3964 9615 412 9669 3261 4399 200 6467 2304 3700 7759 1790 135 6967 6060 6978 712 1246 1110 8600 6236 4828 901 3524 7267 8329 8350 8649 4372 5163 3926 7068 3661 2058 3064 4145 2597 454 3589 6332 5462 6617 4527 7852 
480 3012 4901 8005 5522 9877 4172 6031 2083 9365 1357 2522 4314 8863 5996 8387 8794 2892 
481 2240 4035 427 1000 6792 2298 5233 6912 8868 3424 8063 9638 5839 9008 9453 
482 1514 9875 2719 2169 3813 1733 3209 5712 8005 2773 9199 1625 4340 1668 
483 2 3758 79 1343 1553 3099 9916 8117 6240 3860 1636 9407 35 854 1348 9990 
484 7949 4314 4020 2555 7266 1984 5412 745 7296 8599 8043 9003 2340 5322 8830 8450 1799 1950 9129 2422 1956 7688 4752 838 7517 6030 1042 9852 6141 3427 952 5821 8894 9380 3726 5783 1465 6458 4045 5996 7396 6555 5638 3364 8092 8209 6961 2954 650 7519 4337 2847 3981 8145 8930 1601 1546 7036 858 494 1140 6369 9573 7922 5901 2074 1809 3354 6737 8174 4343 5758 1154 7919 3111 2904 
485 5962 7699 3074 935 2288 7438 979 5748 5437 9199 7949 4901 5677 8722 7133 5862 9404 3783 4129 7266 76 2662 8830 8069 5053 4801 6545 2773 3513 4967 4108 8920 4787 9834 4664 6280 3184 2870 4558 541 5767 148 4870 6369 6621 188 2857 3758 2699 7289 2902 3320 3363 5194 2589 3243 4912 8169 3537 3285 8506 5899 7586 2414 1329 5141 2192 3842 2150 5752 3043 5448 1391 9709 4214 8495 9836 2768 7932 3079 8233 2538 8462 8332 6895 3706 2458 8418 850 3249 857 9219 1939 4974 9995 6445 1523 1562 1950 
486 3650 4514 4987 20 8239 3277 4429 7939 3721 3086 7702 7880 2958 1117 3261 3894 4958 9453 
487 9842 3579 8683 1905 4635 6069 7765 8197 8715 2162 1208 5714 8351 2933 5177 8029 3521 
488 4199 5880 8491 3936 7880 2327 9453 3543 3371 7240 1429 3144 7012 7845 9852 2121 4531 650 2175 3541 5997 6270 952 3043 867 7361 6153 1739 2875 8794 8343 8439 5801 4091 3113 518 9443 545 2673 8140 4341 7193 374 2480 5719 1375 7782 3603 4463 3054 1642 1611 135 8874 8352 3453 2892 2052 901 6945 5645 1079 6963 3588 776 2668 8986 3601 2881 1353 7787 6369 3827 9483 3023 
489 8134 3728 8043 7296 1752 2704 1343 9931 8396 876 9086 5072 9138 776 991 4962 3251 3106 7266 3432 4071 9114 9443 1942 4787 5163 7947 6756 7987 3867 2595 9737 5304 1700 7000 7029 2533 4843 9349 2858 9834 5219 1117 
490 6975 2160 2570 6224 5242 3457 7436 5565 3694 2438 6425 2280 8919 450 8293 
491 259 8293 7285 7864 6258 6170 3792 6712 2437 2870 7669 2704 3731 647 6390 3022 1871 2897 9731 7289 3981 7105 3864 3395 1256 6909 108 3079 7379 955 4236 5710 7064 2670 6545 3159 1560 9757 2184 2146 3186 2856 1572 232 6922 7163 3316 2464 8723 7833 9940 7167 2129 9398 774 9607 457 6388 2060 
492 451 5827 8086 2559 1577 301 5098 6418 9190 862 1236 2325 3120 7281 8005 4326 9139 1625 447 9160 
493 6613 427 9533 5340 8043 321 148 4901 9299 4679 5064 1496 205 7055 5322 4664 9931 6021 1524 2114 9301 3240 9107 3012 5899 4619 8794 3207 5656 6978 7206 7751 6161 4027 3630 8140 8145 3541 8848 2569 5784 9461 3528 761 5543 3703 6049 3801 7756 2192 7629 3827 3781 683 425 6115 3757 3991 6955 3504 1542 2732 6236 9281 4928 250 1750 7426 5997 647 468 2171 3537 5688 5979 2413 5981 1572 3935 8344 4234 6385 9040 4660 2932 4104 7987 53 1512 1339 
494 9761 2549 4354 7707 6186 7821 6727 1866 1879 6914 3018 4053 4127 4949 4629 9652 5437 
495 5783 9178 2349 937 3077 5401 2929 7085 2209 2085 108 6631 8687 652 6503 200 8713 9555 5895 5726 5639 3491 9576 6625 7733 4345 4828 7568 7050 7105 163 6206 5810 5702 663 8780 3795 8104 1728 2513 2917 2647 4752 8552 541 3255 8841 
496 7762 6534 4664 7968 4985 2790 7902 7992 650 2013 5448 7751 574 4965 1105 9852 1083 8920 6630 2923 9354 3032 8233 6545 3961 7456 1167 8058 6095 4619 4450 6331 5656 2426 1504 9758 9086 3842 3379 3659 5853 90 4021 1100 5959 5948 4068 8333 2670 7423 3561 8145 
497 4367 2489 5162 6512 3214 3656 2532 2080 8103 3096 1484 2112 8160 5818 8013 7834 3541 2424 1429 
498 183 3584 8711 2264 1117 6014 2768 9443 7874 5784 2426 876 2538 2983 1454 155 2518 1822 5645 3320 5767 9733 5212 8105 4763 7992 6977 1052 6836 9862 9788 2079 2192 6385 5285 5038 2932 2345 9281 866 1025 6982 1524 
499 6030 935 9615 4527 2175 1496 412 3103 8663 4884 6044 374 7929 6028 5887 250 8431 7333 2732 6486 7474 876 7569 4928 7087 1025 5383 9374 5775 5895 8495 1923 2771 5604 9965 3195 8217 4684 3051 3249 9755 4457 2533 4948 2685 5801 6022 8259 3727 7467 8599 8234 9803 455 7657 30 9731 7054 8698 5143 5860 1476 3141 
