100
0 1541 1558 2509 74 1884 110 1137 30 717 9 442 21 5 552 1847 7 2288 107 146 11 37 9836 289 4742 23 58 2 240 238 19 22 632 299 8168 162 615 3069 231 15 35 1242 56 1460 2977 16 4048 61 92 7245 144 28 288 5561 5591 6134 36 20 449 9299 5011 5631 8 
1 3198 1572 485 1089 404 869 5367 126 199 8734 549 8 2572 1597 1679 1388 253 120 65 252 940 9 1440 2902 684 28 1468 1632 7292 27 484 37 63 9030 7 5515 19 815 5 11 5247 22 280 4703 240 1030 164 596 15 14 1743 426 2 946 55 361 112 121 1019 119 763 161 17 110 21 694 83 2052 778 70 290 6 2140 327 245 8184 54 3243 4864 2158 9613 97 8629 35 1290 79 4443 135 
2 3244 155 69 1604 751 3774 1495 485 3706 126 2700 252 867 1434 8734 120 27 6668 8 356 1756 8528 303 2244 65 139 9 2741 107 2857 28 268 5659 63 3818 355 9301 2707 637 184 197 7 8761 1506 776 243 19 348 74 4820 72 1522 4848 927 14 524 102 8374 2703 1128 703 632 158 484 6515 342 332 62 8156 7218 161 961 37 6575 103 940 1562 1114 1195 4725 4834 193 4089 1122 21 110 7798 164 487 6188 3141 131 3407 1386 3824 389 1106 1494 1558 30 646 1611 737 6589 4524 8438 23 333 1571 15 371 5627 5 11 1251 70 178 82 3981 1472 114 44 442 909 
3 183 70 14 54 11 38 22 903 15 58 1841 92 1054 2191 97 7342 17 4361 6961 2265 23 4336 20 2 102 204 73 5 55 289 2593 235 212 21 1772 2696 96 172 30 3323 112 7 590 207 641 82 2992 13 125 2334 27 
4 2 3995 1073 387 9 17 18 132 11 58 5 15 37 7287 60 65 614 7 144 30 3654 3056 993 1863 70 2706 2143 3175 72 8518 1017 13 36 198 279 391 7313 6 38 1257 589 1465 4834 79 106 
5 3849 797 155 6698 1958 869 859 1184 1263 482 621 120 8 977 27 329 566 28 9 184 253 107 915 37 681 972 7 907 1332 4807 4314 1697 14 501 880 342 439 524 599 538 249 396 3306 97 3912 5893 4517 210 631 45 784 78 261 5218 178 17 139 325 2 35 1031 7250 2342 2232 1801 609 15 4152 238 432 228 16 2033 849 57 855 70 2853 561 513 385 2769 118 2491 611 280 69 
6 7 1528 2196 5 82 749 19 596 3537 1023 385 11 20 164 35 377 511 14 409 157 15 4724 634 197 5545 2612 7267 2360 97 41 1804 1340 716 21 3913 717 455 795 44 16 256 152 23 37 1012 70 119 2 88 118 1262 38 110 4801 22 663 178 9 8 
7 355 176 4023 4371 948 303 1315 5429 485 725 8 27 63 184 4848 2744 290 229 681 9 28 121 107 999 9225 7 524 331 2983 102 74 1452 236 371 211 1296 131 8660 3054 332 880 139 659 650 14 252 19 382 78 329 57 224 5069 15 62 1704 1959 58 1027 1985 21 30 393 82 1762 398 7791 1207 1590 11 38 5 119 3500 2205 44 140 356 35 37 762 41 73 110 112 45 611 933 20 166 56 249 2268 288 6031 256 4266 
8 6 7 5 22 62 218 1765 23 2 7732 7530 35 590 140 2689 7828 13 3862 17 83 16 15 8614 658 19 3082 92 5812 270 60 216 11 545 36 58 37 79 308 422 475 1590 180 275 8 28 
9 404 8 957 126 725 316 737 184 1812 2120 176 1790 148 290 468 199 554 27 28 915 4103 69 1679 3053 5725 686 138 948 1270 6729 155 2955 8034 2700 107 120 224 720 355 5200 63 166 1881 9652 236 1930 1771 2923 62 4390 5442 7 5621 9 1408 7518 1168 249 8835 37 330 158 873 121 114 2639 2744 731 7003 14 451 299 252 869 899 410 1661 442 2170 1287 6502 1122 1756 1313 671 1554 3121 58 2359 2238 1510 57 19 800 348 193 61 7594 1077 84 139 15 161 1395 703 7635 365 983 515 5 7211 6593 135 665 2985 206 309 65 21 30 375 599 680 2735 4881 7392 1124 253 595 5633 243 11 393 110 2973 650 197 2816 56 22 16 2616 
10 2848 138 355 859 126 3477 468 1737 5926 356 4978 303 679 69 909 3071 8 624 253 27 371 243 224 6379 139 9086 681 850 290 1524 148 236 372 28 63 120 1132 9 199 1667 309 1324 2872 193 849 9053 4430 4317 197 957 389 329 4985 131 65 72 583 4281 62 482 114 7 4090 37 4609 19 346 152 2950 3635 476 166 268 332 14 211 638 4226 2533 74 187 2088 7408 703 5463 78 3890 6543 1692 1601 2453 1155 1506 501 4372 524 6539 2692 158 135 1005 836 61 15 300 299 708 9335 707 829 513 161 157 123 823 429 598 1041 176 2922 21 800 110 8860 1275 82 615 88 5 390 198 784 
11 2003 6656 120 1122 3457 303 236 404 69 199 356 442 671 252 737 8 290 316 653 482 139 224 121 650 229 2614 3591 371 9 65 184 28 432 72 63 148 131 3239 3182 2261 7 2521 6082 19 301 37 709 542 74 14 2205 1807 659 249 102 7155 1001 15 1558 734 112 992 117 123 8168 7147 4801 84 6565 16 41 5 1626 21 3135 11 2 83 1262 54 599 3661 8388 5404 742 20 3204 1606 78 45 4942 61 388 97 6 62 3224 
12 138 2757 1502 1077 1310 554 120 155 121 1263 126 252 2371 7929 3483 69 1591 4500 4977 176 2177 2148 2153 27 8 290 253 1850 316 2116 3379 28 8707 9 782 166 1476 5313 2159 184 3818 303 624 63 72 2612 224 2902 867 3295 2291 62 65 737 7 19 869 637 3887 3517 484 1550 14 243 300 229 1327 58 117 1031 1587 206 382 612 348 3635 3533 4336 139 114 82 131 751 1524 78 2063 7977 135 4881 158 1005 482 1204 5595 3598 57 6178 1733 164 2196 3581 21 6001 9817 123 662 330 2709 659 5534 1613 333 928 762 3878 1229 398 2697 346 11 61 5 613 88 8015 735 6042 517 147 393 4167 7742 404 
13 5 20 2 16 275 2852 207 6 976 65 54 2709 70 8688 7162 95 952 267 23 44 11 7 218 1112 18 58 538 13 122 2582 4482 140 55 157 2491 2420 9205 9 2191 35 14 45 1126 1087 38 5834 73 21 1793 
14 404 1384 355 9559 708 69 4594 138 6979 948 3398 148 121 5721 8 253 1131 27 2433 410 65 9 1324 28 107 3046 3759 1524 1799 4188 166 6087 102 7 3410 8965 3839 495 243 14 19 2604 1095 5850 764 280 37 5845 114 72 3642 224 5038 2063 7226 3549 3162 15 135 325 1119 30 73 300 20 231 5312 178 749 5 710 161 1244 2859 550 35 1750 45 513 1351 274 434 152 4667 22 171 503 4478 9868 707 881 7460 717 735 1023 2 2857 
15 9365 968 3774 138 5482 2818 686 468 1597 1766 126 2003 3198 4288 6459 4148 69 329 6222 5101 8 2521 7151 120 193 6086 356 1679 166 915 27 63 5429 4810 9572 199 7585 389 107 9 145 28 2858 7832 979 224 243 19 164 280 7 1270 131 2627 408 316 3378 61 102 2960 8156 206 240 1137 1734 65 3302 157 1735 21 152 331 1114 78 301 8819 6837 2444 1756 104 14 6154 4 327 901 5720 22 5521 5477 183 2289 1312 6 62 343 748 0 720 3543 476 2729 977 
16 2 231 38 119 35 1754 4974 15 9 6 21 167 54 5 140 1136 807 170 17 36 87 90 1313 1038 432 3715 5914 270 2733 20 634 2166 7367 92 183 11 6565 2767 14 3689 115 2330 207 2356 112 342 356 
17 6049 3923 968 797 138 2614 252 4607 199 731 8 940 184 69 329 1524 751 1352 665 285 1554 28 6378 879 4343 65 176 9 7 2296 19 102 62 346 14 637 549 8015 74 78 510 5404 3977 1270 4063 1591 2145 356 15 4167 583 61 21 339 96 9470 454 2981 273 38 11 1019 110 5 63 1621 23 390 1483 178 9803 1298 44 5558 2288 20 5893 30 6783 245 5278 536 2205 216 310 534 4533 3025 1398 1420 4672 1307 57 836 
18 4102 138 1604 120 356 7984 121 8 184 8703 1052 3410 3158 28 609 253 1756 6787 9 252 229 355 1256 27 7557 720 152 176 879 193 211 585 1222 7 2651 8360 19 330 14 1799 5751 37 1350 53 21 519 2 325 6 61 1696 212 207 16 26 114 17 187 189 4 552 270 1352 4964 4558 83 699 13 1455 635 23 1224 148 158 20 54 6632 
19 245 55 1702 5 78 92 985 35 778 23 61 5108 14 15 70 1985 45 7 3203 56 1524 517 11 972 339 1873 8066 17 3878 2847 9421 30 8 44 97 1548 22 21 2785 20 1665 409 198 383 1128 3676 1114 1244 9 982 1529 480 231 659 321 1307 432 82 8429 88 1212 388 482 
20 120 1290 709 2591 5526 3497 4171 126 3198 176 2153 1184 3172 148 252 7347 686 797 184 655 8454 8 27 121 549 3441 3483 410 69 2659 2930 7048 1052 1476 63 9519 442 624 193 5973 155 107 4688 4225 751 9 1638 1005 595 28 859 280 6373 62 7081 935 1168 7 158 4067 1412 19 331 152 632 37 907 243 131 102 1783 6362 1771 301 332 2047 114 199 1522 7069 561 542 206 14 166 78 4408 5514 3286 249 784 1768 4662 5329 805 482 843 135 82 3533 299 15 1789 187 2298 1027 123 487 57 636 6767 3718 516 777 161 2150 778 647 74 1702 88 44 84 1611 198 585 9521 210 1001 8364 967 140 4919 962 9562 2180 
21 3199 5554 5985 199 797 2848 1482 5482 6379 176 1089 2264 7242 8 27 69 126 121 737 1756 252 2612 28 1513 1131 9 65 148 4413 120 940 1610 5011 625 2573 107 268 280 583 236 5616 6115 494 139 3880 3455 4609 3884 37 7 5442 152 1876 19 850 1554 74 72 1667 14 331 78 747 3398 1128 2316 3262 6848 342 2526 7382 1888 2169 878 58 4373 1807 1723 4021 1161 1321 15 249 4837 123 164 8243 103 9271 61 451 2106 4397 21 132 62 5269 1524 390 1988 5 5661 198 84 63 2025 1912 23 3196 395 44 11 346 1350 1222 3235 131 110 1174 1548 1304 4742 166 9128 1344 325 4247 2208 
22 583 7624 1310 1290 9517 859 138 2818 1173 977 2402 468 442 69 2045 155 148 236 3211 6035 193 197 3379 126 355 356 166 1930 316 8 404 63 650 184 253 6404 28 224 303 9 2503 5110 3424 389 7293 27 8955 2304 121 15 78 23 11 1665 2198 2432 72 659 2000 331 7 751 4872 429 731 164 37 536 240 2 2416 1270 55 310 22 5 107 4510 2082 61 921 19 444 7085 4137 2171 5804 256 1307 62 275 843 6 35 1933 597 17 7267 684 455 38 151 270 1122 709 
23 23 11 2205 58 2509 45 426 5 885 5902 422 1128 233 117 17 2 20 393 1134 6 56 16 3676 70 429 63 97 35 235 1640 2922 27 14 83 54 4465 343 123 6131 15 2650 55 1988 2285 183 1927 13 746 8 9 933 6557 1745 119 158 2653 355 
24 1173 6698 900 138 708 1572 977 2060 725 8450 126 120 554 3483 621 252 1334 2614 404 3046 6138 1412 940 6238 8 5333 494 236 482 27 69 2444 679 139 961 184 8139 3706 65 6347 9 193 28 303 1930 5350 585 285 655 1793 3563 7086 671 426 1429 1284 3455 3447 1184 72 37 1151 148 5643 1468 7373 290 7 681 2136 2168 382 299 145 9335 979 229 316 131 1195 873 2214 19 330 2187 114 1321 243 1114 14 62 1584 6335 8138 74 542 1152 78 102 8488 197 7387 1134 5395 1119 1385 58 948 726 121 1972 253 1174 82 1376 2692 2374 117 164 599 612 451 2348 204 21 103 15 1065 2956 1153 57 7908 135 3119 769 881 764 9947 646 5 914 1900 155 857 1011 30 140 1862 762 199 
25 389 7 14 9677 37 82 5 19 3747 1645 72 3251 5511 161 146 542 4724 587 9 27 2571 408 7636 88 15 21 8360 2770 3964 38 23 830 595 35 261 8 4100 1733 3479 103 41 2768 44 393 1478 115 1347 57 390 11 17 2 5791 83 3079 594 22 409 4060 16 383 240 155 2175 
26 1077 1951 485 5381 2889 948 138 797 554 5959 1656 3110 199 6577 126 4090 8 69 1388 27 120 9927 4807 63 1584 3158 28 303 253 197 1667 4497 1850 6369 9 1395 4813 309 4335 371 107 65 299 139 907 2905 280 585 249 915 9542 7 19 131 9351 979 72 8152 166 2809 1152 3540 187 62 824 665 1429 193 494 3194 342 501 1330 3532 372 561 2844 1862 2296 37 1420 4568 2419 737 1093 3025 513 152 114 7315 2067 1350 1027 4040 145 164 1436 14 841 161 1155 5205 587 4704 15 30 103 739 267 21 2104 1352 655 74 1332 110 9710 70 5 8465 637 335 333 44 289 329 725 11 23 
27 1954 2780 2889 176 138 482 69 8761 121 8 27 679 849 1395 1412 9 107 7753 28 1385 410 164 299 4962 815 2296 4403 4978 184 65 552 37 166 7 329 19 3692 3179 72 2171 119 1754 500 604 23 5 11 15 63 21 84 78 909 395 157 841 35 14 2430 212 20 389 112 984 3582 1183 8149 1476 1227 756 125 387 1008 62 3003 983 371 4581 55 118 44 265 7266 534 1516 510 631 4289 1452 197 
28 14 44 15 5626 735 5 1137 795 30 20 21 574 19 1344 830 2688 1778 8549 57 4425 37 619 96 3428 1904 274 3768 88 132 23 325 55 2 1933 3631 861 2862 489 11 123 398 74 300 2576 9557 2141 1008 35 6 273 8 321 103 2348 6785 38 9 110 1026 264 414 155 
29 715 110 15 4632 2300 35 545 4493 14 3082 204 5 8520 44 198 5034 4596 21 231 2 2147 523 3066 1813 19 5686 11 118 7 4221 140 9 17 146 289 5447 79 2986 178 2000 331 1568 147 2873 4885 30 245 70 82 63 45 647 65 161 1697 216 4724 587 8 155 
30 5 22 145 9 41 55 5484 3943 56 82 7 21 16 5667 2 14 20 275 8427 2296 28 4797 8 1596 84 13 256 6 175 73 264 110 6450 23 3149 137 27 142 461 38 149 1274 80 446 170 443 5350 54 258 44 62 5450 
31 138 583 621 126 468 482 199 252 69 797 2504 6572 8 549 27 356 8219 4397 1734 120 624 166 253 1052 7454 193 1065 1171 6141 4487 28 985 1506 9 4787 957 63 176 6385 8707 3008 915 1320 609 280 184 1093 2383 102 4818 1793 7218 9146 72 1989 131 7 443 2196 62 3676 211 1911 1151 451 14 19 249 1834 135 37 1780 776 867 1330 158 117 1756 114 224 3543 881 596 74 15 2649 2919 1914 7759 58 8241 7110 1352 5 22 11 7924 112 2 20 513 23 210 61 1137 612 55 207 2762 41 2360 2079 3661 273 3430 65 869 
32 1597 468 859 120 1334 3110 69 900 709 3849 968 3992 5921 554 138 176 4390 2486 4364 2402 869 148 1917 850 5051 121 1122 2841 155 2659 797 8 1315 684 655 1200 184 197 2076 404 63 1583 309 609 27 166 5448 3160 4281 6379 5091 653 549 9 316 236 1506 28 909 280 199 268 3053 720 2825 1799 426 193 1387 1065 2819 728 5838 624 301 37 152 72 7 135 107 662 126 1284 3398 552 114 2526 2700 1106 65 19 4157 1780 342 3470 355 1151 3489 6188 880 102 1412 727 3131 1604 332 8993 14 1783 62 253 632 782 995 57 625 7708 3458 432 451 164 1725 1031 4460 1627 1457 74 824 4040 1476 2185 4589 764 131 6915 7013 175 957 15 1750 161 999 6005 117 1132 1000 8492 1771 5483 2045 139 331 21 681 6045 1307 78 325 422 132 300 1723 1877 11 1287 
33 6656 482 9933 176 554 1387 69 1917 5150 2848 1954 1384 3097 708 138 126 3600 8751 1365 8 199 5860 2274 751 9896 356 3514 2291 120 4820 4881 4953 27 9572 5754 309 1583 63 4510 995 1951 609 979 28 243 65 3248 665 164 9 6539 1413 316 280 4172 2717 2116 3053 5011 3639 3142 102 7 145 158 659 229 443 1667 7437 14 8853 2425 19 2849 1783 990 107 37 501 57 131 5973 487 432 2521 301 299 114 4676 58 4040 2313 1224 252 224 395 574 62 5434 61 157 211 5255 82 193 9716 523 342 204 1807 1989 74 1019 96 332 3686 6050 15 2845 132 2547 6946 2020 2033 5 531 21 3624 1113 880 289 843 1604 2666 11 
34 252 2955 148 442 120 909 138 2153 9894 482 1077 121 621 6604 126 329 8 1583 1283 751 224 164 3441 9 4895 899 152 285 1587 290 139 1106 7 27 28 850 19 4104 720 5850 14 74 665 3768 325 57 990 58 1612 2593 78 4417 8355 15 175 1521 65 114 82 63 3240 574 3514 6756 4133 604 1627 3516 196 8076 1768 7279 37 4672 1344 5 1149 35 70 396 4728 146 30 387 206 3773 510 55 745 2249 429 5699 1665 166 6259 8430 679 370 38 1386 515 1534 88 6577 6656 
35 7 14 19 9 476 37 27 107 9713 552 4164 8 646 638 57 131 72 123 158 1959 114 907 15 5221 28 836 58 61 301 300 6059 331 7970 140 88 96 3190 7718 3839 6644 63 44 7537 3332 23 35 5158 310 2148 969 5 11 235 519 6137 8315 829 454 55 3126 3977 212 1186 82 8030 1506 157 1260 6962 388 277 38 2 118 4710 653 
36 15 61 30 681 44 35 7 2 335 9 5 14 284 45 417 1922 1225 2147 1806 54 563 983 396 727 978 9246 1351 16 4984 9500 74 73 187 3996 13 907 1151 2971 406 20 118 112 5091 733 78 8 11 614 1936 41 22 970 23 6 132 3600 
37 155 1482 176 3097 4347 1089 1737 968 2513 126 5862 69 919 2713 356 8 371 27 121 410 2073 2612 303 28 2444 6577 236 9 62 166 268 4864 776 7 19 395 2430 114 1256 8702 1343 1575 487 3412 57 14 2126 594 1506 157 8100 118 20 15 65 496 3222 17 1000 495 3698 5084 2 6630 198 6180 4703 238 151 289 1718 30 2292 6 11 508 5791 4 1100 21 417 1097 5 195 3243 78 60 123 9346 2248 
38 1041 16 5 1303 9 73 1124 2 18 949 22 83 13 23 30 1665 20 6 86 6037 98 57 332 459 2738 58 401 170 171 4009 44 125 475 915 65 257 21 119 142 96 3490 2173 24 60 61 15 8 
39 138 5921 968 1671 4768 5381 554 797 355 468 2383 7104 728 120 176 977 2889 731 3389 686 8 1171 69 166 3182 27 148 1930 1395 979 184 879 5895 2503 9 5546 896 7048 878 139 632 9611 389 595 65 356 301 152 280 7 583 5634 1520 2138 747 4302 5480 19 193 37 107 62 102 14 28 5 1667 9382 3038 2688 70 74 1154 78 6959 38 1369 135 1307 4115 2639 2523 566 15 41 114 21 88 11 211 439 5391 1292 22 73 2170 79 3938 1871 2088 2 23 2206 35 151 1153 30 17 8334 299 110 56 820 2825 
40 956 11 6 7 30 289 48 4712 5679 22 86 189 154 57 1084 70 4168 42 5271 501 16 742 589 9 152 294 2619 80 129 18 4005 45 51 2277 53 1047 55 72 252 
41 1173 2076 554 900 1679 4142 121 4364 549 8 199 145 382 117 7 268 9 102 27 135 2759 3884 28 484 4099 7147 37 21 545 197 9311 2820 2140 229 63 8272 19 206 158 14 164 224 7878 619 4308 1408 737 131 365 72 2136 2 2258 60 2147 44 221 2079 24 5 6 26 1809 2726 52 97 11 627 784 4 20 87 114 1202 74 450 687 80 9039 371 5862 120 3248 
42 138 708 968 9517 197 2076 155 69 1263 1656 1643 236 8 27 121 63 253 224 6092 126 815 9 432 1495 1132 2385 484 285 164 37 2659 2976 1369 252 7 7408 309 19 612 1324 7672 102 148 131 720 482 14 1184 4568 1352 7360 1771 935 329 408 928 57 198 1491 15 72 62 625 103 7918 193 78 4288 21 1387 74 146 2816 44 30 8654 1494 184 1017 7854 5 444 147 4537 123 38 1522 5264 884 88 1001 107 112 383 2862 119 11 631 1019 356 487 3585 9338 97 20 2950 23 422 2325 914 
43 5 971 28 990 496 2869 813 9 13 6047 264 11 7295 2 713 15 19 30 9794 23 14 158 443 144 54 16 257 240 2171 83 70 35 705 1758 2262 62 1277 1483 1988 17 210 231 88 929 103 398 24 4923 219 78 8 
44 62 2187 14 501 131 519 21 7 112 7774 9 8 0 963 15 37 1110 30 689 3 57 577 3258 2 1884 594 24 2925 117 25 5788 63 301 5 1107 171 895 291 9485 1708 4 436 18 
45 6698 2818 1482 138 1310 7055 1502 859 126 120 1954 155 69 252 7548 2120 583 3470 1122 867 6459 554 176 5661 2513 121 184 8 6082 624 27 303 1714 2177 199 193 1981 229 243 1643 1597 5990 7895 671 3158 665 7850 1395 8992 914 9 253 355 285 2216 9832 5895 145 236 2112 309 4266 63 139 2487 72 720 329 650 28 2162 7 224 330 135 107 114 316 382 2523 907 19 961 737 211 4421 482 280 7584 1387 2088 7307 1881 14 1601 4130 164 442 1809 1152 299 1799 426 4226 5616 131 595 6502 102 468 268 37 6744 4309 58 4919 901 1320 9946 5270 140 2164 3863 8955 5667 850 15 636 273 57 2190 6001 2425 1702 249 61 161 3698 365 1429 21 1506 487 496 30 62 4277 971 424 74 310 5 1000 158 44 1065 389 
46 1502 138 873 485 5974 410 155 8 27 148 3264 915 5209 665 166 1183 9 28 549 1524 896 107 968 4814 280 152 7 637 5402 4686 1972 764 5374 9731 1704 1587 4704 8929 72 19 14 145 482 249 330 2208 7037 58 309 1546 1673 1674 15 83 5 16 11 4167 35 4127 2 8966 3820 777 361 164 257 1294 6 243 1480 1805 204 30 23 7281 22 13 24 1303 3640 38 41 411 2291 
47 236 3106 5990 583 3514 2264 138 1495 3483 199 69 1200 468 9054 5182 6930 2208 193 8 120 253 27 4291 995 184 2685 1171 316 1434 4063 309 28 1799 139 303 9 65 3142 224 1506 3621 3448 5910 229 484 1437 37 3139 1521 268 485 107 102 158 72 7 114 9768 8933 131 14 9732 1119 992 301 57 800 1134 625 19 62 517 1762 78 880 7354 1184 1689 148 15 1048 1001 280 1667 140 330 1307 2391 545 9081 6534 393 96 536 6684 21 1612 4429 871 88 3319 746 84 339 981 614 58 1896 5 5497 346 23 599 112 443 2403 1587 764 8489 480 147 5874 146 
48 3684 176 138 1384 583 404 224 4247 8 8454 6057 609 1572 2198 309 120 426 2955 5209 4799 1256 69 1554 184 252 9 28 3166 382 919 3826 37 148 1510 3158 27 782 665 7 5124 65 751 72 494 57 1809 596 2825 3708 20 1339 356 21 22 5 2063 2 126 4804 102 4770 38 74 443 14 1096 249 271 4497 4061 803 500 23 56 164 11 409 199 60 54 1577 2696 45 669 1985 3193 1180 389 6 79 899 1562 88 13 2443 636 155 
49 138 8450 2371 4613 3923 69 120 1604 8 899 1917 27 121 316 1122 4551 229 28 63 5895 184 9957 1065 7709 20 686 2869 11 1440 4152 148 5 566 171 96 519 7 158 784 41 2 88 83 56 211 1352 253 370 135 9 6 146 277 90 15 3500 422 164 1799 702 390 16 107 7371 14 72 30 2367 6692 19 35 1826 196 738 265 216 137 3499 114 348 914 1452 
50 21 5268 871 343 44 103 5 3796 117 30 228 78 9 8123 585 513 132 211 4819 198 63 3065 70 56 255 1806 7 14 19 970 58 1753 73 11 439 15 1236 183 501 6 22 1101 6169 404 65 2288 90 2 534 210 123 16 3246 1871 162 55 742 13 1933 919 
51 725 9365 2818 5501 977 3046 197 2826 121 27 8 5659 2148 63 3923 5603 28 9 1387 6877 5031 371 1225 665 7 1989 1826 78 1745 102 14 1159 1692 2420 268 72 329 187 2613 198 2500 1224 1491 74 3708 3824 4606 7694 19 426 3826 4946 117 611 1343 58 4433 155 510 9234 3586 15 21 749 61 30 4532 1602 2425 966 146 288 910 1417 5 23 196 519 70 1339 11 4705 45 383 1012 5534 55 299 1921 22 82 1001 8783 44 468 138 
52 22 23 1445 2948 30 6161 117 6 55 897 2852 3819 7768 13 72 187 41 5 2 15 9081 97 409 2044 1666 2886 115 20 96 18 825 28 79 593 1862 2152 255 2983 1361 2072 5681 951 384 16 60 782 63 
53 69 927 184 243 8 873 909 869 968 1384 138 176 1434 1495 121 1171 404 3102 494 1077 252 468 900 1591 120 566 1876 6051 356 27 1270 9551 236 7712 9 2282 107 152 583 2433 166 524 4478 679 72 65 8660 2976 6126 199 5150 7 6035 4525 348 7291 395 1294 2538 28 3215 371 14 19 662 1408 131 510 653 914 9542 309 158 5773 114 1510 6082 899 145 2430 625 62 6092 1894 1546 1300 6467 78 126 2114 58 2592 879 139 135 84 103 1958 7433 9294 2261 3358 609 1571 37 146 1428 23 800 5882 70 6029 332 1478 110 187 516 7862 1227 5 978 21 30 20 45 63 1183 216 1218 44 4977 155 
54 7 19 23 20 15 9749 35 110 119 38 14 388 22 5 84 2 9701 1607 436 659 451 90 62 21 372 5982 1967 4 18 902 11 8491 88 3141 6 2658 391 4722 1159 56 44 57 335 17 496 2348 1528 26 7773 41 8911 1325 1256 9 199 
55 155 6887 725 8 199 650 1434 193 485 1263 126 1270 3774 1502 900 121 2112 867 1495 3244 1737 9 27 2651 8094 957 28 65 1151 4148 176 662 1184 443 72 747 37 19 7 330 5664 63 14 3008 731 468 57 187 1691 880 348 637 404 117 1587 1089 7293 15 1223 1137 166 102 554 211 2692 204 1194 21 5055 342 9037 110 377 4917 7707 2145 145 44 5 6824 2859 370 11 8345 84 5603 183 403 146 410 55 4650 3067 252 88 38 1733 20 3235 5555 2249 8147 80 56 1244 572 115 4350 542 6809 138 9765 3477 
56 1502 5276 2264 485 8402 3756 1184 1591 121 8 236 148 27 624 69 2371 731 9 2282 145 632 8702 62 7 2431 19 37 28 3057 135 1476 72 2943 1697 14 1194 595 7499 58 1840 805 2810 443 789 325 1613 112 3006 184 9915 825 4452 1600 388 117 3014 88 574 5566 878 3796 5 44 84 15 196 9837 11 23 2148 235 390 716 103 35 1629 21 5472 785 2451 375 55 2858 459 56 157 289 520 370 132 74 680 728 
57 1572 176 372 69 126 2780 410 3975 797 197 3831 8 6986 6452 199 566 243 708 1334 63 2120 583 2371 356 2112 1468 671 166 121 145 107 9 404 3299 148 28 152 27 6979 309 102 7 3613 253 907 19 940 4301 74 37 2359 14 268 778 187 3266 1294 1757 117 3807 659 6169 4436 316 65 7559 139 2683 2744 224 572 346 4035 2085 2100 15 6616 7827 720 7042 884 135 599 4618 5876 249 204 88 7672 1877 486 231 21 2134 389 3392 1408 1017 62 30 480 38 2864 5 7337 5605 7546 1298 4859 44 72 9010 650 5801 216 496 140 9548 8672 82 4276 977 184 
58 2 70 9759 80 20 6 9 38 997 5 1971 1608 61 119 22 2907 212 631 840 1808 289 62 983 221 18 13 377 156 6652 365 37 2640 17 36 6482 3911 1927 2556 909 257 167 5541 107 27 7 268 15 120 
59 70 2231 1805 6134 9 231 7 5 125 545 1480 11 8146 702 216 2980 57 305 23 123 55 22 41 61 35 204 2 80 16 6246 536 1566 38 8969 871 1966 1277 83 189 4646 2104 327 535 1187 6 2948 117 434 902 684 
60 321 23 716 110 238 7337 235 41 5 6702 119 660 38 22 2300 21 429 83 84 8 16 2 58 80 6 4372 13 168 310 3616 11 54 2160 18 156 14 1260 386 1640 401 1361 3981 73 158 1274 15 5390 
61 7 38 9 277 15 11 96 84 2739 41 3624 5 2 536 16 339 335 9722 2908 115 235 78 21 342 5853 6 271 70 92 189 35 1209 777 444 17 22 112 146 476 8591 952 7064 218 228 37 3243 13 55 1177 389 5951 8 
62 120 1173 404 2076 69 1310 583 9502 7624 155 138 197 126 1610 176 148 919 8 27 303 1826 164 650 6668 356 139 1183 8734 65 236 9 199 5295 28 2196 1106 1070 389 72 107 625 1122 2616 135 4982 37 1881 7 6379 2106 102 301 158 332 2785 348 4089 3363 19 5626 5634 2521 2292 552 1283 3428 1132 5395 679 58 117 14 1221 2116 443 662 3870 78 3927 4413 15 112 3270 157 3443 82 2298 7966 495 4532 1674 62 7454 8480 2091 2698 1651 2563 146 3970 5887 907 5 739 513 187 5210 44 21 309 382 8739 500 1376 2627 56 3052 152 9459 240 5876 747 61 330 20 70 110 2858 2841 
63 138 1495 7892 583 968 709 1554 2371 155 900 8402 184 1283 4813 148 8 468 2291 120 977 27 3248 4281 63 1052 8897 1524 285 1183 4497 3412 1395 356 8200 28 9 164 4364 3991 3398 907 8309 329 6730 316 2359 135 280 107 65 432 1385 131 2158 7218 1638 69 1894 1745 2683 7 5448 2849 37 14 57 3054 487 638 19 139 1256 145 7809 1571 3642 3205 372 6481 1303 330 3759 395 72 824 859 849 102 1223 78 4636 1236 815 7461 74 3008 117 1714 4880 243 5779 15 3222 727 1019 843 8355 715 58 21 5579 2579 84 82 8947 3423 8543 9990 206 198 7121 176 3025 5 1104 1967 660 1779 4605 9616 439 1174 424 147 3100 2112 2148 
64 1283 126 120 621 9305 5091 356 1737 69 671 8 166 229 6769 63 193 1236 27 28 9584 2705 9 1384 299 7837 4291 3211 1745 494 152 1930 107 72 7 3032 102 342 2126 19 829 451 348 2145 5055 2967 58 5253 841 114 74 145 57 157 1541 662 158 1989 290 140 211 1232 62 2649 2433 15 277 7908 1606 310 3022 30 1562 21 1227 103 1547 5355 2958 5 2697 56 375 1274 238 5708 1258 11 1296 784 204 5451 45 1292 265 8713 146 14 587 3862 6672 1134 355 
65 37 28 9017 5 45 183 6913 110 14 824 30 3689 7 20 55 119 8901 342 1843 97 1692 1161 542 57 228 552 5390 206 335 54 117 2 1903 941 454 235 23 21 11 22 3195 370 1623 212 118 9464 587 2052 86 5872 4791 15 1168 6 9485 319 27 
66 236 27 5973 138 252 155 7674 3477 485 8 468 549 3767 356 1564 166 404 63 1437 684 229 681 9 65 662 815 632 211 1369 7325 1093 28 524 158 8955 301 8012 4696 382 4347 19 7 14 78 342 2785 1376 4744 1365 57 4103 2139 300 1610 4403 114 37 1550 1272 224 2809 5643 5845 1673 117 135 103 4148 734 58 15 62 1171 375 4872 61 3768 1395 812 30 7868 204 2610 84 316 161 147 5 5998 21 795 70 74 4673 23 4814 112 35 7007 646 97 267 3011 500 11 198 6934 82 
67 708 155 404 2713 1263 4023 138 4977 9886 1290 3389 468 120 3975 1679 3767 1495 482 2148 126 2291 69 2700 1225 27 8 7537 184 229 139 63 681 2478 1881 1387 199 1270 28 899 3467 5860 2707 671 1052 309 9 1434 121 1809 815 65 193 152 8080 4178 7594 131 2823 7 4510 650 62 1734 3266 19 372 285 7687 637 37 14 552 5313 299 1204 2196 135 2976 487 72 224 1506 78 8215 375 249 432 57 331 574 907 7915 4554 4885 157 5751 1287 15 1365 890 4551 3420 511 4817 187 8541 7033 2132 6147 38 1521 1218 2585 30 513 436 21 92 20 1878 102 35 545 5413 1413 2608 3517 58 2348 300 524 3289 3293 880 8114 3311 211 709 3348 9824 
68 1888 155 554 4347 69 725 197 236 199 356 6163 3591 27 426 1734 8466 5350 28 8 372 9 653 243 5286 404 896 229 1395 5582 63 899 3160 5848 62 299 7 184 102 9710 19 249 1593 65 37 612 78 342 331 3884 6745 135 2258 301 14 114 501 57 2533 517 2169 604 720 161 2298 2973 330 206 776 880 1673 1549 8733 15 152 2378 273 1078 21 58 715 5872 112 1000 332 647 1351 123 103 1113 1669 44 117 513 8911 4959 23 22 1638 1428 3603 110 1251 70 11 2837 545 1258 1412 
69 1125 4 6 5 2662 142 661 70 2 512 88 84 12 587 111 3499 172 1569 264 263 41 5494 5253 0 48 19 66 3059 38 577 106 439 57 809 484 
70 325 524 65 5 7 56 809 289 69 4241 54 9 118 2 496 73 8635 21 16 44 11 778 41 5580 13 125 5385 52 4609 137 17 162 3661 38 9013 45 1019 151 446 8864 240 3246 206 14 55 2634 5601 7357 23 145 20 96 27 
71 355 1671 919 4148 859 3684 2513 2591 138 1495 968 404 1384 4656 252 197 120 442 184 2291 121 8 148 6018 329 69 5295 27 290 164 1766 3424 243 7086 2700 309 9 229 655 728 236 139 28 1506 727 268 2304 443 63 37 709 2212 114 8334 330 9957 7 549 19 131 102 8019 426 1151 158 1721 1090 331 609 2684 199 2168 4131 962 2492 480 249 663 72 6005 7600 62 4881 2240 57 1155 1599 1522 484 15 612 103 1272 2238 112 2972 1697 624 439 1221 74 1629 8992 267 6668 84 451 61 301 30 14 2020 739 5850 561 825 2654 881 4044 5 1401 901 7315 8438 228 647 4370 210 21 196 
72 1296 1721 19 74 299 9 342 14 8309 187 161 15 325 3395 1704 37 3038 117 61 103 8 21 82 7986 65 1967 3032 84 2859 6655 5205 7 5 30 2218 301 11 890 114 803 1420 23 5038 2094 1128 35 9206 486 70 132 9359 52 171 2 1450 4 1096 785 1215 20 16 377 6 235 38 57 679 
73 515 15 1307 3357 58 57 41 1442 6518 131 952 6359 6327 9 28 6361 92 596 132 11 110 44 8 3826 54 1733 574 4320 16 82 5 7 424 1232 38 137 2240 2 594 1274 5132 300 17 1971 267 6 3137 1311 4976 973 9478 497 211 23 6735 149 4726 30 63 2249 3883 37 120 
74 199 120 968 621 5526 914 155 1583 468 126 148 121 2112 9543 184 8 1610 948 63 27 253 1917 2274 2385 6097 372 9 145 625 28 8938 4514 612 992 410 1332 252 37 659 3759 62 3502 19 107 7 102 65 1447 14 4597 841 224 1401 517 2048 187 58 131 316 2967 1428 117 2735 962 7774 61 707 164 15 542 8365 9993 715 4801 78 21 211 114 653 957 196 1979 268 72 4429 825 3369 2563 8241 82 494 4938 1599 1754 2538 44 288 5 1210 8875 2427 9360 331 9246 198 727 22 805 35 377 728 
75 977 6165 873 1482 155 1671 69 2177 6290 679 4342 8 410 63 224 27 3520 28 2238 6767 9 751 782 3204 107 2448 2616 62 1522 1005 542 166 7 1593 121 37 1119 145 57 72 501 3853 14 19 58 4834 9665 388 2919 426 8271 1446 15 6543 1629 211 2610 3561 82 7042 824 9464 971 253 198 1548 277 21 762 5 2136 1925 1883 3369 332 240 1628 132 11 3095 139 616 2085 1732 516 1961 396 884 23 735 1768 1966 119 4388 157 436 5878 245 2981 316 
76 2060 867 900 869 155 3992 8095 6402 121 8 549 27 184 3279 236 4364 1836 372 776 3182 82 9 1401 480 78 348 253 15 2614 57 140 8834 148 5615 65 2717 58 663 2316 992 28 197 1472 61 429 63 193 19 6288 30 131 2824 1638 110 14 288 519 7 126 2168 84 107 966 11 23 212 196 38 6786 1126 1144 391 6462 421 1861 3126 389 4917 166 145 102 233 1344 5 22 97 459 41 17 332 387 37 4741 8988 
77 3293 11 19 1300 5 4098 44 1577 22 20 2 16 651 8332 7792 403 84 21 271 2657 7 343 235 1393 6 97 3981 4430 117 249 305 168 95 9360 140 83 18 118 499 30 5817 17 15 1087 631 1442 14 1883 27 
78 138 252 1951 126 3700 1452 8 184 355 549 27 2198 482 28 7658 1597 107 4994 2579 1413 63 152 9 1506 139 65 3600 145 1152 7 2282 7918 7325 19 524 316 158 37 1981 3839 131 14 4864 8116 325 4336 611 4350 375 3284 2169 443 114 2142 5336 58 8802 135 1959 74 1967 909 197 15 6644 915 249 78 57 572 429 5 6684 187 9888 424 44 21 2175 3706 11 23 35 1805 3525 750 82 1417 30 1186 55 2768 343 6376 110 70 38 4849 1686 20 1012 1088 
79 140 1008 13 2 11 44 669 227 156 545 23 7 135 17 159 2182 87 277 103 35 330 6 257 60 73 16 275 6450 1823 351 443 88 5241 847 142 58 55 2652 4 3257 5 897 850 
80 371 1153 139 8 187 121 107 2060 968 69 19 686 6337 14 1132 329 389 126 7 28 805 426 1159 27 9 7013 65 63 4317 120 2741 703 1757 2985 342 928 1799 158 442 869 303 5546 7389 1171 3106 451 299 348 1090 285 15 4329 138 1540 3540 184 1423 1549 112 878 102 206 2857 395 1350 653 404 197 9183 4859 1360 123 6486 252 778 2163 585 388 178 5 2427 21 23 103 11 38 41 44 2099 256 6568 3923 176 131 17 2 403 1914 319 1541 235 6068 88 561 6126 
81 120 138 554 155 7234 148 8 27 69 329 8094 316 8992 28 65 737 9 1564 152 372 662 268 3441 131 9039 37 7081 7 211 19 62 3199 102 8243 1183 193 1575 2138 5516 1387 57 2820 2088 2668 1707 14 6951 638 596 58 72 15 63 103 206 61 715 7173 267 487 1112 929 513 82 2240 44 5 196 594 140 240 1339 2185 38 277 119 626 56 21 455 631 11 1017 7384 2852 147 2017 126 1198 1528 20 7170 145 3338 497 542 
82 1671 155 6656 3097 120 138 355 3457 252 126 7677 8 725 121 494 1734 63 229 253 139 27 999 907 65 9 426 28 484 3142 37 2717 166 7 432 1937 14 199 69 7253 74 2047 62 3471 19 662 61 131 1606 3332 58 7975 3493 82 8643 309 5472 161 15 339 4018 21 496 24 6 2887 578 1983 4 2 80 110 369 45 5 53 13 334 7710 684 78 30 102 890 3631 107 
83 1482 859 126 3244 155 485 900 968 2780 199 184 2433 372 8 121 4022 69 371 4178 120 4273 28 9 148 329 2229 1524 63 1065 4188 382 301 632 7 1376 1225 19 5442 2825 14 2292 751 6607 1483 158 1004 15 7275 2791 3443 2431 82 21 8839 147 3033 3769 519 5 114 5724 231 782 38 742 30 339 663 61 1862 58 35 503 20 37 321 659 103 44 102 2654 1442 135 1497 3692 4858 1168 9678 762 11 9649 476 444 55 84 1628 725 
84 138 176 6049 621 5276 468 9047 4266 2701 5725 914 8 940 482 27 4432 9 28 1826 1131 5031 2871 4210 3008 915 145 1707 7 6536 123 38 15 20 55 1327 1872 79 21 11 2 5859 373 5 9211 282 22 86 229 1447 7959 3260 824 72 5585 7859 57 5063 442 6523 382 58 1911 390 14 102 6 37 410 595 1218 56 1968 110 2918 2378 92 3424 115 1167 454 5268 
85 65 9 7 6718 1312 114 19 166 8 229 187 4421 164 14 78 7401 552 158 5349 524 2562 28 330 6234 1388 123 4962 6304 1106 253 432 15 58 510 1412 715 62 5605 636 3024 82 27 88 442 103 1757 21 332 7876 30 5 240 20 782 55 37 1727 5641 299 687 5304 3569 342 249 1137 231 2604 238 38 983 2 149 235 7345 1344 516 1398 626 694 6475 2652 1187 148 3398 
86 485 8 199 27 968 7584 28 1734 164 5350 9514 152 782 2019 72 6087 1896 372 8978 5773 7 121 62 9 1757 19 4618 3137 131 14 206 348 538 726 1601 37 596 145 636 625 57 102 3526 4537 267 15 424 21 157 112 96 545 161 30 500 268 841 240 277 5 4962 44 2377 8790 58 23 484 4281 238 11 110 532 178 4122 3024 436 9657 2941 35 943 74 4048 594 1020 126 146 187 1340 1847 2533 
87 5 1048 82 2757 28 44 7 2978 123 503 1809 11 1862 663 23 15 61 5136 1611 3598 1197 0 1078 9 949 8322 339 1702 2782 196 25 47 2334 3249 6 247 388 29 367 2 3 57 4 207 
88 120 4841 1263 7117 1583 1958 869 1591 355 155 69 4500 8 914 27 5546 7727 5668 356 9593 9 63 290 957 5778 2316 329 316 211 1571 1468 7777 37 164 19 7 6831 166 928 879 659 193 510 595 1627 14 135 9957 117 57 131 121 1395 907 3879 829 15 2552 1027 267 21 74 1736 161 715 403 5 23 7234 78 126 2073 375 70 803 480 7734 92 6137 871 3586 7481 300 277 147 5041 72 388 35 4219 4070 41 1017 2372 1098 777 145 1223 611 273 538 549 616 5905 140 152 
89 5 11 61 5175 3983 15 1121 206 2 1861 79 210 245 733 7 21 997 16 1431 119 233 1172 459 35 125 30 531 240 6 183 2480 476 139 218 604 836 2114 8244 267 410 2552 96 13 455 694 2886 60 114 98 9 4971 2503 850 
90 4171 155 3457 554 1384 2899 9054 120 8 655 229 28 410 139 679 27 309 4829 9 720 1452 107 4329 158 896 7 102 330 3977 6160 1110 3299 331 145 1189 19 14 2212 2169 290 72 2322 1704 198 424 65 1223 15 510 37 751 157 8381 1808 5 57 409 21 342 7707 56 35 274 1137 9358 11 30 8461 382 23 1027 1869 4479 4672 4801 3022 255 38 6486 7492 1349 123 929 20 3135 147 526 1678 110 1124 1169 1447 
91 3244 948 120 184 176 5659 4171 869 138 126 8 193 253 199 27 426 139 1437 9 2371 145 28 164 2685 389 2741 1287 2871 1016 1691 2492 135 7 72 2282 585 9127 14 1119 843 330 114 19 655 65 881 78 4962 61 63 161 82 880 3066 280 131 663 962 501 1070 224 58 410 5664 4609 57 2905 4081 30 74 44 112 15 1457 841 455 96 5 9167 35 23 1221 152 38 211 8307 55 310 207 20 196 4575 2452 22 598 1300 17 16 2 
92 176 9138 1958 583 1334 3097 120 121 356 549 69 1714 8 252 199 27 1434 253 1065 585 2067 9 28 3676 442 7776 65 8801 7 37 268 145 72 1106 14 3299 355 907 659 57 7373 62 6166 2572 1862 346 7977 19 74 715 290 15 8948 815 2385 21 30 1549 971 147 679 5329 5 4221 316 161 2360 735 20 299 408 73 2371 206 38 9906 58 255 41 1456 881 97 112 1073 125 132 1275 90 45 2 178 2840 11 92 2282 731 
93 112 7414 70 2 16 55 15 5 398 189 11 30 660 370 86 84 454 162 119 9040 2285 526 96 6249 38 35 158 597 256 147 13 3596 44 238 409 632 469 17 4501 510 3282 6 7 2739 1097 23 37 9 
94 19 11 2 63 619 5 574 7 2631 20 73 41 16 119 196 1526 382 245 207 45 164 8087 218 13 189 6 670 332 140 1463 37 56 710 5558 2886 807 860 23 54 1134 6776 18 938 273 1861 1878 22 103 3398 
95 32 4 25 0 7143 446 45 150 294 19 245 3 453 77 26 2 1565 1198 385 49 5 7 75 16 15 14 7461 2734 66 31 9 86 125 
96 267 6514 1096 131 300 23 1950 271 3999 14 383 41 15 5 2 44 58 2275 16 72 1621 245 1465 7 2442 476 102 20 30 825 45 2132 27 55 70 4025 56 1011 79 37 503 17 35 162 5175 6180 21 38 408 1469 62 726 84 123 3397 694 784 7842 
97 5276 4142 5381 4301 138 6102 9691 120 126 69 1434 8 9630 4266 1200 6379 27 285 2653 3441 28 426 9 624 148 1881 1868 197 249 815 7 329 14 1095 102 131 2492 65 78 158 72 62 61 3397 63 5712 6062 19 707 6361 585 3231 15 1807 341 822 2 140 114 45 1258 385 1112 30 1478 225 20 5 42 735 13 26 374 18 96 4 230 187 21 266 54 74 303 176 
98 3097 120 2148 236 410 69 8 5394 27 797 915 2039 927 2478 7347 229 139 63 9 7753 121 6201 1736 5350 7173 72 285 62 7 249 114 224 19 28 14 329 1161 5084 65 4157 58 231 198 8342 3205 147 157 1325 15 339 5 1628 96 4040 22 451 175 303 1298 267 1530 21 61 204 119 6628 7167 211 524 82 1222 55 146 11 7607 651 74 117 2 375 88 327 1091 2033 56 271 2008 1135 4507 
99 355 120 708 485 5851 6402 1954 3849 1334 155 138 3110 4869 303 27 1070 8 4226 410 371 224 309 3182 389 28 199 63 7234 69 2478 65 253 686 9 7959 301 37 1153 549 7 2293 5313 19 5936 1132 135 7869 62 139 145 14 1756 193 1476 72 78 1401 789 880 2577 901 595 61 211 4589 117 4089 175 74 339 3319 299 15 2721 1651 166 4258 316 30 1591 1017 5 5069 21 742 637 38 1023 587 1853 5555 207 56 146 3057 747 5299 1379 23 212 2029 2601 6539 20 6228 4844 8270 1541 16 703 4947 107 9447 
