100
0 1 16 4227 1847 0 5820 7301 11 25 2428 568 4460 4738 6 231 5 2482 3 2340 4 159 893 61 5469 543 10 882 97 2594 7013 2841 
1 281 2 23 3 0 1473 177 25 2498 1265 5 2108 339 91 2978 9204 1137 2334 35 949 9 101 2288 3580 1 774 663 24 66 3053 8 1572 1290 
2 1075 9 292 805 44 3 635 24 1 388 0 757 6 6348 2051 2 6854 12 108 391 91 1184 32 2220 2431 8 14 50 105 7 1591 632 268 197 1502 
3 1 0 903 8 304 2 30 399 26 18 13 6284 6 356 50 562 77 27 7 222 2191 170 4032 4361 9 581 585 253 6329 98 19 3 172 659 
4 0 15 129 71 3654 580 183 9 319 62 5 779 235 2348 6 8428 2 7122 3 57 111 1377 31 1635 1 7687 11 24 1956 7 21 637 8 
5 10 1 1051 0 2202 6797 210 763 36 66 8015 318 285 18 622 6 247 7 1030 29 60 2 83 21 1710 9306 678 4278 13 199 3389 
6 24 1 0 41 2 2840 6 15 161 38 768 549 86 21 8444 71 5165 4 20 25 976 23 304 1370 17 1314 10 945 57 28 1054 8 145 7 859 
7 63 332 8486 1 44 3 4 302 2096 6031 12 481 1579 0 21 7367 6 1959 2751 2 9 6662 1097 9225 90 56 176 24 246 659 36 450 485 9517 
8 24 1 8 29 212 0 37 20 21 984 105 10 12 53 16 118 574 513 4152 9262 2014 283 6 9085 42 767 77 487 87 265 9 815 126 3198 1089 155 
9 0 3 88 9 1 7 2973 293 101 1756 938 99 95 19 951 123 676 122 6 187 2 219 232 2652 656 174 5641 52 20 9442 6234 297 55 15 6729 138 
10 8 2 19 56 0 3430 3252 5 103 4 93 129 1361 38 37 119 200 5170 15 28 131 3 652 12 94 1 1079 41 44 4386 7 715 65 662 152 27 138 2848 6049 
11 415 2 8629 17 6423 93 18 446 55 0 76 1 1509 2195 3 124 43 1889 162 30 6094 23 136 2904 171 3016 5 121 
12 46 0 4 29 283 190 4452 1 213 2 2451 825 32 11 889 7815 4732 465 1697 3577 370 35 6 3 8114 24 121 5 9742 8702 5276 355 155 1502 1310 
13 12 4319 46 7 1 0 47 3 101 58 45 39 276 2 4 11 26 3648 95 9 122 77 1402 1677 5 1271 152 158 28 
14 0 181 4362 1015 13 151 50 1 349 2 9 490 130 20 3500 3950 11 880 1296 49 191 456 28 18 25 131 1576 3 289 8 1077 
15 5447 0 2 8692 15 17 721 196 1 18 29 4757 67 11 9 3 1389 1867 330 109 4 131 231 309 541 5 20 182 296 442 143 358 155 
16 1 0 24 195 46 115 3 45 4 916 2 506 185 1985 102 6 73 7 1035 5 214 38 3715 5791 11 129 1866 48 2983 100 211 331 1583 
17 0 44 23 4 8 3 24 273 6 42 64 1185 34 195 1 21 238 20 5 665 533 67 510 435 1058 454 178 74 264 5278 346 602 19 60 3923 731 28 4607 
18 0 1 169 2404 3983 3272 4 7 5 66 608 18 3 26 202 413 33 37 51 2990 50 267 17 452 77 878 245 5381 
19 32 509 91 11 3119 0 15 13 3563 347 961 2 14 1 5167 1414 4120 179 3 9 10 1216 67 60 1119 88 18 19 194 4 245 5990 28 236 4063 583 6698 708 
20 26 148 1 1290 15 2979 107 2 3 8 0 406 9798 712 676 6 35 4 17 49 105 206 1005 9562 1481 62 19 247 5154 39 210 20 1039 158 11 5526 2153 3198 
21 6 11 1087 0 1 2 3 107 46 7 5 1042 4 875 5604 611 2568 12 3839 233 37 13 54 2579 244 10 93 35 4162 70 275 7325 138 2848 2264 
22 442 96 0 3 40 2 49 11 24 462 205 47 173 4 89 157 22 822 6731 1 5 168 584 230 458 7 933 6 66 2045 28 1310 1290 
23 4 3535 6 2 50 0 1967 10 2664 1105 4001 1828 567 15 429 218 1 33 3989 7 17 1959 4477 124 55 3 8 708 
24 24 641 45 1 6307 4 0 8 27 145 15 542 974 21 12 3301 3 3171 102 31 2 906 2812 3124 3433 330 1012 14 181 42 4908 62 29 74 363 2060 
25 6 109 2546 8 0 10 4 342 9677 12 1 9 2 74 409 1293 13 5 463 249 807 226 36 1490 21 14 22 1859 757 3 127 27 69 3262 176 1610 1482 
26 0 1 4 2052 2 68 3946 3 10 562 26 66 64 60 2894 278 5 1582 3689 13 519 963 15 9493 131 7 17 229 1876 554 3110 138 
27 2 63 0 2769 3 60 3266 25 4 71 1137 411 6 11 240 8 1 2148 57 601 12 47 1225 32 160 5812 295 17 23 19 286 9 1345 2960 119 468 1954 867 
28 10 1 1788 43 980 6 301 55 44 15 8729 67 167 318 34 29 0 23 3 77 16 544 2 18 9 83 12 1000 7 38 63 554 4281 900 
29 127 3013 44 212 22 6 4088 13 350 2684 5 21 0 1 19 3424 37 2 2087 1721 3 243 17 4 437 48 34 628 7 727 15 6661 42 650 290 984 1673 1122 176 968 
30 3 1979 6696 1 12 9471 1210 148 0 2 134 2522 4 2967 992 117 16 15 6450 612 517 6097 40 36 8365 170 234 418 1332 22 258 914 1026 275 8 5526 
31 7 172 3 3618 5359 6 26 226 1320 5 15 0 1530 4683 1 55 216 238 39 53 143 29 1088 354 4604 694 842 209 4364 709 
32 488 0 5865 49 3900 17 390 5782 186 5893 1743 1506 6 3 4857 121 105 4625 332 1 9 1579 830 3160 7971 4548 22 4048 242 2 402 1799 5561 138 5921 
33 31 1 9 6697 4 91 20 0 3699 5 6 602 8488 1011 7 7387 12 539 16 3 5294 3790 22 188 940 2233 73 19 419 231 980 358 2444 2848 3097 
34 2469 514 19 114 9952 54 268 3222 1147 51 1 33 0 8 159 32 42 3 154 10 82 2 6523 322 27 817 587 5 4 12 57 4864 62 176 69 6604 138 1263 2153 
35 0 1 259 11 2 476 10 25 2239 483 1074 1909 5221 6012 344 8 7 3 4164 137 55 471 44 23 529 28 52 836 316 186 5 14 96 4613 
36 19 1 87 25 39 4051 0 71 2 21 250 280 1515 23 49 1388 179 36 24 561 1080 8 469 7 213 41 42 5005 9 353 161 103 6137 27 4090 2591 
37 0 98 41 2 848 2247 223 25 3 270 82 64 7 250 51 118 9 398 393 32 3528 933 762 1235 4752 7791 1748 31 291 27 57 155 126 968 1737 3097 4371 
38 698 3659 1073 101 3349 182 1 0 22 546 125 38 4 141 2 323 6166 5803 24 1337 75 25 12 205 150 257 
39 2 18 469 790 879 6 3 0 162 728 796 11 213 56 450 79 9 7182 60 1251 979 102 119 1395 7 439 94 1 14 421 5 7593 26 731 3751 417 613 747 1171 1671 5921 
40 16 42 1 539 13 12 51 803 5778 0 147 497 521 3 6025 528 26 3044 19 10 169 9 45 54 6847 22 1027 156 4 700 211 355 3849 
41 213 1 0 40 688 298 254 5 60 4850 54 2 7591 1815 239 20 253 11 365 287 49 9 9566 3 2609 16 3017 7 1572 554 2780 
42 214 1 137 250 0 280 23 3 7606 516 27 935 655 88 218 20 44 82 2 561 86 36 18 669 7 9519 15 1058 4 490 284 29 331 7347 12 33 908 
43 0 8512 251 2 3 187 26 70 14 11 6 8 2611 91 18 377 4 1894 117 13 502 231 24 15 1 309 12 399 1598 132 477 2052 158 27 138 4247 
44 10 332 5014 164 112 117 5 72 77 7 56 1 2091 2 1610 0 43 202 31 214 1051 25 9 135 256 2951 4089 6044 20 498 3 58 2575 197 1954 
45 66 2 0 1 2681 194 1351 278 42 56 15 18 23 840 7 107 462 6 57 22 179 671 85 11 8 156 3 31 324 4 315 2298 1000 69 554 2818 1502 
46 817 12 49 1 11 0 34 414 5 33 83 7 202 210 37 30 103 6018 739 654 6005 151 40 3 1746 228 970 534 1066 15 13 104 6 8 9 919 708 
47 1407 0 3 2142 750 5834 1 2 866 422 174 1948 343 6 18 4 375 947 53 7027 6558 11 131 21 15 1679 56 19 48 2052 7 79 90 103 5 8 859 2264 
48 134 1344 9 11 28 0 6227 1 30 74 2 6 4 17 315 21 7 13 96 2825 545 330 3825 1810 79 389 124 1312 6336 48 1260 119 218 8326 1765 71 3684 3561 2920 300 164 176 2955 
49 19 1959 2 88 29 297 0 272 28 6137 3 123 23 8973 42 118 419 646 14 108 64 9957 1 35 51 7718 235 4 3236 24 8 11 1752 7970 138 
50 5178 53 3 4096 251 0 32 38 5597 5 10 198 1269 4659 4 21 1921 124 1 2126 7 6755 2 16 33 1080 29 418 866 1089 2430 8 69 1482 
51 0 1 9234 28 33 4 2 8783 9 213 6 23 4705 597 788 4606 288 78 966 14 13 22 2410 63 200 7 508 21 45 1728 17 159 24 725 334 1989 2420 27 2818 9365 
52 225 229 47 384 0 27 2 239 11 1601 4025 5 9 6514 6001 1 310 18 365 8 23 753 2190 4 3761 16 2327 29 5625 143 3 21 32 138 
53 58 5222 30 0 1027 118 11 6 2 119 12 1207 17 8 154 807 325 170 4 5795 3 417 816 15 4244 117 28 1296 276 74 4838 846 1100 6630 524 5429 1315 303 948 138 1384 
54 0 3 2650 2 4 204 53 446 52 20 19 5 26 9 10 84 89 56 22 9957 1 854 2000 33 83 21 62 61 9019 16 18 159 3790 335 176 
55 3 0 20 24 57 3513 10 175 19 12 937 2301 1966 5 298 80 168 1693 9 83 2 31 114 1 2254 4 43 1106 960 6 30 27 138 
56 320 4 0 156 1136 256 3 21 2 20 6 76 1214 130 5617 167 1590 4848 50 278 35 1811 89 215 10 141 66 3756 2264 
57 10 4044 2477 110 5 147 7 723 4560 9357 2 480 0 153 41 33 1272 5020 2195 1 780 36 448 11 6438 114 54 9 8 1489 77 219 2212 3975 1263 
58 0 55 89 4104 5850 1 1378 264 550 3 24 1866 2986 101 4685 148 99 70 2 134 8076 4474 3768 4 35 1902 437 2619 4133 9 15 
59 4 9 2 65 167 21 323 0 5 769 75 1011 1 111 203 31 125 725 8601 6408 93 35 3843 6238 225 2187 1429 64 39 22 1728 11 1412 5333 
60 1 53 912 31 758 0 226 6 2052 48 201 115 68 67 2562 43 338 5 24 5605 1393 113 21 83 30 3 14 4390 28 6402 
61 1837 1 0 7473 214 31 16 9678 7 1706 106 5797 227 3 116 24 2 362 321 2458 7672 91 44 2683 2062 135 55 51 8 19 404 176 
62 245 209 13 0 4 5546 3 95 7 7777 178 42 510 8 9 527 2 68 11 672 957 113 83 7195 64 216 278 1275 277 6044 210 9593 601 1571 132 583 7624 138 1310 
63 70 799 14 553 6 36 106 0 5 2360 4 1 68 235 3 165 60 108 302 447 2 169 255 64 46 2067 4221 27 8 1106 9138 138 
64 296 10 17 55 11 12 760 136 4 328 0 6820 1 2262 22 29 6 475 234 8 2135 33 25 3828 3 187 120 1737 
65 144 402 0 160 19 1073 3 511 740 97 50 891 147 2 7 392 8518 1 106 20 217 24 4 36 1843 39 14 6 118 2706 3420 3767 
66 3 5120 325 59 21 2 885 29 34 35 0 1 1156 462 32 457 1438 976 11 4350 20 358 1452 44 8 1506 9 145 13 24 5 7316 845 16 3700 1413 
67 742 0 257 55 1 6147 47 4 3 222 82 45 17 133 7 5 200 136 10 6205 76 157 39 38 29 488 6 15 19 9 120 138 1290 
68 5539 4211 8 190 1 22 752 0 31 7 14 1078 6 1803 59 122 292 3 5 15 20 57 76 11 2524 12 2 194 226 253 69 138 
69 762 6 4 141 0 1593 1 1499 11 10 5 33 73 1883 427 1119 3 388 62 1279 2 358 109 8 9 17 8180 28 58 276 57 63 47 245 3561 977 1482 
70 337 6 4 3 4798 248 0 17 1 16 270 490 255 2 7 11 279 629 44 13 360 551 139 9 887 595 10 5431 2795 1262 27 8 708 3244 
71 17 0 158 9 26 180 3 4 36 1 92 84 268 391 793 197 163 189 308 15 1099 115 404 4914 4632 7 6 962 5 3881 34 10 1461 2 20 1506 329 2291 1958 2591 
72 10 79 0 11 5689 51 4 12 2859 54 5 55 2 8 1 1353 2507 1408 23 785 114 46 3317 72 347 14 21 41 591 15 409 3 724 356 7986 1434 138 900 
73 609 99 0 5 2 11 4680 46 1 10 6 71 380 3 15 1232 115 37 5479 109 17 23 8 382 16 137 224 9547 3528 41 57 65 197 252 1495 3110 3774 2060 
74 0 2 1401 184 37 1 24 58 64 435 625 1754 41 36 51 3502 6 145 3 2156 8875 2048 4 659 16 121 29 19 170 21 5792 13 9295 12 264 2385 621 126 
75 1863 0 308 86 3 12 3893 54 818 3175 5 1257 2 1515 84 19 2460 13 3033 78 1 25 92 507 21 506 147 7924 67 5519 74 3106 3244 1671 
76 0 43 2 39 3 10 3228 16 27 455 5 22 128 103 245 11 3279 48 17 47 1 8 35 556 6 34 45 108 129 305 6288 155 869 2060 8095 900 867 
77 9 8733 68 244 433 11 0 81 4 4138 5350 2 3 21 207 33 161 1130 10 12 1593 651 2657 75 173 197 134 18 499 7 28 273 19 1888 554 
78 0 633 759 96 396 17 94 3274 81 2 11 7818 1 29 15 14 345 3 3735 7 22 946 3123 8 215 102 339 16 1352 361 2232 28 12 126 138 7055 
79 36 380 0 47 60 186 6 17 9843 1021 5 3 54 238 74 3548 2 229 1709 51 12 98 63 1 706 14 7 87 1278 8 355 485 708 
80 0 328 4 1 1217 5 5052 186 390 3 1195 147 2 4824 40 10 25 351 41 45 4859 215 48 65 4618 116 12 7 2759 28 9 797 1572 
81 67 68 0 1 6226 559 9203 161 259 3 76 1017 4 2 47 317 6 15 9208 306 282 25 5931 715 273 22 24 6831 19 27 1583 869 138 7117 554 
82 4 3 196 10 715 0 22 142 288 5 314 1963 4325 2 8938 9 431 8427 247 14 9360 6 67 44 163 61 3943 5417 62 1906 2014 7 42 63 1671 155 3097 
83 3 257 34 3056 7287 192 85 18 4 2 129 1 2436 59 2098 130 0 12 2413 25 514 139 20 29 14 28 69 3975 3244 
84 0 10 3 1372 412 1446 233 26 395 363 4 127 776 6 885 12 1233 5 487 24 1620 58 19 1414 2 691 25 8044 141 16 371 45 8 1173 
85 25 40 0 31 412 19 90 38 9 73 216 59 217 5 13 1449 69 176 3 2024 14 4 475 3559 8 2065 1 121 56 52 4240 114 65 4102 
86 24 0 90 2 766 15 57 14 2475 173 3704 21 29 205 60 45 1 3488 144 194 7481 54 80 5731 12 982 6243 3 13 50 8 152 1310 
87 186 1009 0 25 49 62 1 6 6052 93 91 31 5046 18 179 5 8949 9 1725 6779 1368 11 279 3 176 2 293 41 2825 15 709 8 138 708 
88 2423 21 95 182 106 26 4 0 388 2 127 50 1 92 51 363 167 9 359 8 23 22 3915 6 100 3 11 25 38 3400 27 5507 120 1591 1263 
89 2 6 3 1 0 532 1036 12 240 11 837 5 178 1601 79 378 93 538 71 125 673 4 53 7 21 1757 112 66 218 100 351 19 7584 8450 
90 1 89 1150 763 2 19 49 15 128 310 17 212 27 3 5 14 4 969 0 28 114 953 229 519 1504 2516 34 1729 1514 1363 22 8 595 4408 4225 
91 3 1 0 651 663 12 13 8088 2 5 112 84 4370 22 2665 15 4 3003 164 55 5275 443 42 48 111 142 9 6 2477 60 407 4148 327 473 19 114 859 3244 1671 
92 108 17 1 6 0 26 16 59 5999 24 509 112 4 1407 106 592 5 41 4875 9 424 281 11 131 19 3 8 49 517 2 1320 5667 7 3158 309 1334 3097 
93 606 0 1865 33 17 8116 11 25 218 3 1152 14 18 5 19 2 4 1686 6 3324 4482 6480 49 65 292 67 129 37 50 23 63 199 
94 96 2 4 9 44 33 52 43 23 0 5909 321 258 161 28 3458 2882 21 7 414 12 1459 1627 1 653 757 3815 6149 1882 282 189 31 622 1917 
95 0 941 1 91 20 5 2 173 147 1628 212 29 3 14 1623 6913 908 589 652 258 335 2791 26 5196 2195 3769 43 25 228 37 7 890 57 3293 152 
96 360 5 0 268 3 27 2 1442 523 1 2644 2330 509 571 252 7 4 68 2251 229 2240 31 772 354 249 715 4184 8 1607 402 15 6043 2638 2099 28 5195 139 
97 100 248 7181 1 173 2745 0 17 117 3 772 796 2 8 1503 1627 20 21 4 3753 16 1053 5 3879 308 928 190 7 38 659 37 6102 4142 
98 1 7507 174 75 44 1006 0 56 40 13 6 62 269 58 8 241 2 10 1672 1545 410 55 41 52 1487 4 11 2752 157 927 249 
99 0 46 165 8401 323 2 6629 3 119 160 5774 4 144 6 18 862 5 1 116 433 7 2132 568 110 21 503 375 22 14 27 3110 138 
